{"molecules": [{"atc_classifications": [], "availability_type": -1, "biotherapeutic": null, "black_box_warning": 0, "chemical_probe": 0, "chirality": -1, "cross_references": [], "dosed_ingredient": false, "first_approval": null, "first_in_class": -1, "helm_notation": null, "inorganic_flag": -1, "max_phase": null, "molecule_chembl_id": "CHEMBL1095928", "molecule_hierarchy": {"active_chembl_id": "CHEMBL1095928", "molecule_chembl_id": "CHEMBL1095928", "parent_chembl_id": "CHEMBL1095928"}, "molecule_properties": {"alogp": "4.00", "aromatic_rings": 0, "full_molformula": "C20H26O3", "full_mwt": "314.43", "hba": 3, "hbd": 0, "heavy_atoms": 23, "mw_freebase": "314.43", "np_likeness_score": "3.75", "num_ro5_violations": 0, "psa": "43.37", "qed_weighted": "0.57", "ro3_pass": "N", "rtb": 2}, "molecule_structures": {"canonical_smiles": "C=C1CC[C@H]2C(C)(C)C(=O)CC[C@]2(C)[C@H]1/C=C/C1=CCOC1=O", "molfile": "\n     RDKit          2D\n\n 24 26  0  0  0  0  0  0  0  0999 V2000\n   -3.8254   -1.2584    0.0000 C   0  0  0  0  0  0  0  0  0  0  0  0\n   -3.8254   -2.0835    0.0000 C   0  0  0  0  0  0  0  0  0  0  0  0\n   -3.1133   -2.4919    0.0000 C   0  0  0  0  0  0  0  0  0  0  0  0\n   -3.1133   -0.8418    0.0000 C   0  0  0  0  0  0  0  0  0  0  0  0\n   -2.4012   -1.2584    0.0000 C   0  0  0  0  0  0  0  0  0  0  0  0\n   -2.4001   -2.0835    0.0000 C   0  0  0  0  0  0  0  0  0  0  0  0\n   -1.6891   -2.4928    0.0000 C   0  0  0  0  0  0  0  0  0  0  0  0\n   -0.9744   -2.0817    0.0000 C   0  0  0  0  0  0  0  0  0  0  0  0\n   -0.9755   -1.2566    0.0000 C   0  0  0  0  0  0  0  0  0  0  0  0\n   -1.6912   -0.8427    0.0000 C   0  0  0  0  0  0  0  0  0  0  0  0\n   -2.4085   -0.4333    0.0000 C   0  0  0  0  0  0  0  0  0  0  0  0\n   -1.6934   -0.0177    0.0000 C   0  0  0  0  0  0  0  0  0  0  0  0\n   -0.9799    0.3968    0.0000 C   0  0  0  0  0  0  0  0  0  0  0  0\n   -0.9821    1.2218    0.0000 C   0  0  0  0  0  0  0  0  0  0  0  0\n   -0.3165    1.7069    0.0000 C   0  0  0  0  0  0  0  0  0  0  0  0\n   -0.5736    2.4909    0.0000 C   0  0  0  0  0  0  0  0  0  0  0  0\n   -1.3987    2.4887    0.0000 O   0  0  0  0  0  0  0  0  0  0  0  0\n   -1.6515    1.7034    0.0000 C   0  0  0  0  0  0  0  0  0  0  0  0\n   -2.4351    1.4454    0.0000 O   0  0  0  0  0  0  0  0  0  0  0  0\n   -0.2610   -0.8439    0.0000 C   0  0  0  0  0  0  0  0  0  0  0  0\n   -3.5336   -3.2045    0.0000 C   0  0  0  0  0  0  0  0  0  0  0  0\n   -2.9045   -3.2878    0.0000 C   0  0  0  0  0  0  0  0  0  0  0  0\n   -2.4044   -2.9045    0.0000 H   0  0  0  0  0  0  0  0  0  0  0  0\n   -4.5393   -2.4971    0.0000 O   0  0  0  0  0  0  0  0  0  0  0  0\n 10 12  1  1\n  1  2  1  0\n 12 13  2  0\n  1  4  1  0\n 13 14  1  0\n 14 15  2  0\n  2  3  1  0\n  3  6  1  0\n  5  4  1  0\n  5 10  1  0\n 15 16  1  0\n 16 17  1  0\n 17 18  1  0\n 18 14  1  0\n  6  7  1  0\n 18 19  2  0\n  7  8  1  0\n  9 20  2  0\n  8  9  1  0\n  3 21  1  0\n  9 10  1  0\n  3 22  1  0\n  5  6  1  0\n  6 23  1  6\n  5 11  1  1\n  2 24  2  0\nM  END\n> <chembl_id>\nCHEMBL1095928\n\n> <chembl_pref_name>\nCURCUCOMOSIN A", "standard_inchi": "InChI=1S/C20H26O3/c1-13-5-8-16-19(2,3)17(21)9-11-20(16,4)15(13)7-6-14-10-12-23-18(14)22/h6-7,10,15-16H,1,5,8-9,11-12H2,2-4H3/b7-6+/t15-,16-,20+/m0/s1", "standard_inchi_key": "KTDQCVXTCDFYFT-GXYXAFEBSA-N"}, "molecule_synonyms": [], "molecule_type": "Small molecule", "natural_product": 1, "oral": false, "orphan": -1, "parenteral": false, "polymer_flag": 0, "pref_name": "CURCUCOMOSIN A", "prodrug": -1, "score": 22.0, "structure_type": "MOL", "therapeutic_flag": false, "topical": false, "usan_stem": null, "usan_stem_definition": null, "usan_substem": null, "usan_year": null, "veterinary": -1, "withdrawn_flag": false}, {"atc_classifications": [], "availability_type": -1, "biotherapeutic": null, "black_box_warning": 0, "chemical_probe": 0, "chirality": -1, "cross_references": [], "dosed_ingredient": false, "first_approval": null, "first_in_class": -1, "helm_notation": null, "inorganic_flag": -1, "max_phase": null, "molecule_chembl_id": "CHEMBL1095927", "molecule_hierarchy": {"active_chembl_id": "CHEMBL1095927", "molecule_chembl_id": "CHEMBL1095927", "parent_chembl_id": "CHEMBL1095927"}, "molecule_properties": {"alogp": "4.02", "aromatic_rings": 0, "full_molformula": "C20H30O3", "full_mwt": "318.46", "hba": 3, "hbd": 1, "heavy_atoms": 23, "mw_freebase": "318.46", "np_likeness_score": "3.42", "num_ro5_violations": 0, "psa": "46.53", "qed_weighted": "0.63", "ro3_pass": "N", "rtb": 3}, "molecule_structures": {"canonical_smiles": "C=C1CC[C@H]2C(C)(C)CCC[C@]2(C)[C@H]1C[C@@H](O)C1=CCOC1=O", "molfile": "\n     RDKit          2D\n\n 24 26  0  0  0  0  0  0  0  0999 V2000\n   -4.0712   -8.9966    0.0000 C   0  0  0  0  0  0  0  0  0  0  0  0\n   -4.0712   -9.8217    0.0000 C   0  0  0  0  0  0  0  0  0  0  0  0\n   -3.3591  -10.2301    0.0000 C   0  0  0  0  0  0  0  0  0  0  0  0\n   -3.3591   -8.5800    0.0000 C   0  0  0  0  0  0  0  0  0  0  0  0\n   -2.6470   -8.9966    0.0000 C   0  0  0  0  0  0  0  0  0  0  0  0\n   -2.6459   -9.8217    0.0000 C   0  0  0  0  0  0  0  0  0  0  0  0\n   -1.9349  -10.2310    0.0000 C   0  0  0  0  0  0  0  0  0  0  0  0\n   -1.2202   -9.8199    0.0000 C   0  0  0  0  0  0  0  0  0  0  0  0\n   -1.2213   -8.9948    0.0000 C   0  0  0  0  0  0  0  0  0  0  0  0\n   -1.9370   -8.5809    0.0000 C   0  0  0  0  0  0  0  0  0  0  0  0\n   -2.6544   -8.1716    0.0000 C   0  0  0  0  0  0  0  0  0  0  0  0\n   -1.9392   -7.7559    0.0000 C   0  0  0  0  0  0  0  0  0  0  0  0\n   -1.2257   -7.3414    0.0000 C   0  0  0  0  0  0  0  0  0  0  0  0\n   -1.2279   -6.5164    0.0000 C   0  0  0  0  0  0  0  0  0  0  0  0\n   -0.5624   -6.0314    0.0000 C   0  0  0  0  0  0  0  0  0  0  0  0\n   -0.8194   -5.2473    0.0000 C   0  0  0  0  0  0  0  0  0  0  0  0\n   -1.6446   -5.2495    0.0000 O   0  0  0  0  0  0  0  0  0  0  0  0\n   -1.8973   -6.0349    0.0000 C   0  0  0  0  0  0  0  0  0  0  0  0\n   -2.6810   -6.2928    0.0000 O   0  0  0  0  0  0  0  0  0  0  0  0\n   -0.5068   -8.5821    0.0000 C   0  0  0  0  0  0  0  0  0  0  0  0\n   -3.7795  -10.9427    0.0000 C   0  0  0  0  0  0  0  0  0  0  0  0\n   -3.1503  -11.0260    0.0000 C   0  0  0  0  0  0  0  0  0  0  0  0\n   -2.6502  -10.6427    0.0000 H   0  0  0  0  0  0  0  0  0  0  0  0\n   -0.5101   -7.7520    0.0000 O   0  0  0  0  0  0  0  0  0  0  0  0\n 10 12  1  1\n  1  2  1  0\n 12 13  1  0\n  1  4  1  0\n 13 14  1  0\n 14 15  2  0\n  2  3  1  0\n  3  6  1  0\n  5  4  1  0\n  5 10  1  0\n 15 16  1  0\n 16 17  1  0\n 17 18  1  0\n 18 14  1  0\n  6  7  1  0\n 18 19  2  0\n  7  8  1  0\n  9 20  2  0\n  8  9  1  0\n  3 21  1  0\n  9 10  1  0\n  3 22  1  0\n  5  6  1  0\n  6 23  1  6\n  5 11  1  1\n 13 24  1  6\nM  END\n> <chembl_id>\nCHEMBL1095927\n\n> <chembl_pref_name>\nCURCUCOMOSIN C", "standard_inchi": "InChI=1S/C20H30O3/c1-13-6-7-17-19(2,3)9-5-10-20(17,4)15(13)12-16(21)14-8-11-23-18(14)22/h8,15-17,21H,1,5-7,9-12H2,2-4H3/t15-,16+,17-,20+/m0/s1", "standard_inchi_key": "NNNUJNWMFLYQTF-PFRQMTDMSA-N"}, "molecule_synonyms": [], "molecule_type": "Small molecule", "natural_product": 1, "oral": false, "orphan": -1, "parenteral": false, "polymer_flag": 0, "pref_name": "CURCUCOMOSIN C", "prodrug": -1, "score": 16.0, "structure_type": "MOL", "therapeutic_flag": false, "topical": false, "usan_stem": null, "usan_stem_definition": null, "usan_substem": null, "usan_year": null, "veterinary": -1, "withdrawn_flag": false}, {"atc_classifications": [], "availability_type": -1, "biotherapeutic": null, "black_box_warning": 0, "chemical_probe": 0, "chirality": -1, "cross_references": [], "dosed_ingredient": false, "first_approval": null, "first_in_class": -1, "helm_notation": null, "inorganic_flag": -1, "max_phase": null, "molecule_chembl_id": "CHEMBL1098930", "molecule_hierarchy": {"active_chembl_id": "CHEMBL1098930", "molecule_chembl_id": "CHEMBL1098930", "parent_chembl_id": "CHEMBL1098930"}, "molecule_properties": {"alogp": "3.80", "aromatic_rings": 0, "full_molformula": "C20H28O3", "full_mwt": "316.44", "hba": 3, "hbd": 1, "heavy_atoms": 23, "mw_freebase": "316.44", "np_likeness_score": "3.78", "num_ro5_violations": 0, "psa": "46.53", "qed_weighted": "0.62", "ro3_pass": "N", "rtb": 2}, "molecule_structures": {"canonical_smiles": "C=C1CC[C@H]2C(C)(C)[C@@H](O)CC[C@]2(C)[C@H]1/C=C/C1=CCOC1=O", "molfile": "\n     RDKit          2D\n\n 24 26  0  0  0  0  0  0  0  0999 V2000\n    8.3958   -1.1750    0.0000 C   0  0  0  0  0  0  0  0  0  0  0  0\n    8.3958   -2.0000    0.0000 C   0  0  0  0  0  0  0  0  0  0  0  0\n    9.1079   -2.4083    0.0000 C   0  0  0  0  0  0  0  0  0  0  0  0\n    9.1079   -0.7583    0.0000 C   0  0  0  0  0  0  0  0  0  0  0  0\n    9.8199   -1.1750    0.0000 C   0  0  0  0  0  0  0  0  0  0  0  0\n    9.8209   -2.0000    0.0000 C   0  0  0  0  0  0  0  0  0  0  0  0\n   10.5320   -2.4093    0.0000 C   0  0  0  0  0  0  0  0  0  0  0  0\n   11.2465   -1.9982    0.0000 C   0  0  0  0  0  0  0  0  0  0  0  0\n   11.2455   -1.1732    0.0000 C   0  0  0  0  0  0  0  0  0  0  0  0\n   10.5299   -0.7593    0.0000 C   0  0  0  0  0  0  0  0  0  0  0  0\n    9.8125   -0.3500    0.0000 C   0  0  0  0  0  0  0  0  0  0  0  0\n   10.5277    0.0657    0.0000 C   0  0  0  0  0  0  0  0  0  0  0  0\n   11.2410    0.4801    0.0000 C   0  0  0  0  0  0  0  0  0  0  0  0\n   11.2388    1.3051    0.0000 C   0  0  0  0  0  0  0  0  0  0  0  0\n   11.9043    1.7901    0.0000 C   0  0  0  0  0  0  0  0  0  0  0  0\n   11.6473    2.5740    0.0000 C   0  0  0  0  0  0  0  0  0  0  0  0\n   10.8223    2.5718    0.0000 O   0  0  0  0  0  0  0  0  0  0  0  0\n   10.5695    1.7865    0.0000 C   0  0  0  0  0  0  0  0  0  0  0  0\n    9.7859    1.5286    0.0000 O   0  0  0  0  0  0  0  0  0  0  0  0\n   11.9598   -0.7605    0.0000 C   0  0  0  0  0  0  0  0  0  0  0  0\n    8.6875   -3.1208    0.0000 C   0  0  0  0  0  0  0  0  0  0  0  0\n    9.3167   -3.2042    0.0000 C   0  0  0  0  0  0  0  0  0  0  0  0\n    9.8167   -2.8208    0.0000 H   0  0  0  0  0  0  0  0  0  0  0  0\n    7.6820   -2.4135    0.0000 O   0  0  0  0  0  0  0  0  0  0  0  0\n 10 12  1  1\n  1  2  1  0\n 12 13  2  0\n  1  4  1  0\n 13 14  1  0\n 14 15  2  0\n  2  3  1  0\n  3  6  1  0\n  5  4  1  0\n  5 10  1  0\n 15 16  1  0\n 16 17  1  0\n 17 18  1  0\n 18 14  1  0\n  6  7  1  0\n 18 19  2  0\n  7  8  1  0\n  9 20  2  0\n  8  9  1  0\n  3 21  1  0\n  9 10  1  0\n  3 22  1  0\n  5  6  1  0\n  6 23  1  6\n  5 11  1  1\n  2 24  1  1\nM  END\n> <chembl_id>\nCHEMBL1098930\n\n> <chembl_pref_name>\nCURCUCOMOSIN B", "standard_inchi": "InChI=1S/C20H28O3/c1-13-5-8-16-19(2,3)17(21)9-11-20(16,4)15(13)7-6-14-10-12-23-18(14)22/h6-7,10,15-17,21H,1,5,8-9,11-12H2,2-4H3/b7-6+/t15-,16-,17-,20+/m0/s1", "standard_inchi_key": "CVGDOTXHTIZOKU-XHNMEYTFSA-N"}, "molecule_synonyms": [], "molecule_type": "Small molecule", "natural_product": 1, "oral": false, "orphan": -1, "parenteral": false, "polymer_flag": 0, "pref_name": "CURCUCOMOSIN B", "prodrug": -1, "score": 15.0, "structure_type": "MOL", "therapeutic_flag": false, "topical": false, "usan_stem": null, "usan_stem_definition": null, "usan_substem": null, "usan_year": null, "veterinary": -1, "withdrawn_flag": false}, {"atc_classifications": [], "availability_type": null, "biotherapeutic": null, "black_box_warning": 0, "chemical_probe": 0, "chirality": -1, "cross_references": [], "dosed_ingredient": false, "first_approval": null, "first_in_class": 0, "helm_notation": null, "inorganic_flag": 0, "max_phase": "2.0", "molecule_chembl_id": "CHEMBL4297904", "molecule_hierarchy": {"active_chembl_id": "CHEMBL4297904", "molecule_chembl_id": "CHEMBL4297904", "parent_chembl_id": "CHEMBL4297904"}, "molecule_properties": null, "molecule_structures": null, "molecule_synonyms": [{"molecule_synonym": "Bay-1093884", "syn_type": "OTHER", "synonyms": "BAY-1093884"}, {"molecule_synonym": "BAY-1093884", "syn_type": "RESEARCH_CODE", "synonyms": "BAY-1093884"}, {"molecule_synonym": "Bay1093884", "syn_type": "OTHER", "synonyms": "BAY1093884"}, {"molecule_synonym": "BAY1093884", "syn_type": "RESEARCH_CODE", "synonyms": "BAY1093884"}, {"molecule_synonym": "Befovacimab", "syn_type": "INN", "synonyms": "BEFOVACIMAB"}], "molecule_type": "Unknown", "natural_product": 0, "oral": false, "orphan": 0, "parenteral": false, "polymer_flag": 0, "pref_name": "BAY-1093884", "prodrug": 0, "score": 14.0, "structure_type": "NONE", "therapeutic_flag": false, "topical": false, "usan_stem": null, "usan_stem_definition": null, "usan_substem": null, "usan_year": null, "veterinary": 0, "withdrawn_flag": false}, {"atc_classifications": [], "availability_type": -1, "biotherapeutic": null, "black_box_warning": 0, "chemical_probe": 0, "chirality": 1, "cross_references": [{"xref_id": "human/EPAR/elocta", "xref_name": "elocta", "xref_src": "EMA"}], "dosed_ingredient": true, "first_approval": 2015, "first_in_class": 0, "helm_notation": null, "inorganic_flag": 0, "max_phase": "4.0", "molecule_chembl_id": "CHEMBL4297945", "molecule_hierarchy": {"active_chembl_id": "CHEMBL4297945", "molecule_chembl_id": "CHEMBL4297945", "parent_chembl_id": "CHEMBL4297945"}, "molecule_properties": null, "molecule_structures": null, "molecule_synonyms": [{"molecule_synonym": "Efmoroctocog alfa", "syn_type": "EMA", "synonyms": "EFMOROCTOCOG ALFA"}, {"molecule_synonym": "Efmoroctocog alfa", "syn_type": "INN", "synonyms": "EFMOROCTOCOG ALFA"}, {"molecule_synonym": "Efmoroctocog alfa", "syn_type": "OTHER", "synonyms": "EFMOROCTOCOG ALFA"}, {"molecule_synonym": "Efraloctocog alfa", "syn_type": "JAN", "synonyms": "EFRALOCTOCOG ALFA"}, {"molecule_synonym": "Elocta", "syn_type": "OTHER", "synonyms": "ELOCTA"}, {"molecule_synonym": "Elocta", "syn_type": "TRADE_NAME", "synonyms": "ELOCTA"}, {"molecule_synonym": "Eloctate", "syn_type": "OTHER", "synonyms": "ELOCTATE"}], "molecule_type": "Protein", "natural_product": 0, "oral": false, "orphan": 0, "parenteral": false, "polymer_flag": 0, "pref_name": "EFMOROCTOCOG ALFA", "prodrug": 0, "score": 14.0, "structure_type": "NONE", "therapeutic_flag": true, "topical": false, "usan_stem": "ef-", "usan_stem_definition": "Fc fusion protein", "usan_substem": "ef-", "usan_year": null, "veterinary": 0, "withdrawn_flag": false}, {"atc_classifications": ["B02BX06"], "availability_type": 1, "biotherapeutic": {"biocomponents": [{"component_id": 26040, "component_type": null, "description": "Disulfide bridges location", "organism": null, "sequence": "22-96 $ 22''-96'' $ 23'-88' $ 23'''-88'''$ 133''-214''' $ 134'-194' $ 134'''-194'''$ 137-214' $ 146''-202'' $ 150-206 $ 229-225'' $ 232'228'' $ 260''-320'' $ 264-324 $366''-424'' $ 370-428", "tax_id": null}, {"component_id": 26041, "component_type": "Protein", "description": "Light chain", "organism": null, "sequence": "DIQMTQSPSSLSASVGDRVTITCKASRNIERQLAWYQQKPGQAPELLIYQASRKESGVPDRFSGSRYGTDFTLTISSLQPEDIATYYCQQYSDPPLTFGGGTKVEIKRTVAAPSVFIFPPSDEQLKSGTASVVCLLNNFYPREAKVQWKVDNALQSGNSQESVTEQDSKDSTYSLSSTLTLSKADYEKHKVYACEVTHQGLSSPVTKSFNRGEC", "tax_id": null}, {"component_id": 26042, "component_type": "Protein", "description": "Heavy chain: anti-FX", "organism": null, "sequence": "QVQLVQSGSELKKPGASVKVSCKASGYTFTDNNMDWVRQAPGQGLEWMGDINTRSGGSIYNEEFQDRVIMTVDKSTDTAYMELSSLRSEDTATYHCARRKSYGYYLDEWGEGTLVTVSSASTKGPSVFPLAPCSRSTSESTAALGCLVKDYFPEPVTVSWNSGALTSGVHTFPAVLQSSGLYSLSSVVTVPSSSLGTQTYTCNVDHKPSNTKVDKRVESKYGPPCPPCPAPEFLGGPSVFLFPPKPKDTLMISRTPEVTCVVVDVSQEDPEVQFNWYVDGVEVHNAKTKPREEQYNSTYRVVSVLTVLHQDWLNGKEYKCKVSNKGLPSSIEKTISKAKGQPREPQVYTLPPSQEEMTKNQVSLTCLVKGFYPSDIAVEWESNGQPENNYKTTPPVLDSDGSFFLYSKLTVDKSRWQEGNVFSCSVMHEALHNHYTQESLSLSP", "tax_id": null}, {"component_id": 26043, "component_type": "Protein", "description": "Heavy chain: anti-FIXa", "organism": null, "sequence": "QVQLVESGGGLVQPGGSLRLSCAASGFTFSYYDIQWVRQAPGKGLEWVSSISPSGQSTYYRREVKGRFTISRDNSKNTLYLQMNSLRAEDTAVYYCARRTGREYGGGWYFDYWGQGTLVTVSSASTKGPSVFPLAPCSRSTSESTAALGCLVKDYFPEPVTVSWNSGALTSGVHTFPAVLQSSGLYSLSSVVTVPSSSLGTQTYTCNVDHKPSNTKVDKRVESKYGPPCPPCPAPEFLGGPSVFLFPPKPKDTLMISRTPEVTCVVVDVSQEDPEVQFNWYVDGVEVHNAKTKPREEQYNSTYRVVSVLTVLHQDWLNGKEYKCKVSNKGLPSSIEKTISKAKGQPREPQVYTLPPSQKEMTKNQVSLTCLVKGFYPSDIAVEWESNGQPENNYKTTPPVLDSDGSFFLYSKLTVDKSRWQEGNVFSCSVMHEALHNRYTQKSLSLSP", "tax_id": null}], "description": null, "helm_notation": null, "molecule_chembl_id": "CHEMBL3833393"}, "black_box_warning": 1, "chemical_probe": 0, "chirality": 1, "cross_references": [{"xref_id": "emicizumab", "xref_name": "emicizumab", "xref_src": "DailyMed"}, {"xref_id": "human/EPAR/hemlibra", "xref_name": "hemlibra", "xref_src": "EMA"}], "dosed_ingredient": true, "first_approval": 2017, "first_in_class": 1, "helm_notation": null, "inorganic_flag": 0, "max_phase": "4.0", "molecule_chembl_id": "CHEMBL3833393", "molecule_hierarchy": {"active_chembl_id": "CHEMBL3833393", "molecule_chembl_id": "CHEMBL3833393", "parent_chembl_id": "CHEMBL3833393"}, "molecule_properties": null, "molecule_structures": null, "molecule_synonyms": [{"molecule_synonym": "ACE-910", "syn_type": "RESEARCH_CODE", "synonyms": "ACE-910"}, {"molecule_synonym": "ACE910", "syn_type": "RESEARCH_CODE", "synonyms": "ACE910"}, {"molecule_synonym": "Emicizumab", "syn_type": "ATC", "synonyms": "EMICIZUMAB"}, {"molecule_synonym": "Emicizumab", "syn_type": "EMA", "synonyms": "EMICIZUMAB"}, {"molecule_synonym": "Emicizumab", "syn_type": "FDA", "synonyms": "EMICIZUMAB"}, {"molecule_synonym": "Emicizumab", "syn_type": "INN", "synonyms": "EMICIZUMAB"}, {"molecule_synonym": "Emicizumab", "syn_type": "MERCK_INDEX", "synonyms": "EMICIZUMAB"}, {"molecule_synonym": "Emicizumab", "syn_type": "OTHER", "synonyms": "EMICIZUMAB"}, {"molecule_synonym": "Emicizumab", "syn_type": "USAN", "synonyms": "EMICIZUMAB"}, {"molecule_synonym": "Emicizumab kxwh", "syn_type": "OTHER", "synonyms": "EMICIZUMAB KXWH"}, {"molecule_synonym": "Emicizumab-kxwh", "syn_type": "OTHER", "synonyms": "EMICIZUMAB-KXWH"}, {"molecule_synonym": "Hemlibra", "syn_type": "TRADE_NAME", "synonyms": "Hemlibra"}], "molecule_type": "Antibody", "natural_product": 0, "oral": false, "orphan": 0, "parenteral": true, "polymer_flag": 0, "pref_name": "EMICIZUMAB", "prodrug": 0, "score": 13.0, "structure_type": "SEQ", "therapeutic_flag": true, "topical": false, "usan_stem": "-mab; -mab", "usan_stem_definition": "monoclonal antibodies: fully human; monoclonal antibodies: humanized", "usan_substem": "-mab (-umab); -mab (-zumab)", "usan_year": 2016, "veterinary": 0, "withdrawn_flag": false}, {"atc_classifications": ["B02BX11"], "availability_type": 1, "biotherapeutic": {"biocomponents": [{"component_id": 25053, "component_type": "Protein", "description": "Heavy chain", "organism": null, "sequence": "EVQLLESGGGLVQPGGSLRLSCAASGFTFSSYAMSWVRQAPGKGLEWVSAISGSGGSTYYADSVKGRFTISRDNSKNTLYLQMNSLRAEDTAVYYCAILGATSLSAFDIWGQGTMVTVSSASTKGPSVFPLAPSSKSTSGGTAALGCLVKDYFPEPVTVSWNSGALTSGVHTFPAVLQSSGLYSLSSVVTVPSSSLGTQTYICNVNHKPSNTKVDKKVEPKSCDKTHTCPPCPAPEAAGAPSVFLFPPKPKDTLMISRTPEVTCVVVDVSHEDPEVKFNWYVDGVEVHNAKTKPREEQYNSTYRVVSVLTVLHQDWLNGKEYKCKVSNKALPAPIEKTISKAKGQPREPQVYTLPPSREEMTKNQVSLTCLVKGFYPSDIAVEWESNGQPENNYKTTPPVLDSDGSFFLYSKLTVDKSRWQQGNVFSCSVMHEALHNHYTQKSLSLSPG", "tax_id": null}, {"component_id": 25054, "component_type": "Protein", "description": "Light chain", "organism": null, "sequence": "QSVLTQPPSVSGAPGQRVTISCTGSSSNIGAGYDVHWYQQLPGTAPKLLIYGNSNRPSGVPDRFSGSKSGTSASLAITGLQAEDEADYYCQSYDSSLSGSGVFGGGTKLTVLGQPKAAPSVTLFPPSSEELQANKATLVCLISDFYPGAVTVAWKADSSPVKAGVETTTPSKQSNNKYAASSYLSLTPEQWKSHRSYSCQVTHEGSTVEKTVAPTECS", "tax_id": null}, {"component_id": 25055, "component_type": null, "description": "Disulfide bridges location", "organism": null, "sequence": "22'-90'$22'''-90'''$22-96$22''-96''$140'-199'$140'''-199'''$147-203$147''-203''$217'-223$217'''-223''$229-229''$232-232''$264-324$264''-324''$370-428$370''-428''", "tax_id": null}, {"component_id": 25056, "component_type": null, "description": "Modified residues", "organism": null, "sequence": "Q1(SMILES):[H][C@]1(CCC(=O)N1)C(O)=O", "tax_id": null}], "description": null, "helm_notation": null, "molecule_chembl_id": "CHEMBL3990039"}, "black_box_warning": 0, "chemical_probe": 0, "chirality": 1, "cross_references": [], "dosed_ingredient": true, "first_approval": null, "first_in_class": 1, "helm_notation": null, "inorganic_flag": 0, "max_phase": "4.0", "molecule_chembl_id": "CHEMBL3990039", "molecule_hierarchy": {"active_chembl_id": "CHEMBL3990039", "molecule_chembl_id": "CHEMBL3990039", "parent_chembl_id": "CHEMBL3990039"}, "molecule_properties": null, "molecule_structures": null, "molecule_synonyms": [{"molecule_synonym": "Hympavzi", "syn_type": "TRADE_NAME", "synonyms": "HYMPAVZI"}, {"molecule_synonym": "Marstacimab", "syn_type": "ATC", "synonyms": "MARSTACIMAB"}, {"molecule_synonym": "Marstacimab", "syn_type": "FDA", "synonyms": "MARSTACIMAB"}, {"molecule_synonym": "Marstacimab", "syn_type": "INN", "synonyms": "MARSTACIMAB"}, {"molecule_synonym": "Marstacimab", "syn_type": "OTHER", "synonyms": "MARSTACIMAB"}, {"molecule_synonym": "Marstacimab", "syn_type": "USAN", "synonyms": "MARSTACIMAB"}, {"molecule_synonym": "Marstacimab-hncq", "syn_type": "FDA", "synonyms": "MARSTACIMAB-HNCQ"}, {"molecule_synonym": "PF-06741086", "syn_type": "RESEARCH_CODE", "synonyms": "PF-06741086"}], "molecule_type": "Antibody", "natural_product": 0, "oral": false, "orphan": 0, "parenteral": true, "polymer_flag": 0, "pref_name": "MARSTACIMAB", "prodrug": 0, "score": 13.0, "structure_type": "SEQ", "therapeutic_flag": true, "topical": false, "usan_stem": "-mab", "usan_stem_definition": "monoclonal antibodies", "usan_substem": "-mab", "usan_year": 2017, "veterinary": 0, "withdrawn_flag": false}, {"atc_classifications": [], "availability_type": null, "biotherapeutic": null, "black_box_warning": 0, "chemical_probe": 0, "chirality": -1, "cross_references": [], "dosed_ingredient": false, "first_approval": null, "first_in_class": 0, "helm_notation": null, "inorganic_flag": 0, "max_phase": "3.0", "molecule_chembl_id": "CHEMBL4297754", "molecule_hierarchy": {"active_chembl_id": "CHEMBL4297754", "molecule_chembl_id": "CHEMBL4297754", "parent_chembl_id": "CHEMBL4297754"}, "molecule_properties": null, "molecule_structures": null, "molecule_synonyms": [{"molecule_synonym": "ALN-57213", "syn_type": "RESEARCH_CODE", "synonyms": "ALN-57213"}, {"molecule_synonym": "Aln-at3sc", "syn_type": "OTHER", "synonyms": "ALN-AT3SC"}, {"molecule_synonym": "ALN-AT3SC", "syn_type": "RESEARCH_CODE", "synonyms": "ALN-AT3SC"}, {"molecule_synonym": "Fitusiran", "syn_type": "INN", "synonyms": "FITUSIRAN"}, {"molecule_synonym": "Fitusiran", "syn_type": "OTHER", "synonyms": "FITUSIRAN"}, {"molecule_synonym": "Fitusiran", "syn_type": "USAN", "synonyms": "FITUSIRAN"}], "molecule_type": "Oligonucleotide", "natural_product": 0, "oral": false, "orphan": 0, "parenteral": false, "polymer_flag": 0, "pref_name": "FITUSIRAN", "prodrug": 0, "score": 13.0, "structure_type": "NONE", "therapeutic_flag": false, "topical": false, "usan_stem": null, "usan_stem_definition": null, "usan_substem": null, "usan_year": null, "veterinary": 0, "withdrawn_flag": false}, {"atc_classifications": [], "availability_type": null, "biotherapeutic": null, "black_box_warning": 0, "chemical_probe": 0, "chirality": -1, "cross_references": [], "dosed_ingredient": false, "first_approval": null, "first_in_class": 0, "helm_notation": null, "inorganic_flag": 0, "max_phase": "2.0", "molecule_chembl_id": "CHEMBL4298072", "molecule_hierarchy": {"active_chembl_id": "CHEMBL4298072", "molecule_chembl_id": "CHEMBL4298072", "parent_chembl_id": "CHEMBL4298072"}, "molecule_properties": null, "molecule_structures": null, "molecule_synonyms": [{"molecule_synonym": "Cb-813", "syn_type": "OTHER", "synonyms": "CB-813"}, {"molecule_synonym": "Marzeptacog alfa (activado)", "syn_type": "INN_SPANISH", "synonyms": "MARZEPTACOG ALFA (ACTIVADO)"}, {"molecule_synonym": "Marzeptacog alfa (activated)", "syn_type": "INN", "synonyms": "MARZEPTACOG ALFA (ACTIVATED)"}, {"molecule_synonym": "Marzeptacog alfa (activated)", "syn_type": "OTHER", "synonyms": "MARZEPTACOG ALFA (ACTIVATED)"}, {"molecule_synonym": "Marzeptacog alfa (active)", "syn_type": "INN_FRENCH", "synonyms": "MARZEPTACOG ALFA (ACTIVE)"}, {"molecule_synonym": "Marzeptacog alpha", "syn_type": "OTHER", "synonyms": "MARZEPTACOG ALPHA"}, {"molecule_synonym": "Pf-05280602", "syn_type": "OTHER", "synonyms": "PF-05280602"}, {"molecule_synonym": "PF-05280602", "syn_type": "RESEARCH_CODE", "synonyms": "PF-05280602"}], "molecule_type": "Unknown", "natural_product": 0, "oral": false, "orphan": 0, "parenteral": false, "polymer_flag": 0, "pref_name": "MARZEPTACOG ALFA (ACTIVATED)", "prodrug": 0, "score": 13.0, "structure_type": "NONE", "therapeutic_flag": false, "topical": false, "usan_stem": null, "usan_stem_definition": null, "usan_substem": null, "usan_year": null, "veterinary": 0, "withdrawn_flag": false}, {"atc_classifications": [], "availability_type": null, "biotherapeutic": null, "black_box_warning": 0, "chemical_probe": 0, "chirality": 1, "cross_references": [{"xref_id": "https://searchusan.ama-assn.org/finder/usan/search/GIROCTOCOGENE%20FITELPARVOVEC/relevant/1/", "xref_name": "GIROCTOCOGENE FITELPARVOVEC", "xref_src": "USAN"}], "dosed_ingredient": false, "first_approval": null, "first_in_class": 0, "helm_notation": null, "inorganic_flag": 0, "max_phase": "3.0", "molecule_chembl_id": "CHEMBL4298194", "molecule_hierarchy": {"active_chembl_id": "CHEMBL4298194", "molecule_chembl_id": "CHEMBL4298194", "parent_chembl_id": "CHEMBL4298194"}, "molecule_properties": null, "molecule_structures": null, "molecule_synonyms": [{"molecule_synonym": "Giroctocogene fitelparvovec", "syn_type": "INN", "synonyms": "GIROCTOCOGENE FITELPARVOVEC"}, {"molecule_synonym": "Giroctocogene fitelparvovec", "syn_type": "OTHER", "synonyms": "GIROCTOCOGENE FITELPARVOVEC"}, {"molecule_synonym": "Giroctocogene fitelparvovec", "syn_type": "USAN", "synonyms": "GIROCTOCOGENE FITELPARVOVEC"}, {"molecule_synonym": "Giroctocogen fitelparvovec", "syn_type": "INN_SPANISH", "synonyms": "GIROCTOCOGEN FITELPARVOVEC"}, {"molecule_synonym": "PF-07055480", "syn_type": "RESEARCH_CODE", "synonyms": "PF-07055480"}, {"molecule_synonym": "SB-525", "syn_type": "RESEARCH_CODE", "synonyms": "SB-525"}], "molecule_type": "Gene", "natural_product": 0, "oral": false, "orphan": 0, "parenteral": false, "polymer_flag": 0, "pref_name": "GIROCTOCOGENE FITELPARVOVEC", "prodrug": 0, "score": 13.0, "structure_type": "NONE", "therapeutic_flag": false, "topical": false, "usan_stem": null, "usan_stem_definition": null, "usan_substem": null, "usan_year": 2019, "veterinary": 0, "withdrawn_flag": false}], "page_meta": {"limit": 10, "next": "/chembl/api/data/molecule/search.json?limit=10&offset=10&q=curcucomosin+A", "offset": 0, "previous": null, "total_count": 10000}}