{"activities": [{"action_type": null, "activity_comment": null, "activity_id": 123477, "activity_properties": [], "assay_chembl_id": "CHEMBL689647", "assay_description": "In vitro inhibitory concentration against proliferation of HL60 cells", "assay_type": "F", "assay_variant_accession": null, "assay_variant_mutation": null, "bao_endpoint": "BAO_0000190", "bao_format": "BAO_0000219", "bao_label": "cell-based format", "canonical_smiles": "Oc1ccc(/C=C/c2cc(O)cc(O)c2)cc1", "data_validity_comment": null, "data_validity_description": null, "document_chembl_id": "CHEMBL1144989", "document_journal": "J Med Chem", "document_year": 2003, "ligand_efficiency": null, "molecule_chembl_id": "CHEMBL165", "molecule_pref_name": "RESVERATROL", "parent_molecule_chembl_id": "CHEMBL165", "pchembl_value": "5.30", "potential_duplicate": 0, "qudt_units": "http://www.openphacts.org/units/Nanomolar", "record_id": 224736, "relation": "=", "src_id": 1, "standard_flag": 1, "standard_relation": "=", "standard_text_value": null, "standard_type": "IC50", "standard_units": "nM", "standard_upper_value": null, "standard_value": "5000.0", "target_chembl_id": "CHEMBL383", "target_organism": "Homo sapiens", "target_pref_name": "HL-60", "target_tax_id": "9606", "text_value": null, "toid": null, "type": "IC50", "units": "uM", "uo_units": "UO_0000065", "upper_value": null, "value": "5.0"}, {"action_type": null, "activity_comment": null, "activity_id": 123478, "activity_properties": [], "assay_chembl_id": "CHEMBL689641", "assay_description": "In vitro concentration required to induce apoptosis in HL60 cells", "assay_type": "F", "assay_variant_accession": null, "assay_variant_mutation": null, "bao_endpoint": "BAO_0000186", "bao_format": "BAO_0000219", "bao_label": "cell-based format", "canonical_smiles": "Oc1ccc(/C=C/c2cc(O)cc(O)c2)cc1", "data_validity_comment": null, "data_validity_description": null, "document_chembl_id": "CHEMBL1144989", "document_journal": "J Med Chem", "document_year": 2003, "ligand_efficiency": null, "molecule_chembl_id": "CHEMBL165", "molecule_pref_name": "RESVERATROL", "parent_molecule_chembl_id": "CHEMBL165", "pchembl_value": "4.30", "potential_duplicate": 0, "qudt_units": "http://www.openphacts.org/units/Nanomolar", "record_id": 224736, "relation": "=", "src_id": 1, "standard_flag": 1, "standard_relation": "=", "standard_text_value": null, "standard_type": "AC50", "standard_units": "nM", "standard_upper_value": null, "standard_value": "50000.0", "target_chembl_id": "CHEMBL383", "target_organism": "Homo sapiens", "target_pref_name": "HL-60", "target_tax_id": "9606", "text_value": null, "toid": null, "type": "AC50", "units": "uM", "uo_units": "UO_0000065", "upper_value": null, "value": "50.0"}, {"action_type": null, "activity_comment": null, "activity_id": 389463, "activity_properties": [], "assay_chembl_id": "CHEMBL770635", "assay_description": "Inhibitory effect on PGE-2 production in LPS-stimulated RAW264.7 cells", "assay_type": "F", "assay_variant_accession": null, "assay_variant_mutation": null, "bao_endpoint": "BAO_0000190", "bao_format": "BAO_0000219", "bao_label": "cell-based format", "canonical_smiles": "Oc1ccc(/C=C/c2cc(O)cc(O)c2)cc1", "data_validity_comment": null, "data_validity_description": null, "document_chembl_id": "CHEMBL1147543", "document_journal": "Bioorg Med Chem Lett", "document_year": 2004, "ligand_efficiency": null, "molecule_chembl_id": "CHEMBL165", "molecule_pref_name": "RESVERATROL", "parent_molecule_chembl_id": "CHEMBL165", "pchembl_value": "5.40", "potential_duplicate": 0, "qudt_units": "http://www.openphacts.org/units/Nanomolar", "record_id": 114852, "relation": "=", "src_id": 1, "standard_flag": 1, "standard_relation": "=", "standard_text_value": null, "standard_type": "IC50", "standard_units": "nM", "standard_upper_value": null, "standard_value": "4000.0", "target_chembl_id": "CHEMBL612557", "target_organism": "Mus musculus", "target_pref_name": "RAW264.7", "target_tax_id": "10090", "text_value": null, "toid": null, "type": "IC50", "units": "uM", "uo_units": "UO_0000065", "upper_value": null, "value": "4.0"}, {"action_type": null, "activity_comment": null, "activity_id": 661918, "activity_properties": [], "assay_chembl_id": "CHEMBL765997", "assay_description": "Tested in vitro for the inhibition of protein-tyrosine kinase p56lck using angiotensin I (1.2 mM) and [gamma-32P]-ATP (50 pM)", "assay_type": "B", "assay_variant_accession": null, "assay_variant_mutation": null, "bao_endpoint": "BAO_0000190", "bao_format": "BAO_0000357", "bao_label": "single protein format", "canonical_smiles": "Oc1ccc(/C=C/c2cc(O)cc(O)c2)cc1", "data_validity_comment": "Outside typical range", "data_validity_description": "Values for this activity type are unusually large/small, so may not be accurate", "document_chembl_id": "CHEMBL1126838", "document_journal": "J Med Chem", "document_year": 1993, "ligand_efficiency": null, "molecule_chembl_id": "CHEMBL165", "molecule_pref_name": "RESVERATROL", "parent_molecule_chembl_id": "CHEMBL165", "pchembl_value": null, "potential_duplicate": 0, "qudt_units": "http://www.openphacts.org/units/Nanomolar", "record_id": 186521, "relation": "=", "src_id": 1, "standard_flag": 1, "standard_relation": "=", "standard_text_value": null, "standard_type": "IC50", "standard_units": "nM", "standard_upper_value": null, "standard_value": "112000.0", "target_chembl_id": "CHEMBL258", "target_organism": "Homo sapiens", "target_pref_name": "Tyrosine-protein kinase Lck", "target_tax_id": "9606", "text_value": null, "toid": null, "type": "IC50", "units": "uM", "uo_units": "UO_0000065", "upper_value": null, "value": "112.0"}, {"action_type": null, "activity_comment": null, "activity_id": 855747, "activity_properties": [], "assay_chembl_id": "CHEMBL844728", "assay_description": "Free radical scavenging activity of DPPH was determined", "assay_type": "B", "assay_variant_accession": null, "assay_variant_mutation": null, "bao_endpoint": "BAO_0000190", "bao_format": "BAO_0000019", "bao_label": "assay format", "canonical_smiles": "Oc1ccc(/C=C/c2cc(O)cc(O)c2)cc1", "data_validity_comment": "Outside typical range", "data_validity_description": "Values for this activity type are unusually large/small, so may not be accurate", "document_chembl_id": "CHEMBL1146840", "document_journal": "Bioorg Med Chem Lett", "document_year": 2004, "ligand_efficiency": null, "molecule_chembl_id": "CHEMBL165", "molecule_pref_name": "RESVERATROL", "parent_molecule_chembl_id": "CHEMBL165", "pchembl_value": null, "potential_duplicate": 0, "qudt_units": "http://www.openphacts.org/units/Nanomolar", "record_id": 275543, "relation": "=", "src_id": 1, "standard_flag": 1, "standard_relation": "=", "standard_text_value": null, "standard_type": "IC50", "standard_units": "nM", "standard_upper_value": null, "standard_value": "123300.0", "target_chembl_id": "CHEMBL612545", "target_organism": null, "target_pref_name": "Unchecked", "target_tax_id": null, "text_value": null, "toid": null, "type": "IC50", "units": "uM", "uo_units": "UO_0000065", "upper_value": null, "value": "123.3"}, {"action_type": null, "activity_comment": null, "activity_id": 855748, "activity_properties": [], "assay_chembl_id": "CHEMBL874054", "assay_description": "Free radical scavenging activity of DPPH was determined; value taken from reference 11", "assay_type": "B", "assay_variant_accession": null, "assay_variant_mutation": null, "bao_endpoint": "BAO_0000190", "bao_format": "BAO_0000019", "bao_label": "assay format", "canonical_smiles": "Oc1ccc(/C=C/c2cc(O)cc(O)c2)cc1", "data_validity_comment": null, "data_validity_description": null, "document_chembl_id": "CHEMBL1146840", "document_journal": "Bioorg Med Chem Lett", "document_year": 2004, "ligand_efficiency": null, "molecule_chembl_id": "CHEMBL165", "molecule_pref_name": "RESVERATROL", "parent_molecule_chembl_id": "CHEMBL165", "pchembl_value": "4.13", "potential_duplicate": 0, "qudt_units": "http://www.openphacts.org/units/Nanomolar", "record_id": 275543, "relation": "=", "src_id": 1, "standard_flag": 1, "standard_relation": "=", "standard_text_value": null, "standard_type": "IC50", "standard_units": "nM", "standard_upper_value": null, "standard_value": "74000.0", "target_chembl_id": "CHEMBL612545", "target_organism": null, "target_pref_name": "Unchecked", "target_tax_id": null, "text_value": null, "toid": null, "type": "IC50", "units": "uM", "uo_units": "UO_0000065", "upper_value": null, "value": "74.0"}, {"action_type": null, "activity_comment": null, "activity_id": 855749, "activity_properties": [], "assay_chembl_id": "CHEMBL838987", "assay_description": "Free radical scavenging activity of DPPH w.r.t. resveratrol was determined", "assay_type": "B", "assay_variant_accession": null, "assay_variant_mutation": null, "bao_endpoint": "BAO_0000179", "bao_format": "BAO_0000019", "bao_label": "assay format", "canonical_smiles": "Oc1ccc(/C=C/c2cc(O)cc(O)c2)cc1", "data_validity_comment": null, "data_validity_description": null, "document_chembl_id": "CHEMBL1146840", "document_journal": "Bioorg Med Chem Lett", "document_year": 2004, "ligand_efficiency": null, "molecule_chembl_id": "CHEMBL165", "molecule_pref_name": "RESVERATROL", "parent_molecule_chembl_id": "CHEMBL165", "pchembl_value": null, "potential_duplicate": 0, "qudt_units": null, "record_id": 275543, "relation": "=", "src_id": 1, "standard_flag": 0, "standard_relation": "=", "standard_text_value": null, "standard_type": "Relative IC50", "standard_units": null, "standard_upper_value": null, "standard_value": "1.0", "target_chembl_id": "CHEMBL612545", "target_organism": null, "target_pref_name": "Unchecked", "target_tax_id": null, "text_value": null, "toid": null, "type": "Relative IC50", "units": null, "uo_units": null, "upper_value": null, "value": "1.0"}, {"action_type": null, "activity_comment": null, "activity_id": 855750, "activity_properties": [], "assay_chembl_id": "CHEMBL844842", "assay_description": "Free radical scavenging activity of DPPH expressed as percent polyphenol", "assay_type": "B", "assay_variant_accession": null, "assay_variant_mutation": null, "bao_endpoint": "BAO_0001103", "bao_format": "BAO_0000019", "bao_label": "assay format", "canonical_smiles": "Oc1ccc(/C=C/c2cc(O)cc(O)c2)cc1", "data_validity_comment": null, "data_validity_description": null, "document_chembl_id": "CHEMBL1146840", "document_journal": "Bioorg Med Chem Lett", "document_year": 2004, "ligand_efficiency": null, "molecule_chembl_id": "CHEMBL165", "molecule_pref_name": "RESVERATROL", "parent_molecule_chembl_id": "CHEMBL165", "pchembl_value": null, "potential_duplicate": 0, "qudt_units": "http://qudt.org/vocab/unit#Percent", "record_id": 275543, "relation": "=", "src_id": 1, "standard_flag": 0, "standard_relation": "=", "standard_text_value": null, "standard_type": "Activity", "standard_units": "%", "standard_upper_value": null, "standard_value": "100.0", "target_chembl_id": "CHEMBL612545", "target_organism": null, "target_pref_name": "Unchecked", "target_tax_id": null, "text_value": null, "toid": null, "type": "Activity", "units": "%", "uo_units": "UO_0000187", "upper_value": null, "value": "100.0"}, {"action_type": null, "activity_comment": null, "activity_id": 973886, "activity_properties": [], "assay_chembl_id": "CHEMBL739443", "assay_description": "Inhibitory activity against nitric oxide production in LPS-activated mouse peritoneal macrophages", "assay_type": "F", "assay_variant_accession": null, "assay_variant_mutation": null, "bao_endpoint": "BAO_0000190", "bao_format": "BAO_0000218", "bao_label": "organism-based format", "canonical_smiles": "Oc1ccc(/C=C/c2cc(O)cc(O)c2)cc1", "data_validity_comment": null, "data_validity_description": null, "document_chembl_id": "CHEMBL1133390", "document_journal": "Bioorg Med Chem Lett", "document_year": 2000, "ligand_efficiency": null, "molecule_chembl_id": "CHEMBL165", "molecule_pref_name": "RESVERATROL", "parent_molecule_chembl_id": "CHEMBL165", "pchembl_value": "4.17", "potential_duplicate": 0, "qudt_units": "http://www.openphacts.org/units/Nanomolar", "record_id": 208798, "relation": "=", "src_id": 1, "standard_flag": 1, "standard_relation": "=", "standard_text_value": null, "standard_type": "IC50", "standard_units": "nM", "standard_upper_value": null, "standard_value": "68000.0", "target_chembl_id": "CHEMBL375", "target_organism": "Mus musculus", "target_pref_name": "Mus musculus", "target_tax_id": "10090", "text_value": null, "toid": null, "type": "IC50", "units": "uM", "uo_units": "UO_0000065", "upper_value": null, "value": "68.0"}, {"action_type": null, "activity_comment": null, "activity_id": 991672, "activity_properties": [], "assay_chembl_id": "CHEMBL754537", "assay_description": "In vitro inhibition of P388 (murine leukemia) cell proliferation.", "assay_type": "F", "assay_variant_accession": null, "assay_variant_mutation": null, "bao_endpoint": "BAO_0003036", "bao_format": "BAO_0000219", "bao_label": "cell-based format", "canonical_smiles": "Oc1ccc(/C=C/c2cc(O)cc(O)c2)cc1", "data_validity_comment": null, "data_validity_description": null, "document_chembl_id": "CHEMBL1135463", "document_journal": "J Med Chem", "document_year": 2002, "ligand_efficiency": null, "molecule_chembl_id": "CHEMBL165", "molecule_pref_name": "RESVERATROL", "parent_molecule_chembl_id": "CHEMBL165", "pchembl_value": null, "potential_duplicate": 0, "qudt_units": "http://www.openphacts.org/units/MicrogramPerMilliliter", "record_id": 153373, "relation": "=", "src_id": 1, "standard_flag": 0, "standard_relation": "=", "standard_text_value": null, "standard_type": "ED50", "standard_units": "ug ml-1", "standard_upper_value": null, "standard_value": "4.49", "target_chembl_id": "CHEMBL389", "target_organism": "Mus musculus", "target_pref_name": "P388", "target_tax_id": "10090", "text_value": null, "toid": null, "type": "ED50", "units": "ug ml-1", "uo_units": "UO_0000274", "upper_value": null, "value": "4.49"}, {"action_type": null, "activity_comment": null, "activity_id": 991673, "activity_properties": [], "assay_chembl_id": "CHEMBL647434", "assay_description": "In vitro growth inhibition of BXPC-3 (human pancreatic adenocarcinoma) cell line.", "assay_type": "F", "assay_variant_accession": null, "assay_variant_mutation": null, "bao_endpoint": "BAO_0000189", "bao_format": "BAO_0000219", "bao_label": "cell-based format", "canonical_smiles": "Oc1ccc(/C=C/c2cc(O)cc(O)c2)cc1", "data_validity_comment": null, "data_validity_description": null, "document_chembl_id": "CHEMBL1135463", "document_journal": "J Med Chem", "document_year": 2002, "ligand_efficiency": null, "molecule_chembl_id": "CHEMBL165", "molecule_pref_name": "RESVERATROL", "parent_molecule_chembl_id": "CHEMBL165", "pchembl_value": null, "potential_duplicate": 0, "qudt_units": "http://www.openphacts.org/units/MicrogramPerMilliliter", "record_id": 153373, "relation": "=", "src_id": 1, "standard_flag": 1, "standard_relation": "=", "standard_text_value": null, "standard_type": "GI50", "standard_units": "ug.mL-1", "standard_upper_value": null, "standard_value": "3.3", "target_chembl_id": "CHEMBL614530", "target_organism": "Homo sapiens", "target_pref_name": "BXPC-3", "target_tax_id": "9606", "text_value": null, "toid": null, "type": "GI50", "units": "ug ml-1", "uo_units": "UO_0000274", "upper_value": null, "value": "3.3"}, {"action_type": null, "activity_comment": null, "activity_id": 991674, "activity_properties": [], "assay_chembl_id": "CHEMBL877243", "assay_description": "Cell growth inhibition of breast MCF-7 cells, expressed as 50% reduction in the net protein increase", "assay_type": "F", "assay_variant_accession": null, "assay_variant_mutation": null, "bao_endpoint": "BAO_0000189", "bao_format": "BAO_0000219", "bao_label": "cell-based format", "canonical_smiles": "Oc1ccc(/C=C/c2cc(O)cc(O)c2)cc1", "data_validity_comment": null, "data_validity_description": null, "document_chembl_id": "CHEMBL1135463", "document_journal": "J Med Chem", "document_year": 2002, "ligand_efficiency": null, "molecule_chembl_id": "CHEMBL165", "molecule_pref_name": "RESVERATROL", "parent_molecule_chembl_id": "CHEMBL165", "pchembl_value": null, "potential_duplicate": 0, "qudt_units": "http://www.openphacts.org/units/MicrogramPerMilliliter", "record_id": 153373, "relation": "=", "src_id": 1, "standard_flag": 1, "standard_relation": "=", "standard_text_value": null, "standard_type": "GI50", "standard_units": "ug.mL-1", "standard_upper_value": null, "standard_value": "3.9", "target_chembl_id": "CHEMBL387", "target_organism": "Homo sapiens", "target_pref_name": "MCF7", "target_tax_id": "9606", "text_value": null, "toid": null, "type": "GI50", "units": "ug ml-1", "uo_units": "UO_0000274", "upper_value": null, "value": "3.9"}, {"action_type": null, "activity_comment": null, "activity_id": 991675, "activity_properties": [], "assay_chembl_id": "CHEMBL805982", "assay_description": "In vitro growth inhibition of central nervous system SF-268 cell line.", "assay_type": "F", "assay_variant_accession": null, "assay_variant_mutation": null, "bao_endpoint": "BAO_0000189", "bao_format": "BAO_0000219", "bao_label": "cell-based format", "canonical_smiles": "Oc1ccc(/C=C/c2cc(O)cc(O)c2)cc1", "data_validity_comment": null, "data_validity_description": null, "document_chembl_id": "CHEMBL1135463", "document_journal": "J Med Chem", "document_year": 2002, "ligand_efficiency": null, "molecule_chembl_id": "CHEMBL165", "molecule_pref_name": "RESVERATROL", "parent_molecule_chembl_id": "CHEMBL165", "pchembl_value": null, "potential_duplicate": 0, "qudt_units": "http://www.openphacts.org/units/MicrogramPerMilliliter", "record_id": 153373, "relation": "=", "src_id": 1, "standard_flag": 1, "standard_relation": "=", "standard_text_value": null, "standard_type": "GI50", "standard_units": "ug.mL-1", "standard_upper_value": null, "standard_value": "4.1", "target_chembl_id": "CHEMBL613977", "target_organism": "Homo sapiens", "target_pref_name": "SF-268", "target_tax_id": "9606", "text_value": null, "toid": null, "type": "GI50", "units": "ug ml-1", "uo_units": "UO_0000274", "upper_value": null, "value": "4.1"}, {"action_type": null, "activity_comment": null, "activity_id": 991676, "activity_properties": [], "assay_chembl_id": "CHEMBL750877", "assay_description": "In vitro growth inhibition of NCI-H460 (human non-small cell lung carcinoma) cell line.", "assay_type": "F", "assay_variant_accession": null, "assay_variant_mutation": null, "bao_endpoint": "BAO_0000189", "bao_format": "BAO_0000219", "bao_label": "cell-based format", "canonical_smiles": "Oc1ccc(/C=C/c2cc(O)cc(O)c2)cc1", "data_validity_comment": null, "data_validity_description": null, "document_chembl_id": "CHEMBL1135463", "document_journal": "J Med Chem", "document_year": 2002, "ligand_efficiency": null, "molecule_chembl_id": "CHEMBL165", "molecule_pref_name": "RESVERATROL", "parent_molecule_chembl_id": "CHEMBL165", "pchembl_value": null, "potential_duplicate": 0, "qudt_units": "http://www.openphacts.org/units/MicrogramPerMilliliter", "record_id": 153373, "relation": "=", "src_id": 1, "standard_flag": 1, "standard_relation": "=", "standard_text_value": null, "standard_type": "GI50", "standard_units": "ug.mL-1", "standard_upper_value": null, "standard_value": "3.6", "target_chembl_id": "CHEMBL612545", "target_organism": null, "target_pref_name": "Unchecked", "target_tax_id": null, "text_value": null, "toid": null, "type": "GI50", "units": "ug ml-1", "uo_units": "UO_0000274", "upper_value": null, "value": "3.6"}, {"action_type": null, "activity_comment": null, "activity_id": 991677, "activity_properties": [], "assay_chembl_id": "CHEMBL704498", "assay_description": "In vitro growth inhibition of KM20L2 cell line.", "assay_type": "F", "assay_variant_accession": null, "assay_variant_mutation": null, "bao_endpoint": "BAO_0000189", "bao_format": "BAO_0000219", "bao_label": "cell-based format", "canonical_smiles": "Oc1ccc(/C=C/c2cc(O)cc(O)c2)cc1", "data_validity_comment": null, "data_validity_description": null, "document_chembl_id": "CHEMBL1135463", "document_journal": "J Med Chem", "document_year": 2002, "ligand_efficiency": null, "molecule_chembl_id": "CHEMBL165", "molecule_pref_name": "RESVERATROL", "parent_molecule_chembl_id": "CHEMBL165", "pchembl_value": null, "potential_duplicate": 0, "qudt_units": "http://www.openphacts.org/units/MicrogramPerMilliliter", "record_id": 153373, "relation": "=", "src_id": 1, "standard_flag": 1, "standard_relation": "=", "standard_text_value": null, "standard_type": "GI50", "standard_units": "ug.mL-1", "standard_upper_value": null, "standard_value": "13.1", "target_chembl_id": "CHEMBL614791", "target_organism": "Homo sapiens", "target_pref_name": "KM-20L2", "target_tax_id": "9606", "text_value": null, "toid": null, "type": "GI50", "units": "ug ml-1", "uo_units": "UO_0000274", "upper_value": null, "value": "13.1"}, {"action_type": null, "activity_comment": null, "activity_id": 991678, "activity_properties": [], "assay_chembl_id": "CHEMBL667648", "assay_description": "In vitro growth inhibition of DU-145 (human prostate carcinoma) cell line.", "assay_type": "F", "assay_variant_accession": null, "assay_variant_mutation": null, "bao_endpoint": "BAO_0000189", "bao_format": "BAO_0000219", "bao_label": "cell-based format", "canonical_smiles": "Oc1ccc(/C=C/c2cc(O)cc(O)c2)cc1", "data_validity_comment": null, "data_validity_description": null, "document_chembl_id": "CHEMBL1135463", "document_journal": "J Med Chem", "document_year": 2002, "ligand_efficiency": null, "molecule_chembl_id": "CHEMBL165", "molecule_pref_name": "RESVERATROL", "parent_molecule_chembl_id": "CHEMBL165", "pchembl_value": null, "potential_duplicate": 0, "qudt_units": "http://www.openphacts.org/units/MicrogramPerMilliliter", "record_id": 153373, "relation": "=", "src_id": 1, "standard_flag": 1, "standard_relation": "=", "standard_text_value": null, "standard_type": "GI50", "standard_units": "ug.mL-1", "standard_upper_value": null, "standard_value": "3.5", "target_chembl_id": "CHEMBL613508", "target_organism": "Homo sapiens", "target_pref_name": "DU-145", "target_tax_id": "9606", "text_value": null, "toid": null, "type": "GI50", "units": "ug ml-1", "uo_units": "UO_0000274", "upper_value": null, "value": "3.5"}, {"action_type": null, "activity_comment": null, "activity_id": 991679, "activity_properties": [], "assay_chembl_id": "CHEMBL664828", "assay_description": "Minimum inhibitory concentration (MIC) that inhibits all visible growth of the Cryptococcus neoformans (fungus) at 64 ug/ml", "assay_type": "F", "assay_variant_accession": null, "assay_variant_mutation": null, "bao_endpoint": "BAO_0002146", "bao_format": "BAO_0000218", "bao_label": "organism-based format", "canonical_smiles": "Oc1ccc(/C=C/c2cc(O)cc(O)c2)cc1", "data_validity_comment": "Outside typical range", "data_validity_description": "Values for this activity type are unusually large/small, so may not be accurate", "document_chembl_id": "CHEMBL1135463", "document_journal": "J Med Chem", "document_year": 2002, "ligand_efficiency": null, "molecule_chembl_id": "CHEMBL165", "molecule_pref_name": "RESVERATROL", "parent_molecule_chembl_id": "CHEMBL165", "pchembl_value": null, "potential_duplicate": 0, "qudt_units": "http://www.openphacts.org/units/MicrogramPerMilliliter", "record_id": 153373, "relation": "=", "src_id": 1, "standard_flag": 1, "standard_relation": "=", "standard_text_value": null, "standard_type": "MIC", "standard_units": "ug.mL-1", "standard_upper_value": null, "standard_value": "0.0", "target_chembl_id": "CHEMBL365", "target_organism": "Cryptococcus neoformans", "target_pref_name": "Cryptococcus neoformans", "target_tax_id": "5207", "text_value": null, "toid": null, "type": "MIC", "units": "ug ml-1", "uo_units": "UO_0000274", "upper_value": null, "value": "0.0"}, {"action_type": null, "activity_comment": null, "activity_id": 991680, "activity_properties": [], "assay_chembl_id": "CHEMBL659881", "assay_description": "The minimum inhibitory concentration (MIC) that inhibits all visible growth of the Candida albicans (fungus) at 64 ug/ml", "assay_type": "F", "assay_variant_accession": null, "assay_variant_mutation": null, "bao_endpoint": "BAO_0002146", "bao_format": "BAO_0000218", "bao_label": "organism-based format", "canonical_smiles": "Oc1ccc(/C=C/c2cc(O)cc(O)c2)cc1", "data_validity_comment": "Outside typical range", "data_validity_description": "Values for this activity type are unusually large/small, so may not be accurate", "document_chembl_id": "CHEMBL1135463", "document_journal": "J Med Chem", "document_year": 2002, "ligand_efficiency": null, "molecule_chembl_id": "CHEMBL165", "molecule_pref_name": "RESVERATROL", "parent_molecule_chembl_id": "CHEMBL165", "pchembl_value": null, "potential_duplicate": 0, "qudt_units": "http://www.openphacts.org/units/MicrogramPerMilliliter", "record_id": 153373, "relation": "=", "src_id": 1, "standard_flag": 1, "standard_relation": "=", "standard_text_value": null, "standard_type": "MIC", "standard_units": "ug.mL-1", "standard_upper_value": null, "standard_value": "0.0", "target_chembl_id": "CHEMBL366", "target_organism": "Candida albicans", "target_pref_name": "Candida albicans", "target_tax_id": "5476", "text_value": null, "toid": null, "type": "MIC", "units": "ug ml-1", "uo_units": "UO_0000274", "upper_value": null, "value": "0.0"}, {"action_type": null, "activity_comment": null, "activity_id": 991681, "activity_properties": [], "assay_chembl_id": "CHEMBL810343", "assay_description": "The minimum inhibitory concentration (MIC) that inhibits all visible growth of the Staphylococcus aureus (bacteria) at 64 ug/ml", "assay_type": "F", "assay_variant_accession": null, "assay_variant_mutation": null, "bao_endpoint": "BAO_0002146", "bao_format": "BAO_0000218", "bao_label": "organism-based format", "canonical_smiles": "Oc1ccc(/C=C/c2cc(O)cc(O)c2)cc1", "data_validity_comment": "Outside typical range", "data_validity_description": "Values for this activity type are unusually large/small, so may not be accurate", "document_chembl_id": "CHEMBL1135463", "document_journal": "J Med Chem", "document_year": 2002, "ligand_efficiency": null, "molecule_chembl_id": "CHEMBL165", "molecule_pref_name": "RESVERATROL", "parent_molecule_chembl_id": "CHEMBL165", "pchembl_value": null, "potential_duplicate": 0, "qudt_units": "http://www.openphacts.org/units/MicrogramPerMilliliter", "record_id": 153373, "relation": "=", "src_id": 1, "standard_flag": 1, "standard_relation": "=", "standard_text_value": null, "standard_type": "MIC", "standard_units": "ug.mL-1", "standard_upper_value": null, "standard_value": "0.0", "target_chembl_id": "CHEMBL352", "target_organism": "Staphylococcus aureus", "target_pref_name": "Staphylococcus aureus", "target_tax_id": "1280", "text_value": null, "toid": null, "type": "MIC", "units": "ug ml-1", "uo_units": "UO_0000274", "upper_value": null, "value": "0.0"}, {"action_type": null, "activity_comment": null, "activity_id": 991682, "activity_properties": [], "assay_chembl_id": "CHEMBL814670", "assay_description": "The minimum inhibitory concentration (MIC) that inhibits all visible growth of the Streptococcus pneumoniae (bacteria) at 64 ug/ml", "assay_type": "F", "assay_variant_accession": null, "assay_variant_mutation": null, "bao_endpoint": "BAO_0002146", "bao_format": "BAO_0000218", "bao_label": "organism-based format", "canonical_smiles": "Oc1ccc(/C=C/c2cc(O)cc(O)c2)cc1", "data_validity_comment": "Outside typical range", "data_validity_description": "Values for this activity type are unusually large/small, so may not be accurate", "document_chembl_id": "CHEMBL1135463", "document_journal": "J Med Chem", "document_year": 2002, "ligand_efficiency": null, "molecule_chembl_id": "CHEMBL165", "molecule_pref_name": "RESVERATROL", "parent_molecule_chembl_id": "CHEMBL165", "pchembl_value": null, "potential_duplicate": 0, "qudt_units": "http://www.openphacts.org/units/MicrogramPerMilliliter", "record_id": 153373, "relation": "=", "src_id": 1, "standard_flag": 1, "standard_relation": "=", "standard_text_value": null, "standard_type": "MIC", "standard_units": "ug.mL-1", "standard_upper_value": null, "standard_value": "0.0", "target_chembl_id": "CHEMBL347", "target_organism": "Streptococcus pneumoniae", "target_pref_name": "Streptococcus pneumoniae", "target_tax_id": "1313", "text_value": null, "toid": null, "type": "MIC", "units": "ug ml-1", "uo_units": "UO_0000274", "upper_value": null, "value": "0.0"}], "page_meta": {"limit": 20, "next": "/chembl/api/data/activity.json?limit=20&offset=20&molecule_chembl_id=CHEMBL165", "offset": 0, "previous": null, "total_count": 2873}}