{"activities": [{"action_type": null, "activity_comment": null, "activity_id": 99577, "activity_properties": [], "assay_chembl_id": "CHEMBL705056", "assay_description": "Tested in vitro for cytotoxicity against murine L1210 leukemic cells", "assay_type": "F", "assay_variant_accession": null, "assay_variant_mutation": null, "bao_endpoint": "BAO_0000190", "bao_format": "BAO_0000219", "bao_label": "cell-based format", "canonical_smiles": "CN1N=C(N)c2cn([C@@H]3O[C@H](CO)[C@@H](O)[C@H]3O)c3ncnc1c23", "data_validity_comment": null, "data_validity_description": null, "document_chembl_id": "CHEMBL1133023", "document_journal": "J Med Chem", "document_year": 2000, "ligand_efficiency": null, "molecule_chembl_id": "CHEMBL331237", "molecule_pref_name": "TRICIRIBINE", "parent_molecule_chembl_id": "CHEMBL331237", "pchembl_value": "7.46", "potential_duplicate": 0, "qudt_units": "http://www.openphacts.org/units/Nanomolar", "record_id": 145217, "relation": "=", "src_id": 1, "standard_flag": 1, "standard_relation": "=", "standard_text_value": null, "standard_type": "IC50", "standard_units": "nM", "standard_upper_value": null, "standard_value": "35.0", "target_chembl_id": "CHEMBL386", "target_organism": "Mus musculus", "target_pref_name": "L1210", "target_tax_id": "10090", "text_value": null, "toid": null, "type": "IC50", "units": "uM", "uo_units": "UO_0000065", "upper_value": null, "value": "0.035"}, {"action_type": null, "activity_comment": null, "activity_id": 99578, "activity_properties": [], "assay_chembl_id": "CHEMBL701606", "assay_description": "Inhibition of KB cell growth was assessed", "assay_type": "F", "assay_variant_accession": null, "assay_variant_mutation": null, "bao_endpoint": "BAO_0000190", "bao_format": "BAO_0000219", "bao_label": "cell-based format", "canonical_smiles": "CN1N=C(N)c2cn([C@@H]3O[C@H](CO)[C@@H](O)[C@H]3O)c3ncnc1c23", "data_validity_comment": null, "data_validity_description": null, "document_chembl_id": "CHEMBL1133023", "document_journal": "J Med Chem", "document_year": 2000, "ligand_efficiency": null, "molecule_chembl_id": "CHEMBL331237", "molecule_pref_name": "TRICIRIBINE", "parent_molecule_chembl_id": "CHEMBL331237", "pchembl_value": null, "potential_duplicate": 0, "qudt_units": "http://www.openphacts.org/units/Nanomolar", "record_id": 145217, "relation": ">", "src_id": 1, "standard_flag": 1, "standard_relation": ">", "standard_text_value": null, "standard_type": "IC50", "standard_units": "nM", "standard_upper_value": null, "standard_value": "100000.0", "target_chembl_id": "CHEMBL398", "target_organism": "Homo sapiens", "target_pref_name": "KB", "target_tax_id": "9606", "text_value": null, "toid": null, "type": "IC50", "units": "uM", "uo_units": "UO_0000065", "upper_value": null, "value": "100.0"}, {"action_type": null, "activity_comment": null, "activity_id": 99579, "activity_properties": [], "assay_chembl_id": "CHEMBL690280", "assay_description": "Tested for visual cytotoxicity on uninfected HFF cells", "assay_type": "F", "assay_variant_accession": null, "assay_variant_mutation": null, "bao_endpoint": "BAO_0000190", "bao_format": "BAO_0000219", "bao_label": "cell-based format", "canonical_smiles": "CN1N=C(N)c2cn([C@@H]3O[C@H](CO)[C@@H](O)[C@H]3O)c3ncnc1c23", "data_validity_comment": null, "data_validity_description": null, "document_chembl_id": "CHEMBL1133023", "document_journal": "J Med Chem", "document_year": 2000, "ligand_efficiency": null, "molecule_chembl_id": "CHEMBL331237", "molecule_pref_name": "TRICIRIBINE", "parent_molecule_chembl_id": "CHEMBL331237", "pchembl_value": "4.00", "potential_duplicate": 0, "qudt_units": "http://www.openphacts.org/units/Nanomolar", "record_id": 145217, "relation": "=", "src_id": 1, "standard_flag": 1, "standard_relation": "=", "standard_text_value": null, "standard_type": "IC50", "standard_units": "nM", "standard_upper_value": null, "standard_value": "100000.0", "target_chembl_id": "CHEMBL614071", "target_organism": "Homo sapiens", "target_pref_name": "HFF", "target_tax_id": "9606", "text_value": null, "toid": null, "type": "IC50", "units": "uM", "uo_units": "UO_0000065", "upper_value": null, "value": "100.0"}, {"action_type": null, "activity_comment": null, "activity_id": 99580, "activity_properties": [], "assay_chembl_id": "CHEMBL654790", "assay_description": "Tested for visual cytotoxicity on uninfected CEM-SS cells", "assay_type": "F", "assay_variant_accession": null, "assay_variant_mutation": null, "bao_endpoint": "BAO_0000190", "bao_format": "BAO_0000219", "bao_label": "cell-based format", "canonical_smiles": "CN1N=C(N)c2cn([C@@H]3O[C@H](CO)[C@@H](O)[C@H]3O)c3ncnc1c23", "data_validity_comment": null, "data_validity_description": null, "document_chembl_id": "CHEMBL1133023", "document_journal": "J Med Chem", "document_year": 2000, "ligand_efficiency": null, "molecule_chembl_id": "CHEMBL331237", "molecule_pref_name": "TRICIRIBINE", "parent_molecule_chembl_id": "CHEMBL331237", "pchembl_value": null, "potential_duplicate": 0, "qudt_units": "http://www.openphacts.org/units/Nanomolar", "record_id": 145217, "relation": ">", "src_id": 1, "standard_flag": 1, "standard_relation": ">", "standard_text_value": null, "standard_type": "IC50", "standard_units": "nM", "standard_upper_value": null, "standard_value": "100000.0", "target_chembl_id": "CHEMBL614548", "target_organism": "Homo sapiens", "target_pref_name": "CEM-SS", "target_tax_id": "9606", "text_value": null, "toid": null, "type": "IC50", "units": "uM", "uo_units": "UO_0000065", "upper_value": null, "value": "100.0"}, {"action_type": null, "activity_comment": null, "activity_id": 99581, "activity_properties": [], "assay_chembl_id": "CHEMBL802399", "assay_description": "Antiviral activity was tested in cells acutely infected with HIV-1 RT (reverse transcriptase)", "assay_type": "B", "assay_variant_accession": null, "assay_variant_mutation": null, "bao_endpoint": "BAO_0000190", "bao_format": "BAO_0000019", "bao_label": "assay format", "canonical_smiles": "CN1N=C(N)c2cn([C@@H]3O[C@H](CO)[C@@H](O)[C@H]3O)c3ncnc1c23", "data_validity_comment": null, "data_validity_description": null, "document_chembl_id": "CHEMBL1133023", "document_journal": "J Med Chem", "document_year": 2000, "ligand_efficiency": {"bei": "23.10", "le": "0.44", "lle": "9.29", "sei": "5.20"}, "molecule_chembl_id": "CHEMBL331237", "molecule_pref_name": "TRICIRIBINE", "parent_molecule_chembl_id": "CHEMBL331237", "pchembl_value": "7.40", "potential_duplicate": 0, "qudt_units": "http://www.openphacts.org/units/Nanomolar", "record_id": 145217, "relation": "=", "src_id": 1, "standard_flag": 1, "standard_relation": "=", "standard_text_value": null, "standard_type": "IC50", "standard_units": "nM", "standard_upper_value": null, "standard_value": "40.0", "target_chembl_id": "CHEMBL247", "target_organism": "Human immunodeficiency virus 1", "target_pref_name": "Human immunodeficiency virus type 1 reverse transcriptase", "target_tax_id": "11676", "text_value": null, "toid": null, "type": "IC50", "units": "uM", "uo_units": "UO_0000065", "upper_value": null, "value": "0.04"}, {"action_type": null, "activity_comment": null, "activity_id": 99582, "activity_properties": [], "assay_chembl_id": "CHEMBL652985", "assay_description": "Antiviral activity was tested using an enzyme-linked immunosorbent assay (ELISA) to detect HSV-1 (herpes simplex virus type 1) using BSC-1 cells", "assay_type": "F", "assay_variant_accession": null, "assay_variant_mutation": null, "bao_endpoint": "BAO_0000190", "bao_format": "BAO_0000219", "bao_label": "cell-based format", "canonical_smiles": "CN1N=C(N)c2cn([C@@H]3O[C@H](CO)[C@@H](O)[C@H]3O)c3ncnc1c23", "data_validity_comment": null, "data_validity_description": null, "document_chembl_id": "CHEMBL1133023", "document_journal": "J Med Chem", "document_year": 2000, "ligand_efficiency": null, "molecule_chembl_id": "CHEMBL331237", "molecule_pref_name": "TRICIRIBINE", "parent_molecule_chembl_id": "CHEMBL331237", "pchembl_value": "4.64", "potential_duplicate": 0, "qudt_units": "http://www.openphacts.org/units/Nanomolar", "record_id": 145217, "relation": "=", "src_id": 1, "standard_flag": 1, "standard_relation": "=", "standard_text_value": null, "standard_type": "IC50", "standard_units": "nM", "standard_upper_value": null, "standard_value": "23000.0", "target_chembl_id": "CHEMBL612558", "target_organism": null, "target_pref_name": "ADMET", "target_tax_id": null, "text_value": null, "toid": null, "type": "IC50", "units": "uM", "uo_units": "UO_0000065", "upper_value": null, "value": "23.0"}, {"action_type": null, "activity_comment": null, "activity_id": 99583, "activity_properties": [], "assay_chembl_id": "CHEMBL691808", "assay_description": "HCMV plaque assay was performed using HFF cells and effect was calculated as a percentage of reduction in number of plaques", "assay_type": "F", "assay_variant_accession": null, "assay_variant_mutation": null, "bao_endpoint": "BAO_0000190", "bao_format": "BAO_0000219", "bao_label": "cell-based format", "canonical_smiles": "CN1N=C(N)c2cn([C@@H]3O[C@H](CO)[C@@H](O)[C@H]3O)c3ncnc1c23", "data_validity_comment": null, "data_validity_description": null, "document_chembl_id": "CHEMBL1133023", "document_journal": "J Med Chem", "document_year": 2000, "ligand_efficiency": null, "molecule_chembl_id": "CHEMBL331237", "molecule_pref_name": "TRICIRIBINE", "parent_molecule_chembl_id": "CHEMBL331237", "pchembl_value": "5.60", "potential_duplicate": 0, "qudt_units": "http://www.openphacts.org/units/Nanomolar", "record_id": 145217, "relation": "=", "src_id": 1, "standard_flag": 1, "standard_relation": "=", "standard_text_value": null, "standard_type": "IC50", "standard_units": "nM", "standard_upper_value": null, "standard_value": "2500.0", "target_chembl_id": "CHEMBL614071", "target_organism": "Homo sapiens", "target_pref_name": "HFF", "target_tax_id": "9606", "text_value": null, "toid": null, "type": "IC50", "units": "uM", "uo_units": "UO_0000065", "upper_value": null, "value": "2.5"}, {"action_type": null, "activity_comment": null, "activity_id": 99584, "activity_properties": [], "assay_chembl_id": "CHEMBL654831", "assay_description": "Intracellular phosphorylation (10 uM) in uninfected CEM-SS cells after 5 hrs of incubation time", "assay_type": "F", "assay_variant_accession": null, "assay_variant_mutation": null, "bao_endpoint": "BAO_0002752", "bao_format": "BAO_0000219", "bao_label": "cell-based format", "canonical_smiles": "CN1N=C(N)c2cn([C@@H]3O[C@H](CO)[C@@H](O)[C@H]3O)c3ncnc1c23", "data_validity_comment": null, "data_validity_description": null, "document_chembl_id": "CHEMBL1133023", "document_journal": "J Med Chem", "document_year": 2000, "ligand_efficiency": null, "molecule_chembl_id": "CHEMBL331237", "molecule_pref_name": "TRICIRIBINE", "parent_molecule_chembl_id": "CHEMBL331237", "pchembl_value": null, "potential_duplicate": 0, "qudt_units": "http://www.openphacts.org/units/Micromolar", "record_id": 145217, "relation": "=", "src_id": 1, "standard_flag": 0, "standard_relation": "=", "standard_text_value": null, "standard_type": "Concentration", "standard_units": "uM", "standard_upper_value": null, "standard_value": "286.0", "target_chembl_id": "CHEMBL614548", "target_organism": "Homo sapiens", "target_pref_name": "CEM-SS", "target_tax_id": "9606", "text_value": null, "toid": null, "type": "Concentration", "units": "uM", "uo_units": "UO_0000064", "upper_value": null, "value": "286.0"}, {"action_type": null, "activity_comment": null, "activity_id": 99585, "activity_properties": [], "assay_chembl_id": "CHEMBL654836", "assay_description": "Intracellular phosphorylation (100 uM) in uninfected CEM-SS cells after 5 hrs of incubation time", "assay_type": "F", "assay_variant_accession": null, "assay_variant_mutation": null, "bao_endpoint": "BAO_0002752", "bao_format": "BAO_0000219", "bao_label": "cell-based format", "canonical_smiles": "CN1N=C(N)c2cn([C@@H]3O[C@H](CO)[C@@H](O)[C@H]3O)c3ncnc1c23", "data_validity_comment": null, "data_validity_description": null, "document_chembl_id": "CHEMBL1133023", "document_journal": "J Med Chem", "document_year": 2000, "ligand_efficiency": null, "molecule_chembl_id": "CHEMBL331237", "molecule_pref_name": "TRICIRIBINE", "parent_molecule_chembl_id": "CHEMBL331237", "pchembl_value": null, "potential_duplicate": 0, "qudt_units": "http://www.openphacts.org/units/Micromolar", "record_id": 145217, "relation": "=", "src_id": 1, "standard_flag": 0, "standard_relation": "=", "standard_text_value": null, "standard_type": "Concentration", "standard_units": "uM", "standard_upper_value": null, "standard_value": "323.0", "target_chembl_id": "CHEMBL614548", "target_organism": "Homo sapiens", "target_pref_name": "CEM-SS", "target_tax_id": "9606", "text_value": null, "toid": null, "type": "Concentration", "units": "uM", "uo_units": "UO_0000064", "upper_value": null, "value": "323.0"}, {"action_type": null, "activity_comment": null, "activity_id": 99586, "activity_properties": [], "assay_chembl_id": "CHEMBL654842", "assay_description": "Intracellular phosphorylation (330 uM) in uninfected CEM-SS cells after 5 hrs of incubation time", "assay_type": "F", "assay_variant_accession": null, "assay_variant_mutation": null, "bao_endpoint": "BAO_0002752", "bao_format": "BAO_0000219", "bao_label": "cell-based format", "canonical_smiles": "CN1N=C(N)c2cn([C@@H]3O[C@H](CO)[C@@H](O)[C@H]3O)c3ncnc1c23", "data_validity_comment": null, "data_validity_description": null, "document_chembl_id": "CHEMBL1133023", "document_journal": "J Med Chem", "document_year": 2000, "ligand_efficiency": null, "molecule_chembl_id": "CHEMBL331237", "molecule_pref_name": "TRICIRIBINE", "parent_molecule_chembl_id": "CHEMBL331237", "pchembl_value": null, "potential_duplicate": 0, "qudt_units": "http://www.openphacts.org/units/Micromolar", "record_id": 145217, "relation": "=", "src_id": 1, "standard_flag": 0, "standard_relation": "=", "standard_text_value": null, "standard_type": "Concentration", "standard_units": "uM", "standard_upper_value": null, "standard_value": "775.0", "target_chembl_id": "CHEMBL614548", "target_organism": "Homo sapiens", "target_pref_name": "CEM-SS", "target_tax_id": "9606", "text_value": null, "toid": null, "type": "Concentration", "units": "uM", "uo_units": "UO_0000064", "upper_value": null, "value": "775.0"}, {"action_type": null, "activity_comment": null, "activity_id": 99587, "activity_properties": [], "assay_chembl_id": "CHEMBL654830", "assay_description": "Intracellular phosphorylation (10 uM) in uninfected CEM-SS cells after 12 hrs of incubation time", "assay_type": "F", "assay_variant_accession": null, "assay_variant_mutation": null, "bao_endpoint": "BAO_0002752", "bao_format": "BAO_0000219", "bao_label": "cell-based format", "canonical_smiles": "CN1N=C(N)c2cn([C@@H]3O[C@H](CO)[C@@H](O)[C@H]3O)c3ncnc1c23", "data_validity_comment": null, "data_validity_description": null, "document_chembl_id": "CHEMBL1133023", "document_journal": "J Med Chem", "document_year": 2000, "ligand_efficiency": null, "molecule_chembl_id": "CHEMBL331237", "molecule_pref_name": "TRICIRIBINE", "parent_molecule_chembl_id": "CHEMBL331237", "pchembl_value": null, "potential_duplicate": 0, "qudt_units": "http://www.openphacts.org/units/Micromolar", "record_id": 145217, "relation": "=", "src_id": 1, "standard_flag": 0, "standard_relation": "=", "standard_text_value": null, "standard_type": "Concentration", "standard_units": "uM", "standard_upper_value": null, "standard_value": "176.0", "target_chembl_id": "CHEMBL614548", "target_organism": "Homo sapiens", "target_pref_name": "CEM-SS", "target_tax_id": "9606", "text_value": null, "toid": null, "type": "Concentration", "units": "uM", "uo_units": "UO_0000064", "upper_value": null, "value": "176.0"}, {"action_type": null, "activity_comment": null, "activity_id": 99588, "activity_properties": [], "assay_chembl_id": "CHEMBL654835", "assay_description": "Intracellular phosphorylation (100 uM) in uninfected CEM-SS cells after 12 hrs of incubation time", "assay_type": "F", "assay_variant_accession": null, "assay_variant_mutation": null, "bao_endpoint": "BAO_0002752", "bao_format": "BAO_0000219", "bao_label": "cell-based format", "canonical_smiles": "CN1N=C(N)c2cn([C@@H]3O[C@H](CO)[C@@H](O)[C@H]3O)c3ncnc1c23", "data_validity_comment": null, "data_validity_description": null, "document_chembl_id": "CHEMBL1133023", "document_journal": "J Med Chem", "document_year": 2000, "ligand_efficiency": null, "molecule_chembl_id": "CHEMBL331237", "molecule_pref_name": "TRICIRIBINE", "parent_molecule_chembl_id": "CHEMBL331237", "pchembl_value": null, "potential_duplicate": 0, "qudt_units": "http://www.openphacts.org/units/Micromolar", "record_id": 145217, "relation": "=", "src_id": 1, "standard_flag": 0, "standard_relation": "=", "standard_text_value": null, "standard_type": "Concentration", "standard_units": "uM", "standard_upper_value": null, "standard_value": "307.0", "target_chembl_id": "CHEMBL614548", "target_organism": "Homo sapiens", "target_pref_name": "CEM-SS", "target_tax_id": "9606", "text_value": null, "toid": null, "type": "Concentration", "units": "uM", "uo_units": "UO_0000064", "upper_value": null, "value": "307.0"}, {"action_type": null, "activity_comment": null, "activity_id": 99589, "activity_properties": [], "assay_chembl_id": "CHEMBL654841", "assay_description": "Intracellular phosphorylation (330 uM) in uninfected CEM-SS cells after 12 hrs of incubation time", "assay_type": "F", "assay_variant_accession": null, "assay_variant_mutation": null, "bao_endpoint": "BAO_0002752", "bao_format": "BAO_0000219", "bao_label": "cell-based format", "canonical_smiles": "CN1N=C(N)c2cn([C@@H]3O[C@H](CO)[C@@H](O)[C@H]3O)c3ncnc1c23", "data_validity_comment": null, "data_validity_description": null, "document_chembl_id": "CHEMBL1133023", "document_journal": "J Med Chem", "document_year": 2000, "ligand_efficiency": null, "molecule_chembl_id": "CHEMBL331237", "molecule_pref_name": "TRICIRIBINE", "parent_molecule_chembl_id": "CHEMBL331237", "pchembl_value": null, "potential_duplicate": 0, "qudt_units": "http://www.openphacts.org/units/Micromolar", "record_id": 145217, "relation": "=", "src_id": 1, "standard_flag": 0, "standard_relation": "=", "standard_text_value": null, "standard_type": "Concentration", "standard_units": "uM", "standard_upper_value": null, "standard_value": "390.0", "target_chembl_id": "CHEMBL614548", "target_organism": "Homo sapiens", "target_pref_name": "CEM-SS", "target_tax_id": "9606", "text_value": null, "toid": null, "type": "Concentration", "units": "uM", "uo_units": "UO_0000064", "upper_value": null, "value": "390.0"}, {"action_type": null, "activity_comment": null, "activity_id": 970912, "activity_properties": [], "assay_chembl_id": "CHEMBL884240", "assay_description": "Compound was tested for its ability to inhibit hepatitis C viral RNA replication in Huh-7 cells (human hepatoma cells)", "assay_type": "F", "assay_variant_accession": null, "assay_variant_mutation": null, "bao_endpoint": "BAO_0000188", "bao_format": "BAO_0000219", "bao_label": "cell-based format", "canonical_smiles": "CN1N=C(N)c2cn([C@@H]3O[C@H](CO)[C@@H](O)[C@H]3O)c3ncnc1c23", "data_validity_comment": null, "data_validity_description": null, "document_chembl_id": "CHEMBL1147474", "document_journal": "Bioorg Med Chem Lett", "document_year": 2004, "ligand_efficiency": null, "molecule_chembl_id": "CHEMBL331237", "molecule_pref_name": "TRICIRIBINE", "parent_molecule_chembl_id": "CHEMBL331237", "pchembl_value": "5.70", "potential_duplicate": 0, "qudt_units": "http://www.openphacts.org/units/Nanomolar", "record_id": 223247, "relation": "=", "src_id": 1, "standard_flag": 1, "standard_relation": "=", "standard_text_value": null, "standard_type": "EC50", "standard_units": "nM", "standard_upper_value": null, "standard_value": "2000.0", "target_chembl_id": "CHEMBL614039", "target_organism": "Homo sapiens", "target_pref_name": "Huh-7", "target_tax_id": "9606", "text_value": null, "toid": null, "type": "EC50", "units": "uM", "uo_units": "UO_0000065", "upper_value": null, "value": "2.0"}, {"action_type": null, "activity_comment": null, "activity_id": 970913, "activity_properties": [], "assay_chembl_id": "CHEMBL697566", "assay_description": "Cytotoxicity using HCV replicon assay", "assay_type": "F", "assay_variant_accession": null, "assay_variant_mutation": null, "bao_endpoint": "BAO_0000187", "bao_format": "BAO_0000219", "bao_label": "cell-based format", "canonical_smiles": "CN1N=C(N)c2cn([C@@H]3O[C@H](CO)[C@@H](O)[C@H]3O)c3ncnc1c23", "data_validity_comment": null, "data_validity_description": null, "document_chembl_id": "CHEMBL1147474", "document_journal": "Bioorg Med Chem Lett", "document_year": 2004, "ligand_efficiency": null, "molecule_chembl_id": "CHEMBL331237", "molecule_pref_name": "TRICIRIBINE", "parent_molecule_chembl_id": "CHEMBL331237", "pchembl_value": null, "potential_duplicate": 0, "qudt_units": "http://www.openphacts.org/units/Nanomolar", "record_id": 223247, "relation": ">", "src_id": 1, "standard_flag": 1, "standard_relation": ">", "standard_text_value": null, "standard_type": "CC50", "standard_units": "nM", "standard_upper_value": null, "standard_value": "300000.0", "target_chembl_id": "CHEMBL614039", "target_organism": "Homo sapiens", "target_pref_name": "Huh-7", "target_tax_id": "9606", "text_value": null, "toid": null, "type": "CC50", "units": "uM", "uo_units": "UO_0000065", "upper_value": null, "value": "300.0"}, {"action_type": null, "activity_comment": null, "activity_id": 1093473, "activity_properties": [], "assay_chembl_id": "CHEMBL802397", "assay_description": "Antiviral activity was evaluated by RT (reverse transcriptase) activity in cells acutely infected with HIV-1", "assay_type": "B", "assay_variant_accession": null, "assay_variant_mutation": null, "bao_endpoint": "BAO_0000190", "bao_format": "BAO_0000019", "bao_label": "assay format", "canonical_smiles": "CN1N=C(N)c2cn([C@@H]3O[C@H](CO)[C@@H](O)[C@H]3O)c3ncnc1c23", "data_validity_comment": null, "data_validity_description": null, "document_chembl_id": "CHEMBL1133753", "document_journal": "J Med Chem", "document_year": 2000, "ligand_efficiency": {"bei": "23.10", "le": "0.44", "lle": "9.29", "sei": "5.20"}, "molecule_chembl_id": "CHEMBL331237", "molecule_pref_name": "TRICIRIBINE", "parent_molecule_chembl_id": "CHEMBL331237", "pchembl_value": "7.40", "potential_duplicate": 1, "qudt_units": "http://www.openphacts.org/units/Nanomolar", "record_id": 146503, "relation": "=", "src_id": 1, "standard_flag": 1, "standard_relation": "=", "standard_text_value": null, "standard_type": "IC50", "standard_units": "nM", "standard_upper_value": null, "standard_value": "40.0", "target_chembl_id": "CHEMBL247", "target_organism": "Human immunodeficiency virus 1", "target_pref_name": "Human immunodeficiency virus type 1 reverse transcriptase", "target_tax_id": "11676", "text_value": null, "toid": null, "type": "IC50", "units": "uM", "uo_units": "UO_0000065", "upper_value": null, "value": "0.04"}, {"action_type": null, "activity_comment": null, "activity_id": 1093474, "activity_properties": [], "assay_chembl_id": "CHEMBL652984", "assay_description": "Antiviral activity against HSV-1 was determined using BSC-1 cells by an enzyme-linked immunosorbent assay (ELISA)", "assay_type": "F", "assay_variant_accession": null, "assay_variant_mutation": null, "bao_endpoint": "BAO_0000190", "bao_format": "BAO_0000219", "bao_label": "cell-based format", "canonical_smiles": "CN1N=C(N)c2cn([C@@H]3O[C@H](CO)[C@@H](O)[C@H]3O)c3ncnc1c23", "data_validity_comment": null, "data_validity_description": null, "document_chembl_id": "CHEMBL1133753", "document_journal": "J Med Chem", "document_year": 2000, "ligand_efficiency": null, "molecule_chembl_id": "CHEMBL331237", "molecule_pref_name": "TRICIRIBINE", "parent_molecule_chembl_id": "CHEMBL331237", "pchembl_value": "4.64", "potential_duplicate": 0, "qudt_units": "http://www.openphacts.org/units/Nanomolar", "record_id": 146503, "relation": "=", "src_id": 1, "standard_flag": 1, "standard_relation": "=", "standard_text_value": null, "standard_type": "IC50", "standard_units": "nM", "standard_upper_value": null, "standard_value": "23000.0", "target_chembl_id": "CHEMBL612558", "target_organism": null, "target_pref_name": "ADMET", "target_tax_id": null, "text_value": null, "toid": null, "type": "IC50", "units": "uM", "uo_units": "UO_0000065", "upper_value": null, "value": "23.0"}, {"action_type": null, "activity_comment": null, "activity_id": 1093475, "activity_properties": [], "assay_chembl_id": "CHEMBL696031", "assay_description": "Antiviral activity against HCMV was determined by plaque reduction assay using HFF cells", "assay_type": "F", "assay_variant_accession": null, "assay_variant_mutation": null, "bao_endpoint": "BAO_0000190", "bao_format": "BAO_0000219", "bao_label": "cell-based format", "canonical_smiles": "CN1N=C(N)c2cn([C@@H]3O[C@H](CO)[C@@H](O)[C@H]3O)c3ncnc1c23", "data_validity_comment": null, "data_validity_description": null, "document_chembl_id": "CHEMBL1133753", "document_journal": "J Med Chem", "document_year": 2000, "ligand_efficiency": null, "molecule_chembl_id": "CHEMBL331237", "molecule_pref_name": "TRICIRIBINE", "parent_molecule_chembl_id": "CHEMBL331237", "pchembl_value": "5.60", "potential_duplicate": 0, "qudt_units": "http://www.openphacts.org/units/Nanomolar", "record_id": 146503, "relation": "=", "src_id": 1, "standard_flag": 1, "standard_relation": "=", "standard_text_value": null, "standard_type": "IC50", "standard_units": "nM", "standard_upper_value": null, "standard_value": "2500.0", "target_chembl_id": "CHEMBL614071", "target_organism": "Homo sapiens", "target_pref_name": "HFF", "target_tax_id": "9606", "text_value": null, "toid": null, "type": "IC50", "units": "uM", "uo_units": "UO_0000065", "upper_value": null, "value": "2.5"}, {"action_type": null, "activity_comment": null, "activity_id": 1093476, "activity_properties": [], "assay_chembl_id": "CHEMBL705963", "assay_description": "Cytotoxicity measured as Inhibition of KB cell growth was assessed.", "assay_type": "F", "assay_variant_accession": null, "assay_variant_mutation": null, "bao_endpoint": "BAO_0000190", "bao_format": "BAO_0000219", "bao_label": "cell-based format", "canonical_smiles": "CN1N=C(N)c2cn([C@@H]3O[C@H](CO)[C@@H](O)[C@H]3O)c3ncnc1c23", "data_validity_comment": null, "data_validity_description": null, "document_chembl_id": "CHEMBL1133753", "document_journal": "J Med Chem", "document_year": 2000, "ligand_efficiency": null, "molecule_chembl_id": "CHEMBL331237", "molecule_pref_name": "TRICIRIBINE", "parent_molecule_chembl_id": "CHEMBL331237", "pchembl_value": null, "potential_duplicate": 0, "qudt_units": "http://www.openphacts.org/units/Nanomolar", "record_id": 146503, "relation": ">", "src_id": 1, "standard_flag": 1, "standard_relation": ">", "standard_text_value": null, "standard_type": "IC50", "standard_units": "nM", "standard_upper_value": null, "standard_value": "100000.0", "target_chembl_id": "CHEMBL612558", "target_organism": null, "target_pref_name": "ADMET", "target_tax_id": null, "text_value": null, "toid": null, "type": "IC50", "units": "uM", "uo_units": "UO_0000065", "upper_value": null, "value": "100.0"}, {"action_type": null, "activity_comment": null, "activity_id": 1093477, "activity_properties": [], "assay_chembl_id": "CHEMBL690284", "assay_description": "Visual cytotoxicity was scored on uninfected HFF cells", "assay_type": "F", "assay_variant_accession": null, "assay_variant_mutation": null, "bao_endpoint": "BAO_0000190", "bao_format": "BAO_0000219", "bao_label": "cell-based format", "canonical_smiles": "CN1N=C(N)c2cn([C@@H]3O[C@H](CO)[C@@H](O)[C@H]3O)c3ncnc1c23", "data_validity_comment": null, "data_validity_description": null, "document_chembl_id": "CHEMBL1133753", "document_journal": "J Med Chem", "document_year": 2000, "ligand_efficiency": null, "molecule_chembl_id": "CHEMBL331237", "molecule_pref_name": "TRICIRIBINE", "parent_molecule_chembl_id": "CHEMBL331237", "pchembl_value": "4.00", "potential_duplicate": 0, "qudt_units": "http://www.openphacts.org/units/Nanomolar", "record_id": 146503, "relation": "=", "src_id": 1, "standard_flag": 1, "standard_relation": "=", "standard_text_value": null, "standard_type": "IC50", "standard_units": "nM", "standard_upper_value": null, "standard_value": "100000.0", "target_chembl_id": "CHEMBL614071", "target_organism": "Homo sapiens", "target_pref_name": "HFF", "target_tax_id": "9606", "text_value": null, "toid": null, "type": "IC50", "units": "uM", "uo_units": "UO_0000065", "upper_value": null, "value": "100.0"}], "page_meta": {"limit": 20, "next": "/chembl/api/data/activity.json?limit=20&offset=20&molecule_chembl_id=CHEMBL331237", "offset": 0, "previous": null, "total_count": 640}}