{"activities": [{"action_type": null, "activity_comment": null, "activity_id": 1777443, "activity_properties": [], "assay_chembl_id": "CHEMBL908825", "assay_description": "Inhibition of CDK4/Cyclin D1", "assay_type": "B", "assay_variant_accession": null, "assay_variant_mutation": null, "bao_endpoint": "BAO_0000192", "bao_format": "BAO_0000223", "bao_label": "protein complex format", "canonical_smiles": "COc1ccc(F)c(F)c1C(=O)c1cnc(NC2CCN(S(C)(=O)=O)CC2)nc1N", "data_validity_comment": null, "data_validity_description": null, "document_chembl_id": "CHEMBL1137323", "document_journal": "J Med Chem", "document_year": 2006, "ligand_efficiency": {"bei": "20.39", "le": "0.41", "lle": "7.59", "sei": "7.06"}, "molecule_chembl_id": "CHEMBL384304", "molecule_pref_name": "RG-547", "parent_molecule_chembl_id": "CHEMBL384304", "pchembl_value": "9.00", "potential_duplicate": 0, "qudt_units": "http://www.openphacts.org/units/Nanomolar", "record_id": 590396, "relation": "=", "src_id": 1, "standard_flag": 1, "standard_relation": "=", "standard_text_value": null, "standard_type": "Ki", "standard_units": "nM", "standard_upper_value": null, "standard_value": "1.0", "target_chembl_id": "CHEMBL1907601", "target_organism": "Homo sapiens", "target_pref_name": "Cyclin-dependent kinase 4/cyclin D1", "target_tax_id": "9606", "text_value": null, "toid": null, "type": "Ki", "units": "uM", "uo_units": "UO_0000065", "upper_value": null, "value": "0.001"}, {"action_type": null, "activity_comment": "Time-dependent effect", "activity_id": 1777449, "activity_properties": [], "assay_chembl_id": "CHEMBL908829", "assay_description": "Inhibition of retinoblastoma protein phosphorylation", "assay_type": "F", "assay_variant_accession": null, "assay_variant_mutation": null, "bao_endpoint": "BAO_0000375", "bao_format": "BAO_0000019", "bao_label": "assay format", "canonical_smiles": "COc1ccc(F)c(F)c1C(=O)c1cnc(NC2CCN(S(C)(=O)=O)CC2)nc1N", "data_validity_comment": null, "data_validity_description": null, "document_chembl_id": "CHEMBL1137323", "document_journal": "J Med Chem", "document_year": 2006, "ligand_efficiency": null, "molecule_chembl_id": "CHEMBL384304", "molecule_pref_name": "RG-547", "parent_molecule_chembl_id": "CHEMBL384304", "pchembl_value": null, "potential_duplicate": 0, "qudt_units": null, "record_id": 590396, "relation": null, "src_id": 1, "standard_flag": 0, "standard_relation": null, "standard_text_value": null, "standard_type": "Activity", "standard_units": null, "standard_upper_value": null, "standard_value": null, "target_chembl_id": "CHEMBL612545", "target_organism": null, "target_pref_name": "Unchecked", "target_tax_id": null, "text_value": null, "toid": null, "type": "Activity", "units": null, "uo_units": null, "upper_value": null, "value": null}, {"action_type": null, "activity_comment": null, "activity_id": 1777463, "activity_properties": [], "assay_chembl_id": "CHEMBL908826", "assay_description": "Inhibition of CDK1/Cyclin B", "assay_type": "B", "assay_variant_accession": null, "assay_variant_mutation": null, "bao_endpoint": "BAO_0000192", "bao_format": "BAO_0000357", "bao_label": "single protein format", "canonical_smiles": "COc1ccc(F)c(F)c1C(=O)c1cnc(NC2CCN(S(C)(=O)=O)CC2)nc1N", "data_validity_comment": null, "data_validity_description": null, "document_chembl_id": "CHEMBL1137323", "document_journal": "J Med Chem", "document_year": 2006, "ligand_efficiency": {"bei": "19.71", "le": "0.40", "lle": "7.29", "sei": "6.82"}, "molecule_chembl_id": "CHEMBL384304", "molecule_pref_name": "RG-547", "parent_molecule_chembl_id": "CHEMBL384304", "pchembl_value": "8.70", "potential_duplicate": 0, "qudt_units": "http://www.openphacts.org/units/Nanomolar", "record_id": 590396, "relation": "=", "src_id": 1, "standard_flag": 1, "standard_relation": "=", "standard_text_value": null, "standard_type": "Ki", "standard_units": "nM", "standard_upper_value": null, "standard_value": "2.0", "target_chembl_id": "CHEMBL308", "target_organism": "Homo sapiens", "target_pref_name": "Cyclin-dependent kinase 1", "target_tax_id": "9606", "text_value": null, "toid": null, "type": "Ki", "units": "uM", "uo_units": "UO_0000065", "upper_value": null, "value": "0.002"}, {"action_type": null, "activity_comment": null, "activity_id": 1777483, "activity_properties": [], "assay_chembl_id": "CHEMBL908827", "assay_description": "Inhibition of CDK2/Cyclin E", "assay_type": "B", "assay_variant_accession": null, "assay_variant_mutation": null, "bao_endpoint": "BAO_0000192", "bao_format": "BAO_0000357", "bao_label": "single protein format", "canonical_smiles": "COc1ccc(F)c(F)c1C(=O)c1cnc(NC2CCN(S(C)(=O)=O)CC2)nc1N", "data_validity_comment": null, "data_validity_description": null, "document_chembl_id": "CHEMBL1137323", "document_journal": "J Med Chem", "document_year": 2006, "ligand_efficiency": {"bei": "19.31", "le": "0.39", "lle": "7.11", "sei": "6.68"}, "molecule_chembl_id": "CHEMBL384304", "molecule_pref_name": "RG-547", "parent_molecule_chembl_id": "CHEMBL384304", "pchembl_value": "8.52", "potential_duplicate": 0, "qudt_units": "http://www.openphacts.org/units/Nanomolar", "record_id": 590396, "relation": "=", "src_id": 1, "standard_flag": 1, "standard_relation": "=", "standard_text_value": null, "standard_type": "Ki", "standard_units": "nM", "standard_upper_value": null, "standard_value": "3.0", "target_chembl_id": "CHEMBL301", "target_organism": "Homo sapiens", "target_pref_name": "Cyclin-dependent kinase 2", "target_tax_id": "9606", "text_value": null, "toid": null, "type": "Ki", "units": "uM", "uo_units": "UO_0000065", "upper_value": null, "value": "0.003"}, {"action_type": null, "activity_comment": null, "activity_id": 1777503, "activity_properties": [], "assay_chembl_id": "CHEMBL908828", "assay_description": "Inhibition of HCT116 cell growth", "assay_type": "F", "assay_variant_accession": null, "assay_variant_mutation": null, "bao_endpoint": "BAO_0000190", "bao_format": "BAO_0000219", "bao_label": "cell-based format", "canonical_smiles": "COc1ccc(F)c(F)c1C(=O)c1cnc(NC2CCN(S(C)(=O)=O)CC2)nc1N", "data_validity_comment": null, "data_validity_description": null, "document_chembl_id": "CHEMBL1137323", "document_journal": "J Med Chem", "document_year": 2006, "ligand_efficiency": null, "molecule_chembl_id": "CHEMBL384304", "molecule_pref_name": "RG-547", "parent_molecule_chembl_id": "CHEMBL384304", "pchembl_value": "7.10", "potential_duplicate": 0, "qudt_units": "http://www.openphacts.org/units/Nanomolar", "record_id": 590396, "relation": "=", "src_id": 1, "standard_flag": 1, "standard_relation": "=", "standard_text_value": null, "standard_type": "IC50", "standard_units": "nM", "standard_upper_value": null, "standard_value": "80.0", "target_chembl_id": "CHEMBL394", "target_organism": "Homo sapiens", "target_pref_name": "HCT-116", "target_tax_id": "9606", "text_value": null, "toid": null, "type": "IC50", "units": "uM", "uo_units": "UO_0000065", "upper_value": null, "value": "0.08"}, {"action_type": null, "activity_comment": "Dose-dependent effect", "activity_id": 1777522, "activity_properties": [], "assay_chembl_id": "CHEMBL908830", "assay_description": "Cell cycle arrest in HCT116 cells by accumulation at G1 phase", "assay_type": "F", "assay_variant_accession": null, "assay_variant_mutation": null, "bao_endpoint": "BAO_0000375", "bao_format": "BAO_0000219", "bao_label": "cell-based format", "canonical_smiles": "COc1ccc(F)c(F)c1C(=O)c1cnc(NC2CCN(S(C)(=O)=O)CC2)nc1N", "data_validity_comment": null, "data_validity_description": null, "document_chembl_id": "CHEMBL1137323", "document_journal": "J Med Chem", "document_year": 2006, "ligand_efficiency": null, "molecule_chembl_id": "CHEMBL384304", "molecule_pref_name": "RG-547", "parent_molecule_chembl_id": "CHEMBL384304", "pchembl_value": null, "potential_duplicate": 0, "qudt_units": null, "record_id": 590396, "relation": null, "src_id": 1, "standard_flag": 0, "standard_relation": null, "standard_text_value": null, "standard_type": "Activity", "standard_units": null, "standard_upper_value": null, "standard_value": null, "target_chembl_id": "CHEMBL394", "target_organism": "Homo sapiens", "target_pref_name": "HCT-116", "target_tax_id": "9606", "text_value": null, "toid": null, "type": "Activity", "units": null, "uo_units": null, "upper_value": null, "value": null}, {"action_type": null, "activity_comment": "Dose-dependent effect", "activity_id": 1777523, "activity_properties": [], "assay_chembl_id": "CHEMBL908831", "assay_description": "Cell cycle arrest in HCT116 cells by accumulation at G2 phase", "assay_type": "F", "assay_variant_accession": null, "assay_variant_mutation": null, "bao_endpoint": "BAO_0000375", "bao_format": "BAO_0000219", "bao_label": "cell-based format", "canonical_smiles": "COc1ccc(F)c(F)c1C(=O)c1cnc(NC2CCN(S(C)(=O)=O)CC2)nc1N", "data_validity_comment": null, "data_validity_description": null, "document_chembl_id": "CHEMBL1137323", "document_journal": "J Med Chem", "document_year": 2006, "ligand_efficiency": null, "molecule_chembl_id": "CHEMBL384304", "molecule_pref_name": "RG-547", "parent_molecule_chembl_id": "CHEMBL384304", "pchembl_value": null, "potential_duplicate": 0, "qudt_units": null, "record_id": 590396, "relation": null, "src_id": 1, "standard_flag": 0, "standard_relation": null, "standard_text_value": null, "standard_type": "Activity", "standard_units": null, "standard_upper_value": null, "standard_value": null, "target_chembl_id": "CHEMBL394", "target_organism": "Homo sapiens", "target_pref_name": "HCT-116", "target_tax_id": "9606", "text_value": null, "toid": null, "type": "Activity", "units": null, "uo_units": null, "upper_value": null, "value": null}, {"action_type": null, "activity_comment": null, "activity_id": 1777524, "activity_properties": [], "assay_chembl_id": "CHEMBL908828", "assay_description": "Inhibition of HCT116 cell growth", "assay_type": "F", "assay_variant_accession": null, "assay_variant_mutation": null, "bao_endpoint": "BAO_0002144", "bao_format": "BAO_0000219", "bao_label": "cell-based format", "canonical_smiles": "COc1ccc(F)c(F)c1C(=O)c1cnc(NC2CCN(S(C)(=O)=O)CC2)nc1N", "data_validity_comment": null, "data_validity_description": null, "document_chembl_id": "CHEMBL1137323", "document_journal": "J Med Chem", "document_year": 2006, "ligand_efficiency": null, "molecule_chembl_id": "CHEMBL384304", "molecule_pref_name": "RG-547", "parent_molecule_chembl_id": "CHEMBL384304", "pchembl_value": null, "potential_duplicate": 0, "qudt_units": "http://www.openphacts.org/units/MicrogramPerMilliliter", "record_id": 590396, "relation": "=", "src_id": 1, "standard_flag": 1, "standard_relation": "=", "standard_text_value": null, "standard_type": "IC90", "standard_units": "ug.mL-1", "standard_upper_value": null, "standard_value": "0.075", "target_chembl_id": "CHEMBL394", "target_organism": "Homo sapiens", "target_pref_name": "HCT-116", "target_tax_id": "9606", "text_value": null, "toid": null, "type": "IC90", "units": "ng/ml", "uo_units": "UO_0000274", "upper_value": null, "value": "75.0"}, {"action_type": null, "activity_comment": null, "activity_id": 1777526, "activity_properties": [], "assay_chembl_id": "CHEMBL908832", "assay_description": "Inhibition of PKA", "assay_type": "B", "assay_variant_accession": null, "assay_variant_mutation": null, "bao_endpoint": "BAO_0000192", "bao_format": "BAO_0000224", "bao_label": "protein format", "canonical_smiles": "COc1ccc(F)c(F)c1C(=O)c1cnc(NC2CCN(S(C)(=O)=O)CC2)nc1N", "data_validity_comment": null, "data_validity_description": null, "document_chembl_id": "CHEMBL1137323", "document_journal": "J Med Chem", "document_year": 2006, "ligand_efficiency": null, "molecule_chembl_id": "CHEMBL384304", "molecule_pref_name": "RG-547", "parent_molecule_chembl_id": "CHEMBL384304", "pchembl_value": null, "potential_duplicate": 0, "qudt_units": "http://www.openphacts.org/units/Nanomolar", "record_id": 590396, "relation": ">", "src_id": 1, "standard_flag": 1, "standard_relation": ">", "standard_text_value": null, "standard_type": "Ki", "standard_units": "nM", "standard_upper_value": null, "standard_value": "5000.0", "target_chembl_id": "CHEMBL2094138", "target_organism": "Homo sapiens", "target_pref_name": "cAMP-dependent protein kinase (PKA)", "target_tax_id": "9606", "text_value": null, "toid": null, "type": "Ki", "units": "uM", "uo_units": "UO_0000065", "upper_value": null, "value": "5.0"}, {"action_type": null, "activity_comment": null, "activity_id": 1777527, "activity_properties": [], "assay_chembl_id": "CHEMBL908833", "assay_description": "Inhibition of PKB", "assay_type": "B", "assay_variant_accession": null, "assay_variant_mutation": null, "bao_endpoint": "BAO_0000192", "bao_format": "BAO_0000224", "bao_label": "protein format", "canonical_smiles": "COc1ccc(F)c(F)c1C(=O)c1cnc(NC2CCN(S(C)(=O)=O)CC2)nc1N", "data_validity_comment": null, "data_validity_description": null, "document_chembl_id": "CHEMBL1137323", "document_journal": "J Med Chem", "document_year": 2006, "ligand_efficiency": null, "molecule_chembl_id": "CHEMBL384304", "molecule_pref_name": "RG-547", "parent_molecule_chembl_id": "CHEMBL384304", "pchembl_value": null, "potential_duplicate": 0, "qudt_units": "http://www.openphacts.org/units/Nanomolar", "record_id": 590396, "relation": ">", "src_id": 1, "standard_flag": 1, "standard_relation": ">", "standard_text_value": null, "standard_type": "Ki", "standard_units": "nM", "standard_upper_value": null, "standard_value": "5000.0", "target_chembl_id": "CHEMBL2111353", "target_organism": "Homo sapiens", "target_pref_name": "Serine/threonine-protein kinase AKT", "target_tax_id": "9606", "text_value": null, "toid": null, "type": "Ki", "units": "uM", "uo_units": "UO_0000065", "upper_value": null, "value": "5.0"}, {"action_type": null, "activity_comment": null, "activity_id": 1777528, "activity_properties": [], "assay_chembl_id": "CHEMBL908834", "assay_description": "Inhibition of PKC alpha", "assay_type": "B", "assay_variant_accession": null, "assay_variant_mutation": null, "bao_endpoint": "BAO_0000192", "bao_format": "BAO_0000357", "bao_label": "single protein format", "canonical_smiles": "COc1ccc(F)c(F)c1C(=O)c1cnc(NC2CCN(S(C)(=O)=O)CC2)nc1N", "data_validity_comment": null, "data_validity_description": null, "document_chembl_id": "CHEMBL1137323", "document_journal": "J Med Chem", "document_year": 2006, "ligand_efficiency": null, "molecule_chembl_id": "CHEMBL384304", "molecule_pref_name": "RG-547", "parent_molecule_chembl_id": "CHEMBL384304", "pchembl_value": null, "potential_duplicate": 0, "qudt_units": "http://www.openphacts.org/units/Nanomolar", "record_id": 590396, "relation": ">", "src_id": 1, "standard_flag": 1, "standard_relation": ">", "standard_text_value": null, "standard_type": "Ki", "standard_units": "nM", "standard_upper_value": null, "standard_value": "5000.0", "target_chembl_id": "CHEMBL299", "target_organism": "Homo sapiens", "target_pref_name": "Protein kinase C alpha type", "target_tax_id": "9606", "text_value": null, "toid": null, "type": "Ki", "units": "uM", "uo_units": "UO_0000065", "upper_value": null, "value": "5.0"}, {"action_type": null, "activity_comment": null, "activity_id": 1777529, "activity_properties": [], "assay_chembl_id": "CHEMBL908835", "assay_description": "Inhibition of PKC beta", "assay_type": "B", "assay_variant_accession": null, "assay_variant_mutation": null, "bao_endpoint": "BAO_0000192", "bao_format": "BAO_0000357", "bao_label": "single protein format", "canonical_smiles": "COc1ccc(F)c(F)c1C(=O)c1cnc(NC2CCN(S(C)(=O)=O)CC2)nc1N", "data_validity_comment": null, "data_validity_description": null, "document_chembl_id": "CHEMBL1137323", "document_journal": "J Med Chem", "document_year": 2006, "ligand_efficiency": null, "molecule_chembl_id": "CHEMBL384304", "molecule_pref_name": "RG-547", "parent_molecule_chembl_id": "CHEMBL384304", "pchembl_value": null, "potential_duplicate": 0, "qudt_units": "http://www.openphacts.org/units/Nanomolar", "record_id": 590396, "relation": ">", "src_id": 1, "standard_flag": 1, "standard_relation": ">", "standard_text_value": null, "standard_type": "Ki", "standard_units": "nM", "standard_upper_value": null, "standard_value": "5000.0", "target_chembl_id": "CHEMBL3045", "target_organism": "Homo sapiens", "target_pref_name": "Protein kinase C beta type", "target_tax_id": "9606", "text_value": null, "toid": null, "type": "Ki", "units": "uM", "uo_units": "UO_0000065", "upper_value": null, "value": "5.0"}, {"action_type": null, "activity_comment": null, "activity_id": 1777530, "activity_properties": [], "assay_chembl_id": "CHEMBL908836", "assay_description": "Inhibition of FYN", "assay_type": "B", "assay_variant_accession": null, "assay_variant_mutation": null, "bao_endpoint": "BAO_0000192", "bao_format": "BAO_0000357", "bao_label": "single protein format", "canonical_smiles": "COc1ccc(F)c(F)c1C(=O)c1cnc(NC2CCN(S(C)(=O)=O)CC2)nc1N", "data_validity_comment": null, "data_validity_description": null, "document_chembl_id": "CHEMBL1137323", "document_journal": "J Med Chem", "document_year": 2006, "ligand_efficiency": null, "molecule_chembl_id": "CHEMBL384304", "molecule_pref_name": "RG-547", "parent_molecule_chembl_id": "CHEMBL384304", "pchembl_value": null, "potential_duplicate": 0, "qudt_units": "http://www.openphacts.org/units/Nanomolar", "record_id": 590396, "relation": ">", "src_id": 1, "standard_flag": 1, "standard_relation": ">", "standard_text_value": null, "standard_type": "Ki", "standard_units": "nM", "standard_upper_value": null, "standard_value": "5000.0", "target_chembl_id": "CHEMBL1841", "target_organism": "Homo sapiens", "target_pref_name": "Tyrosine-protein kinase Fyn", "target_tax_id": "9606", "text_value": null, "toid": null, "type": "Ki", "units": "uM", "uo_units": "UO_0000065", "upper_value": null, "value": "5.0"}, {"action_type": null, "activity_comment": null, "activity_id": 1777531, "activity_properties": [], "assay_chembl_id": "CHEMBL908837", "assay_description": "Inhibition of EPHB3", "assay_type": "B", "assay_variant_accession": null, "assay_variant_mutation": null, "bao_endpoint": "BAO_0000192", "bao_format": "BAO_0000357", "bao_label": "single protein format", "canonical_smiles": "COc1ccc(F)c(F)c1C(=O)c1cnc(NC2CCN(S(C)(=O)=O)CC2)nc1N", "data_validity_comment": null, "data_validity_description": null, "document_chembl_id": "CHEMBL1137323", "document_journal": "J Med Chem", "document_year": 2006, "ligand_efficiency": null, "molecule_chembl_id": "CHEMBL384304", "molecule_pref_name": "RG-547", "parent_molecule_chembl_id": "CHEMBL384304", "pchembl_value": null, "potential_duplicate": 0, "qudt_units": "http://www.openphacts.org/units/Nanomolar", "record_id": 590396, "relation": ">", "src_id": 1, "standard_flag": 1, "standard_relation": ">", "standard_text_value": null, "standard_type": "Ki", "standard_units": "nM", "standard_upper_value": null, "standard_value": "5000.0", "target_chembl_id": "CHEMBL4901", "target_organism": "Homo sapiens", "target_pref_name": "Ephrin type-B receptor 3", "target_tax_id": "9606", "text_value": null, "toid": null, "type": "Ki", "units": "uM", "uo_units": "UO_0000065", "upper_value": null, "value": "5.0"}, {"action_type": null, "activity_comment": null, "activity_id": 1777532, "activity_properties": [], "assay_chembl_id": "CHEMBL908838", "assay_description": "Inhibition of SGK", "assay_type": "B", "assay_variant_accession": null, "assay_variant_mutation": null, "bao_endpoint": "BAO_0000192", "bao_format": "BAO_0000357", "bao_label": "single protein format", "canonical_smiles": "COc1ccc(F)c(F)c1C(=O)c1cnc(NC2CCN(S(C)(=O)=O)CC2)nc1N", "data_validity_comment": null, "data_validity_description": null, "document_chembl_id": "CHEMBL1137323", "document_journal": "J Med Chem", "document_year": 2006, "ligand_efficiency": null, "molecule_chembl_id": "CHEMBL384304", "molecule_pref_name": "RG-547", "parent_molecule_chembl_id": "CHEMBL384304", "pchembl_value": null, "potential_duplicate": 0, "qudt_units": "http://www.openphacts.org/units/Nanomolar", "record_id": 590396, "relation": ">", "src_id": 1, "standard_flag": 1, "standard_relation": ">", "standard_text_value": null, "standard_type": "Ki", "standard_units": "nM", "standard_upper_value": null, "standard_value": "5000.0", "target_chembl_id": "CHEMBL2343", "target_organism": "Homo sapiens", "target_pref_name": "Serine/threonine-protein kinase Sgk1", "target_tax_id": "9606", "text_value": null, "toid": null, "type": "Ki", "units": "uM", "uo_units": "UO_0000065", "upper_value": null, "value": "5.0"}, {"action_type": null, "activity_comment": null, "activity_id": 1777533, "activity_properties": [], "assay_chembl_id": "CHEMBL908839", "assay_description": "Inhibition of p38", "assay_type": "B", "assay_variant_accession": null, "assay_variant_mutation": null, "bao_endpoint": "BAO_0000192", "bao_format": "BAO_0000224", "bao_label": "protein format", "canonical_smiles": "COc1ccc(F)c(F)c1C(=O)c1cnc(NC2CCN(S(C)(=O)=O)CC2)nc1N", "data_validity_comment": null, "data_validity_description": null, "document_chembl_id": "CHEMBL1137323", "document_journal": "J Med Chem", "document_year": 2006, "ligand_efficiency": null, "molecule_chembl_id": "CHEMBL384304", "molecule_pref_name": "RG-547", "parent_molecule_chembl_id": "CHEMBL384304", "pchembl_value": null, "potential_duplicate": 0, "qudt_units": "http://www.openphacts.org/units/Nanomolar", "record_id": 590396, "relation": ">", "src_id": 1, "standard_flag": 1, "standard_relation": ">", "standard_text_value": null, "standard_type": "Ki", "standard_units": "nM", "standard_upper_value": null, "standard_value": "50000.0", "target_chembl_id": "CHEMBL2094115", "target_organism": "Homo sapiens", "target_pref_name": "MAP kinase p38", "target_tax_id": "9606", "text_value": null, "toid": null, "type": "Ki", "units": "uM", "uo_units": "UO_0000065", "upper_value": null, "value": "50.0"}, {"action_type": null, "activity_comment": null, "activity_id": 1777534, "activity_properties": [], "assay_chembl_id": "CHEMBL908840", "assay_description": "Inhibition of GSK3-beta", "assay_type": "B", "assay_variant_accession": null, "assay_variant_mutation": null, "bao_endpoint": "BAO_0000192", "bao_format": "BAO_0000357", "bao_label": "single protein format", "canonical_smiles": "COc1ccc(F)c(F)c1C(=O)c1cnc(NC2CCN(S(C)(=O)=O)CC2)nc1N", "data_validity_comment": null, "data_validity_description": null, "document_chembl_id": "CHEMBL1137323", "document_journal": "J Med Chem", "document_year": 2006, "ligand_efficiency": {"bei": "11.55", "le": "0.23", "lle": "3.69", "sei": "4.00"}, "molecule_chembl_id": "CHEMBL384304", "molecule_pref_name": "RG-547", "parent_molecule_chembl_id": "CHEMBL384304", "pchembl_value": "5.10", "potential_duplicate": 0, "qudt_units": "http://www.openphacts.org/units/Nanomolar", "record_id": 590396, "relation": "=", "src_id": 1, "standard_flag": 1, "standard_relation": "=", "standard_text_value": null, "standard_type": "Ki", "standard_units": "nM", "standard_upper_value": null, "standard_value": "8000.0", "target_chembl_id": "CHEMBL262", "target_organism": "Homo sapiens", "target_pref_name": "Glycogen synthase kinase-3 beta", "target_tax_id": "9606", "text_value": null, "toid": null, "type": "Ki", "units": "uM", "uo_units": "UO_0000065", "upper_value": null, "value": "8.0"}, {"action_type": null, "activity_comment": null, "activity_id": 1777535, "activity_properties": [], "assay_chembl_id": "CHEMBL908841", "assay_description": "Inhibition of KDR", "assay_type": "B", "assay_variant_accession": null, "assay_variant_mutation": null, "bao_endpoint": "BAO_0000192", "bao_format": "BAO_0000357", "bao_label": "single protein format", "canonical_smiles": "COc1ccc(F)c(F)c1C(=O)c1cnc(NC2CCN(S(C)(=O)=O)CC2)nc1N", "data_validity_comment": null, "data_validity_description": null, "document_chembl_id": "CHEMBL1137323", "document_journal": "J Med Chem", "document_year": 2006, "ligand_efficiency": null, "molecule_chembl_id": "CHEMBL384304", "molecule_pref_name": "RG-547", "parent_molecule_chembl_id": "CHEMBL384304", "pchembl_value": null, "potential_duplicate": 0, "qudt_units": "http://www.openphacts.org/units/Nanomolar", "record_id": 590396, "relation": ">", "src_id": 1, "standard_flag": 1, "standard_relation": ">", "standard_text_value": null, "standard_type": "Ki", "standard_units": "nM", "standard_upper_value": null, "standard_value": "5000.0", "target_chembl_id": "CHEMBL279", "target_organism": "Homo sapiens", "target_pref_name": "Vascular endothelial growth factor receptor 2", "target_tax_id": "9606", "text_value": null, "toid": null, "type": "Ki", "units": "uM", "uo_units": "UO_0000065", "upper_value": null, "value": "5.0"}, {"action_type": null, "activity_comment": null, "activity_id": 1777536, "activity_properties": [], "assay_chembl_id": "CHEMBL908842", "assay_description": "Inhibition of FGFR", "assay_type": "B", "assay_variant_accession": null, "assay_variant_mutation": null, "bao_endpoint": "BAO_0000192", "bao_format": "BAO_0000224", "bao_label": "protein format", "canonical_smiles": "COc1ccc(F)c(F)c1C(=O)c1cnc(NC2CCN(S(C)(=O)=O)CC2)nc1N", "data_validity_comment": null, "data_validity_description": null, "document_chembl_id": "CHEMBL1137323", "document_journal": "J Med Chem", "document_year": 2006, "ligand_efficiency": null, "molecule_chembl_id": "CHEMBL384304", "molecule_pref_name": "RG-547", "parent_molecule_chembl_id": "CHEMBL384304", "pchembl_value": null, "potential_duplicate": 0, "qudt_units": "http://www.openphacts.org/units/Nanomolar", "record_id": 590396, "relation": ">", "src_id": 1, "standard_flag": 1, "standard_relation": ">", "standard_text_value": null, "standard_type": "Ki", "standard_units": "nM", "standard_upper_value": null, "standard_value": "5000.0", "target_chembl_id": "CHEMBL2095217", "target_organism": "Homo sapiens", "target_pref_name": "Fibroblast growth factor receptor", "target_tax_id": "9606", "text_value": null, "toid": null, "type": "Ki", "units": "uM", "uo_units": "UO_0000065", "upper_value": null, "value": "5.0"}, {"action_type": null, "activity_comment": null, "activity_id": 1777538, "activity_properties": [], "assay_chembl_id": "CHEMBL908843", "assay_description": "Inhibition of EGFR", "assay_type": "B", "assay_variant_accession": null, "assay_variant_mutation": null, "bao_endpoint": "BAO_0000192", "bao_format": "BAO_0000357", "bao_label": "single protein format", "canonical_smiles": "COc1ccc(F)c(F)c1C(=O)c1cnc(NC2CCN(S(C)(=O)=O)CC2)nc1N", "data_validity_comment": null, "data_validity_description": null, "document_chembl_id": "CHEMBL1137323", "document_journal": "J Med Chem", "document_year": 2006, "ligand_efficiency": null, "molecule_chembl_id": "CHEMBL384304", "molecule_pref_name": "RG-547", "parent_molecule_chembl_id": "CHEMBL384304", "pchembl_value": null, "potential_duplicate": 0, "qudt_units": "http://www.openphacts.org/units/Nanomolar", "record_id": 590396, "relation": ">", "src_id": 1, "standard_flag": 1, "standard_relation": ">", "standard_text_value": null, "standard_type": "Ki", "standard_units": "nM", "standard_upper_value": null, "standard_value": "5000.0", "target_chembl_id": "CHEMBL203", "target_organism": "Homo sapiens", "target_pref_name": "Epidermal growth factor receptor", "target_tax_id": "9606", "text_value": null, "toid": null, "type": "Ki", "units": "uM", "uo_units": "UO_0000065", "upper_value": null, "value": "5.0"}], "page_meta": {"limit": 20, "next": "/chembl/api/data/activity.json?limit=20&offset=20&molecule_chembl_id=CHEMBL384304", "offset": 0, "previous": null, "total_count": 1689}}