{"activities": [{"action_type": null, "activity_comment": null, "activity_id": 79209, "activity_properties": [], "assay_chembl_id": "CHEMBL705056", "assay_description": "Tested in vitro for cytotoxicity against murine L1210 leukemic cells", "assay_type": "F", "assay_variant_accession": null, "assay_variant_mutation": null, "bao_endpoint": "BAO_0000190", "bao_format": "BAO_0000219", "bao_label": "cell-based format", "canonical_smiles": "CN1N=C(N)c2cn([C@@H]3O[C@H](COP(=O)(O)O)[C@@H](O)[C@H]3O)c3ncnc1c23", "data_validity_comment": null, "data_validity_description": null, "document_chembl_id": "CHEMBL1133023", "document_journal": "J Med Chem", "document_year": 2000, "ligand_efficiency": null, "molecule_chembl_id": "CHEMBL462018", "molecule_pref_name": "TRICIRIBINE PHOSPHATE", "parent_molecule_chembl_id": "CHEMBL462018", "pchembl_value": "7.60", "potential_duplicate": 0, "qudt_units": "http://www.openphacts.org/units/Nanomolar", "record_id": 145218, "relation": "=", "src_id": 1, "standard_flag": 1, "standard_relation": "=", "standard_text_value": null, "standard_type": "IC50", "standard_units": "nM", "standard_upper_value": null, "standard_value": "25.0", "target_chembl_id": "CHEMBL386", "target_organism": "Mus musculus", "target_pref_name": "L1210", "target_tax_id": "10090", "text_value": null, "toid": null, "type": "IC50", "units": "uM", "uo_units": "UO_0000065", "upper_value": null, "value": "0.025"}, {"action_type": null, "activity_comment": null, "activity_id": 79210, "activity_properties": [], "assay_chembl_id": "CHEMBL701606", "assay_description": "Inhibition of KB cell growth was assessed", "assay_type": "F", "assay_variant_accession": null, "assay_variant_mutation": null, "bao_endpoint": "BAO_0000190", "bao_format": "BAO_0000219", "bao_label": "cell-based format", "canonical_smiles": "CN1N=C(N)c2cn([C@@H]3O[C@H](COP(=O)(O)O)[C@@H](O)[C@H]3O)c3ncnc1c23", "data_validity_comment": null, "data_validity_description": null, "document_chembl_id": "CHEMBL1133023", "document_journal": "J Med Chem", "document_year": 2000, "ligand_efficiency": null, "molecule_chembl_id": "CHEMBL462018", "molecule_pref_name": "TRICIRIBINE PHOSPHATE", "parent_molecule_chembl_id": "CHEMBL462018", "pchembl_value": "5.00", "potential_duplicate": 0, "qudt_units": "http://www.openphacts.org/units/Nanomolar", "record_id": 145218, "relation": "=", "src_id": 1, "standard_flag": 1, "standard_relation": "=", "standard_text_value": null, "standard_type": "IC50", "standard_units": "nM", "standard_upper_value": null, "standard_value": "10000.0", "target_chembl_id": "CHEMBL398", "target_organism": "Homo sapiens", "target_pref_name": "KB", "target_tax_id": "9606", "text_value": null, "toid": null, "type": "IC50", "units": "uM", "uo_units": "UO_0000065", "upper_value": null, "value": "10.0"}, {"action_type": null, "activity_comment": null, "activity_id": 79211, "activity_properties": [], "assay_chembl_id": "CHEMBL690280", "assay_description": "Tested for visual cytotoxicity on uninfected HFF cells", "assay_type": "F", "assay_variant_accession": null, "assay_variant_mutation": null, "bao_endpoint": "BAO_0000190", "bao_format": "BAO_0000219", "bao_label": "cell-based format", "canonical_smiles": "CN1N=C(N)c2cn([C@@H]3O[C@H](COP(=O)(O)O)[C@@H](O)[C@H]3O)c3ncnc1c23", "data_validity_comment": null, "data_validity_description": null, "document_chembl_id": "CHEMBL1133023", "document_journal": "J Med Chem", "document_year": 2000, "ligand_efficiency": null, "molecule_chembl_id": "CHEMBL462018", "molecule_pref_name": "TRICIRIBINE PHOSPHATE", "parent_molecule_chembl_id": "CHEMBL462018", "pchembl_value": "4.72", "potential_duplicate": 0, "qudt_units": "http://www.openphacts.org/units/Nanomolar", "record_id": 145218, "relation": "=", "src_id": 1, "standard_flag": 1, "standard_relation": "=", "standard_text_value": null, "standard_type": "IC50", "standard_units": "nM", "standard_upper_value": null, "standard_value": "19000.0", "target_chembl_id": "CHEMBL614071", "target_organism": "Homo sapiens", "target_pref_name": "HFF", "target_tax_id": "9606", "text_value": null, "toid": null, "type": "IC50", "units": "uM", "uo_units": "UO_0000065", "upper_value": null, "value": "19.0"}, {"action_type": null, "activity_comment": null, "activity_id": 79212, "activity_properties": [], "assay_chembl_id": "CHEMBL654790", "assay_description": "Tested for visual cytotoxicity on uninfected CEM-SS cells", "assay_type": "F", "assay_variant_accession": null, "assay_variant_mutation": null, "bao_endpoint": "BAO_0000190", "bao_format": "BAO_0000219", "bao_label": "cell-based format", "canonical_smiles": "CN1N=C(N)c2cn([C@@H]3O[C@H](COP(=O)(O)O)[C@@H](O)[C@H]3O)c3ncnc1c23", "data_validity_comment": null, "data_validity_description": null, "document_chembl_id": "CHEMBL1133023", "document_journal": "J Med Chem", "document_year": 2000, "ligand_efficiency": null, "molecule_chembl_id": "CHEMBL462018", "molecule_pref_name": "TRICIRIBINE PHOSPHATE", "parent_molecule_chembl_id": "CHEMBL462018", "pchembl_value": null, "potential_duplicate": 0, "qudt_units": "http://www.openphacts.org/units/Nanomolar", "record_id": 145218, "relation": ">", "src_id": 1, "standard_flag": 1, "standard_relation": ">", "standard_text_value": null, "standard_type": "IC50", "standard_units": "nM", "standard_upper_value": null, "standard_value": "1000.0", "target_chembl_id": "CHEMBL614548", "target_organism": "Homo sapiens", "target_pref_name": "CEM-SS", "target_tax_id": "9606", "text_value": null, "toid": null, "type": "IC50", "units": "uM", "uo_units": "UO_0000065", "upper_value": null, "value": "1.0"}, {"action_type": null, "activity_comment": null, "activity_id": 79213, "activity_properties": [], "assay_chembl_id": "CHEMBL802399", "assay_description": "Antiviral activity was tested in cells acutely infected with HIV-1 RT (reverse transcriptase)", "assay_type": "B", "assay_variant_accession": null, "assay_variant_mutation": null, "bao_endpoint": "BAO_0000190", "bao_format": "BAO_0000019", "bao_label": "assay format", "canonical_smiles": "CN1N=C(N)c2cn([C@@H]3O[C@H](COP(=O)(O)O)[C@@H](O)[C@H]3O)c3ncnc1c23", "data_validity_comment": null, "data_validity_description": null, "document_chembl_id": "CHEMBL1133023", "document_journal": "J Med Chem", "document_year": 2000, "ligand_efficiency": {"bei": "18.48", "le": "0.37", "lle": "9.17", "sei": "3.92"}, "molecule_chembl_id": "CHEMBL462018", "molecule_pref_name": "TRICIRIBINE PHOSPHATE", "parent_molecule_chembl_id": "CHEMBL462018", "pchembl_value": "7.40", "potential_duplicate": 0, "qudt_units": "http://www.openphacts.org/units/Nanomolar", "record_id": 145218, "relation": "=", "src_id": 1, "standard_flag": 1, "standard_relation": "=", "standard_text_value": null, "standard_type": "IC50", "standard_units": "nM", "standard_upper_value": null, "standard_value": "40.0", "target_chembl_id": "CHEMBL247", "target_organism": "Human immunodeficiency virus 1", "target_pref_name": "Human immunodeficiency virus type 1 reverse transcriptase", "target_tax_id": "11676", "text_value": null, "toid": null, "type": "IC50", "units": "uM", "uo_units": "UO_0000065", "upper_value": null, "value": "0.04"}, {"action_type": null, "activity_comment": null, "activity_id": 79214, "activity_properties": [], "assay_chembl_id": "CHEMBL652985", "assay_description": "Antiviral activity was tested using an enzyme-linked immunosorbent assay (ELISA) to detect HSV-1 (herpes simplex virus type 1) using BSC-1 cells", "assay_type": "F", "assay_variant_accession": null, "assay_variant_mutation": null, "bao_endpoint": "BAO_0000190", "bao_format": "BAO_0000219", "bao_label": "cell-based format", "canonical_smiles": "CN1N=C(N)c2cn([C@@H]3O[C@H](COP(=O)(O)O)[C@@H](O)[C@H]3O)c3ncnc1c23", "data_validity_comment": null, "data_validity_description": null, "document_chembl_id": "CHEMBL1133023", "document_journal": "J Med Chem", "document_year": 2000, "ligand_efficiency": null, "molecule_chembl_id": "CHEMBL462018", "molecule_pref_name": "TRICIRIBINE PHOSPHATE", "parent_molecule_chembl_id": "CHEMBL462018", "pchembl_value": "4.70", "potential_duplicate": 0, "qudt_units": "http://www.openphacts.org/units/Nanomolar", "record_id": 145218, "relation": "=", "src_id": 1, "standard_flag": 1, "standard_relation": "=", "standard_text_value": null, "standard_type": "IC50", "standard_units": "nM", "standard_upper_value": null, "standard_value": "20000.0", "target_chembl_id": "CHEMBL612558", "target_organism": null, "target_pref_name": "ADMET", "target_tax_id": null, "text_value": null, "toid": null, "type": "IC50", "units": "uM", "uo_units": "UO_0000065", "upper_value": null, "value": "20.0"}, {"action_type": null, "activity_comment": null, "activity_id": 79215, "activity_properties": [], "assay_chembl_id": "CHEMBL691808", "assay_description": "HCMV plaque assay was performed using HFF cells and effect was calculated as a percentage of reduction in number of plaques", "assay_type": "F", "assay_variant_accession": null, "assay_variant_mutation": null, "bao_endpoint": "BAO_0000190", "bao_format": "BAO_0000219", "bao_label": "cell-based format", "canonical_smiles": "CN1N=C(N)c2cn([C@@H]3O[C@H](COP(=O)(O)O)[C@@H](O)[C@H]3O)c3ncnc1c23", "data_validity_comment": null, "data_validity_description": null, "document_chembl_id": "CHEMBL1133023", "document_journal": "J Med Chem", "document_year": 2000, "ligand_efficiency": null, "molecule_chembl_id": "CHEMBL462018", "molecule_pref_name": "TRICIRIBINE PHOSPHATE", "parent_molecule_chembl_id": "CHEMBL462018", "pchembl_value": "6.10", "potential_duplicate": 0, "qudt_units": "http://www.openphacts.org/units/Nanomolar", "record_id": 145218, "relation": "=", "src_id": 1, "standard_flag": 1, "standard_relation": "=", "standard_text_value": null, "standard_type": "IC50", "standard_units": "nM", "standard_upper_value": null, "standard_value": "800.0", "target_chembl_id": "CHEMBL614071", "target_organism": "Homo sapiens", "target_pref_name": "HFF", "target_tax_id": "9606", "text_value": null, "toid": null, "type": "IC50", "units": "uM", "uo_units": "UO_0000065", "upper_value": null, "value": "0.8"}, {"action_type": null, "activity_comment": null, "activity_id": 1080193, "activity_properties": [], "assay_chembl_id": "CHEMBL802397", "assay_description": "Antiviral activity was evaluated by RT (reverse transcriptase) activity in cells acutely infected with HIV-1", "assay_type": "B", "assay_variant_accession": null, "assay_variant_mutation": null, "bao_endpoint": "BAO_0000190", "bao_format": "BAO_0000019", "bao_label": "assay format", "canonical_smiles": "CN1N=C(N)c2cn([C@@H]3O[C@H](COP(=O)(O)O)[C@@H](O)[C@H]3O)c3ncnc1c23", "data_validity_comment": null, "data_validity_description": null, "document_chembl_id": "CHEMBL1133753", "document_journal": "J Med Chem", "document_year": 2000, "ligand_efficiency": {"bei": "18.48", "le": "0.37", "lle": "9.17", "sei": "3.92"}, "molecule_chembl_id": "CHEMBL462018", "molecule_pref_name": "TRICIRIBINE PHOSPHATE", "parent_molecule_chembl_id": "CHEMBL462018", "pchembl_value": "7.40", "potential_duplicate": 1, "qudt_units": "http://www.openphacts.org/units/Nanomolar", "record_id": 146494, "relation": "=", "src_id": 1, "standard_flag": 1, "standard_relation": "=", "standard_text_value": null, "standard_type": "IC50", "standard_units": "nM", "standard_upper_value": null, "standard_value": "40.0", "target_chembl_id": "CHEMBL247", "target_organism": "Human immunodeficiency virus 1", "target_pref_name": "Human immunodeficiency virus type 1 reverse transcriptase", "target_tax_id": "11676", "text_value": null, "toid": null, "type": "IC50", "units": "uM", "uo_units": "UO_0000065", "upper_value": null, "value": "0.04"}, {"action_type": null, "activity_comment": null, "activity_id": 1080194, "activity_properties": [], "assay_chembl_id": "CHEMBL652984", "assay_description": "Antiviral activity against HSV-1 was determined using BSC-1 cells by an enzyme-linked immunosorbent assay (ELISA)", "assay_type": "F", "assay_variant_accession": null, "assay_variant_mutation": null, "bao_endpoint": "BAO_0000190", "bao_format": "BAO_0000219", "bao_label": "cell-based format", "canonical_smiles": "CN1N=C(N)c2cn([C@@H]3O[C@H](COP(=O)(O)O)[C@@H](O)[C@H]3O)c3ncnc1c23", "data_validity_comment": null, "data_validity_description": null, "document_chembl_id": "CHEMBL1133753", "document_journal": "J Med Chem", "document_year": 2000, "ligand_efficiency": null, "molecule_chembl_id": "CHEMBL462018", "molecule_pref_name": "TRICIRIBINE PHOSPHATE", "parent_molecule_chembl_id": "CHEMBL462018", "pchembl_value": "4.70", "potential_duplicate": 0, "qudt_units": "http://www.openphacts.org/units/Nanomolar", "record_id": 146494, "relation": "=", "src_id": 1, "standard_flag": 1, "standard_relation": "=", "standard_text_value": null, "standard_type": "IC50", "standard_units": "nM", "standard_upper_value": null, "standard_value": "20000.0", "target_chembl_id": "CHEMBL612558", "target_organism": null, "target_pref_name": "ADMET", "target_tax_id": null, "text_value": null, "toid": null, "type": "IC50", "units": "uM", "uo_units": "UO_0000065", "upper_value": null, "value": "20.0"}, {"action_type": null, "activity_comment": null, "activity_id": 1080195, "activity_properties": [], "assay_chembl_id": "CHEMBL696031", "assay_description": "Antiviral activity against HCMV was determined by plaque reduction assay using HFF cells", "assay_type": "F", "assay_variant_accession": null, "assay_variant_mutation": null, "bao_endpoint": "BAO_0000190", "bao_format": "BAO_0000219", "bao_label": "cell-based format", "canonical_smiles": "CN1N=C(N)c2cn([C@@H]3O[C@H](COP(=O)(O)O)[C@@H](O)[C@H]3O)c3ncnc1c23", "data_validity_comment": null, "data_validity_description": null, "document_chembl_id": "CHEMBL1133753", "document_journal": "J Med Chem", "document_year": 2000, "ligand_efficiency": null, "molecule_chembl_id": "CHEMBL462018", "molecule_pref_name": "TRICIRIBINE PHOSPHATE", "parent_molecule_chembl_id": "CHEMBL462018", "pchembl_value": "6.10", "potential_duplicate": 0, "qudt_units": "http://www.openphacts.org/units/Nanomolar", "record_id": 146494, "relation": "=", "src_id": 1, "standard_flag": 1, "standard_relation": "=", "standard_text_value": null, "standard_type": "IC50", "standard_units": "nM", "standard_upper_value": null, "standard_value": "800.0", "target_chembl_id": "CHEMBL614071", "target_organism": "Homo sapiens", "target_pref_name": "HFF", "target_tax_id": "9606", "text_value": null, "toid": null, "type": "IC50", "units": "uM", "uo_units": "UO_0000065", "upper_value": null, "value": "0.8"}, {"action_type": null, "activity_comment": null, "activity_id": 1080196, "activity_properties": [], "assay_chembl_id": "CHEMBL705963", "assay_description": "Cytotoxicity measured as Inhibition of KB cell growth was assessed.", "assay_type": "F", "assay_variant_accession": null, "assay_variant_mutation": null, "bao_endpoint": "BAO_0000190", "bao_format": "BAO_0000219", "bao_label": "cell-based format", "canonical_smiles": "CN1N=C(N)c2cn([C@@H]3O[C@H](COP(=O)(O)O)[C@@H](O)[C@H]3O)c3ncnc1c23", "data_validity_comment": null, "data_validity_description": null, "document_chembl_id": "CHEMBL1133753", "document_journal": "J Med Chem", "document_year": 2000, "ligand_efficiency": null, "molecule_chembl_id": "CHEMBL462018", "molecule_pref_name": "TRICIRIBINE PHOSPHATE", "parent_molecule_chembl_id": "CHEMBL462018", "pchembl_value": "5.00", "potential_duplicate": 0, "qudt_units": "http://www.openphacts.org/units/Nanomolar", "record_id": 146494, "relation": "=", "src_id": 1, "standard_flag": 1, "standard_relation": "=", "standard_text_value": null, "standard_type": "IC50", "standard_units": "nM", "standard_upper_value": null, "standard_value": "10000.0", "target_chembl_id": "CHEMBL612558", "target_organism": null, "target_pref_name": "ADMET", "target_tax_id": null, "text_value": null, "toid": null, "type": "IC50", "units": "uM", "uo_units": "UO_0000065", "upper_value": null, "value": "10.0"}, {"action_type": null, "activity_comment": null, "activity_id": 1080197, "activity_properties": [], "assay_chembl_id": "CHEMBL690284", "assay_description": "Visual cytotoxicity was scored on uninfected HFF cells", "assay_type": "F", "assay_variant_accession": null, "assay_variant_mutation": null, "bao_endpoint": "BAO_0000190", "bao_format": "BAO_0000219", "bao_label": "cell-based format", "canonical_smiles": "CN1N=C(N)c2cn([C@@H]3O[C@H](COP(=O)(O)O)[C@@H](O)[C@H]3O)c3ncnc1c23", "data_validity_comment": null, "data_validity_description": null, "document_chembl_id": "CHEMBL1133753", "document_journal": "J Med Chem", "document_year": 2000, "ligand_efficiency": null, "molecule_chembl_id": "CHEMBL462018", "molecule_pref_name": "TRICIRIBINE PHOSPHATE", "parent_molecule_chembl_id": "CHEMBL462018", "pchembl_value": "4.72", "potential_duplicate": 0, "qudt_units": "http://www.openphacts.org/units/Nanomolar", "record_id": 146494, "relation": "=", "src_id": 1, "standard_flag": 1, "standard_relation": "=", "standard_text_value": null, "standard_type": "IC50", "standard_units": "nM", "standard_upper_value": null, "standard_value": "19000.0", "target_chembl_id": "CHEMBL614071", "target_organism": "Homo sapiens", "target_pref_name": "HFF", "target_tax_id": "9606", "text_value": null, "toid": null, "type": "IC50", "units": "uM", "uo_units": "UO_0000065", "upper_value": null, "value": "19.0"}, {"action_type": null, "activity_comment": null, "activity_id": 1080198, "activity_properties": [], "assay_chembl_id": "CHEMBL653805", "assay_description": "Visual cytotoxicity was scored on CEM-SS cells", "assay_type": "F", "assay_variant_accession": null, "assay_variant_mutation": null, "bao_endpoint": "BAO_0000190", "bao_format": "BAO_0000219", "bao_label": "cell-based format", "canonical_smiles": "CN1N=C(N)c2cn([C@@H]3O[C@H](COP(=O)(O)O)[C@@H](O)[C@H]3O)c3ncnc1c23", "data_validity_comment": null, "data_validity_description": null, "document_chembl_id": "CHEMBL1133753", "document_journal": "J Med Chem", "document_year": 2000, "ligand_efficiency": null, "molecule_chembl_id": "CHEMBL462018", "molecule_pref_name": "TRICIRIBINE PHOSPHATE", "parent_molecule_chembl_id": "CHEMBL462018", "pchembl_value": null, "potential_duplicate": 0, "qudt_units": "http://www.openphacts.org/units/Nanomolar", "record_id": 146494, "relation": ">", "src_id": 1, "standard_flag": 1, "standard_relation": ">", "standard_text_value": null, "standard_type": "IC50", "standard_units": "nM", "standard_upper_value": null, "standard_value": "1000.0", "target_chembl_id": "CHEMBL614548", "target_organism": "Homo sapiens", "target_pref_name": "CEM-SS", "target_tax_id": "9606", "text_value": null, "toid": null, "type": "IC50", "units": "uM", "uo_units": "UO_0000065", "upper_value": null, "value": "1.0"}, {"action_type": null, "activity_comment": "Not Active", "activity_id": 2591903, "activity_properties": [], "assay_chembl_id": "CHEMBL965578", "assay_description": "Inhibition of mouse brain MAOA", "assay_type": "B", "assay_variant_accession": null, "assay_variant_mutation": null, "bao_endpoint": "BAO_0000375", "bao_format": "BAO_0000019", "bao_label": "assay format", "canonical_smiles": "CN1N=C(N)c2cn([C@@H]3O[C@H](COP(=O)(O)O)[C@@H](O)[C@H]3O)c3ncnc1c23", "data_validity_comment": null, "data_validity_description": null, "document_chembl_id": "CHEMBL1152129", "document_journal": "J Med Chem", "document_year": 2008, "ligand_efficiency": null, "molecule_chembl_id": "CHEMBL462018", "molecule_pref_name": "TRICIRIBINE PHOSPHATE", "parent_molecule_chembl_id": "CHEMBL462018", "pchembl_value": null, "potential_duplicate": 0, "qudt_units": null, "record_id": 724487, "relation": null, "src_id": 1, "standard_flag": 0, "standard_relation": null, "standard_text_value": null, "standard_type": "Activity", "standard_units": null, "standard_upper_value": null, "standard_value": null, "target_chembl_id": "CHEMBL3681", "target_organism": "Mus musculus", "target_pref_name": "Amine oxidase [flavin-containing] A", "target_tax_id": "10090", "text_value": null, "toid": null, "type": "Activity", "units": null, "uo_units": null, "upper_value": null, "value": null}, {"action_type": null, "activity_comment": "Not Active", "activity_id": 2591916, "activity_properties": [], "assay_chembl_id": "CHEMBL965582", "assay_description": "Inhibition of bovine brain MAOA", "assay_type": "B", "assay_variant_accession": null, "assay_variant_mutation": null, "bao_endpoint": "BAO_0000375", "bao_format": "BAO_0000019", "bao_label": "assay format", "canonical_smiles": "CN1N=C(N)c2cn([C@@H]3O[C@H](COP(=O)(O)O)[C@@H](O)[C@H]3O)c3ncnc1c23", "data_validity_comment": null, "data_validity_description": null, "document_chembl_id": "CHEMBL1152129", "document_journal": "J Med Chem", "document_year": 2008, "ligand_efficiency": null, "molecule_chembl_id": "CHEMBL462018", "molecule_pref_name": "TRICIRIBINE PHOSPHATE", "parent_molecule_chembl_id": "CHEMBL462018", "pchembl_value": null, "potential_duplicate": 0, "qudt_units": null, "record_id": 724487, "relation": null, "src_id": 1, "standard_flag": 0, "standard_relation": null, "standard_text_value": null, "standard_type": "Activity", "standard_units": null, "standard_upper_value": null, "standard_value": null, "target_chembl_id": "CHEMBL3254", "target_organism": "Bos taurus", "target_pref_name": "Amine oxidase [flavin-containing] A", "target_tax_id": "9913", "text_value": null, "toid": null, "type": "Activity", "units": null, "uo_units": null, "upper_value": null, "value": null}, {"action_type": null, "activity_comment": "Not Active", "activity_id": 2592000, "activity_properties": [], "assay_chembl_id": "CHEMBL965584", "assay_description": "Inhibition of bovine brain MAOB", "assay_type": "B", "assay_variant_accession": null, "assay_variant_mutation": null, "bao_endpoint": "BAO_0000375", "bao_format": "BAO_0000019", "bao_label": "assay format", "canonical_smiles": "CN1N=C(N)c2cn([C@@H]3O[C@H](COP(=O)(O)O)[C@@H](O)[C@H]3O)c3ncnc1c23", "data_validity_comment": null, "data_validity_description": null, "document_chembl_id": "CHEMBL1152129", "document_journal": "J Med Chem", "document_year": 2008, "ligand_efficiency": null, "molecule_chembl_id": "CHEMBL462018", "molecule_pref_name": "TRICIRIBINE PHOSPHATE", "parent_molecule_chembl_id": "CHEMBL462018", "pchembl_value": null, "potential_duplicate": 0, "qudt_units": null, "record_id": 724487, "relation": null, "src_id": 1, "standard_flag": 0, "standard_relation": null, "standard_text_value": null, "standard_type": "Activity", "standard_units": null, "standard_upper_value": null, "standard_value": null, "target_chembl_id": "CHEMBL2756", "target_organism": "Bos taurus", "target_pref_name": "Amine oxidase [flavin-containing] B", "target_tax_id": "9913", "text_value": null, "toid": null, "type": "Activity", "units": null, "uo_units": null, "upper_value": null, "value": null}, {"action_type": null, "activity_comment": "Not Active", "activity_id": 6320513, "activity_properties": [], "assay_chembl_id": "CHEMBL1817386", "assay_description": "Activity of recombinant human ADAL1 expressed in Escherichia coli by UV-spectrophotometry", "assay_type": "B", "assay_variant_accession": null, "assay_variant_mutation": null, "bao_endpoint": "BAO_0000375", "bao_format": "BAO_0000019", "bao_label": "assay format", "canonical_smiles": "CN1N=C(N)c2cn([C@@H]3O[C@H](COP(=O)(O)O)[C@@H](O)[C@H]3O)c3ncnc1c23", "data_validity_comment": null, "data_validity_description": null, "document_chembl_id": "CHEMBL1811779", "document_journal": "J Med Chem", "document_year": 2011, "ligand_efficiency": null, "molecule_chembl_id": "CHEMBL462018", "molecule_pref_name": "TRICIRIBINE PHOSPHATE", "parent_molecule_chembl_id": "CHEMBL462018", "pchembl_value": null, "potential_duplicate": 0, "qudt_units": null, "record_id": 1446041, "relation": null, "src_id": 1, "standard_flag": 0, "standard_relation": null, "standard_text_value": null, "standard_type": "Activity", "standard_units": null, "standard_upper_value": null, "standard_value": null, "target_chembl_id": "CHEMBL1795150", "target_organism": "Homo sapiens", "target_pref_name": "Adenosine deaminase-like protein", "target_tax_id": "9606", "text_value": null, "toid": null, "type": "Activity", "units": null, "uo_units": null, "upper_value": null, "value": null}, {"action_type": null, "activity_comment": null, "activity_id": 15691296, "activity_properties": [], "assay_chembl_id": "CHEMBL3611388", "assay_description": "Antiviral activity against HIV2 by XTT assay", "assay_type": "F", "assay_variant_accession": null, "assay_variant_mutation": null, "bao_endpoint": "BAO_0000190", "bao_format": "BAO_0000218", "bao_label": "organism-based format", "canonical_smiles": "CN1N=C(N)c2cn([C@@H]3O[C@H](COP(=O)(O)O)[C@@H](O)[C@H]3O)c3ncnc1c23", "data_validity_comment": null, "data_validity_description": null, "document_chembl_id": "CHEMBL3608235", "document_journal": "Bioorg Med Chem", "document_year": 2015, "ligand_efficiency": null, "molecule_chembl_id": "CHEMBL462018", "molecule_pref_name": "TRICIRIBINE PHOSPHATE", "parent_molecule_chembl_id": "CHEMBL462018", "pchembl_value": "7.70", "potential_duplicate": 0, "qudt_units": "http://www.openphacts.org/units/Nanomolar", "record_id": 2496310, "relation": "=", "src_id": 1, "standard_flag": 1, "standard_relation": "=", "standard_text_value": null, "standard_type": "IC50", "standard_units": "nM", "standard_upper_value": null, "standard_value": "20.0", "target_chembl_id": "CHEMBL380", "target_organism": "Human immunodeficiency virus 2", "target_pref_name": "Human immunodeficiency virus 2", "target_tax_id": "11709", "text_value": null, "toid": null, "type": "IC50", "units": "uM", "uo_units": "UO_0000065", "upper_value": null, "value": "0.02"}, {"action_type": null, "activity_comment": null, "activity_id": 15691297, "activity_properties": [], "assay_chembl_id": "CHEMBL3611387", "assay_description": "Antiviral activity against HIV1 by XTT assay", "assay_type": "F", "assay_variant_accession": null, "assay_variant_mutation": null, "bao_endpoint": "BAO_0000190", "bao_format": "BAO_0000218", "bao_label": "organism-based format", "canonical_smiles": "CN1N=C(N)c2cn([C@@H]3O[C@H](COP(=O)(O)O)[C@@H](O)[C@H]3O)c3ncnc1c23", "data_validity_comment": null, "data_validity_description": null, "document_chembl_id": "CHEMBL3608235", "document_journal": "Bioorg Med Chem", "document_year": 2015, "ligand_efficiency": null, "molecule_chembl_id": "CHEMBL462018", "molecule_pref_name": "TRICIRIBINE PHOSPHATE", "parent_molecule_chembl_id": "CHEMBL462018", "pchembl_value": "7.70", "potential_duplicate": 0, "qudt_units": "http://www.openphacts.org/units/Nanomolar", "record_id": 2496310, "relation": "=", "src_id": 1, "standard_flag": 1, "standard_relation": "=", "standard_text_value": null, "standard_type": "IC50", "standard_units": "nM", "standard_upper_value": null, "standard_value": "20.0", "target_chembl_id": "CHEMBL378", "target_organism": "Human immunodeficiency virus 1", "target_pref_name": "Human immunodeficiency virus 1", "target_tax_id": "11676", "text_value": null, "toid": null, "type": "IC50", "units": "uM", "uo_units": "UO_0000065", "upper_value": null, "value": "0.02"}, {"action_type": null, "activity_comment": null, "activity_id": 15691300, "activity_properties": [], "assay_chembl_id": "CHEMBL3611249", "assay_description": "Antiviral activity against HIV by syncytial plaque assay", "assay_type": "F", "assay_variant_accession": null, "assay_variant_mutation": null, "bao_endpoint": "BAO_0000190", "bao_format": "BAO_0000218", "bao_label": "organism-based format", "canonical_smiles": "CN1N=C(N)c2cn([C@@H]3O[C@H](COP(=O)(O)O)[C@@H](O)[C@H]3O)c3ncnc1c23", "data_validity_comment": null, "data_validity_description": null, "document_chembl_id": "CHEMBL3608235", "document_journal": "Bioorg Med Chem", "document_year": 2015, "ligand_efficiency": null, "molecule_chembl_id": "CHEMBL462018", "molecule_pref_name": "TRICIRIBINE PHOSPHATE", "parent_molecule_chembl_id": "CHEMBL462018", "pchembl_value": "8.00", "potential_duplicate": 0, "qudt_units": "http://www.openphacts.org/units/Nanomolar", "record_id": 2496310, "relation": "=", "src_id": 1, "standard_flag": 1, "standard_relation": "=", "standard_text_value": null, "standard_type": "IC50", "standard_units": "nM", "standard_upper_value": null, "standard_value": "10.0", "target_chembl_id": "CHEMBL613758", "target_organism": "Human immunodeficiency virus", "target_pref_name": "Human immunodeficiency virus", "target_tax_id": "12721", "text_value": null, "toid": null, "type": "IC50", "units": "uM", "uo_units": "UO_0000065", "upper_value": null, "value": "0.01"}], "page_meta": {"limit": 20, "next": "/chembl/api/data/activity.json?limit=20&offset=20&molecule_chembl_id=CHEMBL462018", "offset": 0, "previous": null, "total_count": 294}}