{"activities": [{"action_type": null, "activity_comment": null, "activity_id": 2282787, "activity_properties": [], "assay_chembl_id": "CHEMBL1018878", "assay_description": "Antioxidant activity assessed as DPPH radical scavenging activity after 30 mins by microplate reader assay", "assay_type": "F", "assay_variant_accession": null, "assay_variant_mutation": null, "bao_endpoint": "BAO_0000190", "bao_format": "BAO_0000019", "bao_label": "assay format", "canonical_smiles": "Oc1ccc(CC[C@@H](O)C[C@H](O)CCc2ccc(O)cc2)cc1", "data_validity_comment": "Outside typical range", "data_validity_description": "Values for this activity type are unusually large/small, so may not be accurate", "document_chembl_id": "CHEMBL1153410", "document_journal": "Bioorg Med Chem", "document_year": 2009, "ligand_efficiency": null, "molecule_chembl_id": "CHEMBL474475", "molecule_pref_name": "(+)-HANNOKINOL", "parent_molecule_chembl_id": "CHEMBL474475", "pchembl_value": null, "potential_duplicate": 0, "qudt_units": "http://www.openphacts.org/units/MicrogramPerMilliliter", "record_id": 753664, "relation": ">", "src_id": 1, "standard_flag": 1, "standard_relation": ">", "standard_text_value": null, "standard_type": "IC50", "standard_units": "ug.mL-1", "standard_upper_value": null, "standard_value": "100.0", "target_chembl_id": "CHEMBL613712", "target_organism": null, "target_pref_name": "Radical scavenging activity", "target_tax_id": null, "text_value": null, "toid": null, "type": "IC50", "units": "ug ml-1", "uo_units": "UO_0000274", "upper_value": null, "value": "100.0"}, {"action_type": null, "activity_comment": null, "activity_id": 2282795, "activity_properties": [], "assay_chembl_id": "CHEMBL1018879", "assay_description": "Antioxidant activity assessed as superoxide radical scavenging activity after 20 mins by NBT reduction assay", "assay_type": "F", "assay_variant_accession": null, "assay_variant_mutation": null, "bao_endpoint": "BAO_0000190", "bao_format": "BAO_0000019", "bao_label": "assay format", "canonical_smiles": "Oc1ccc(CC[C@@H](O)C[C@H](O)CCc2ccc(O)cc2)cc1", "data_validity_comment": "Outside typical range", "data_validity_description": "Values for this activity type are unusually large/small, so may not be accurate", "document_chembl_id": "CHEMBL1153410", "document_journal": "Bioorg Med Chem", "document_year": 2009, "ligand_efficiency": null, "molecule_chembl_id": "CHEMBL474475", "molecule_pref_name": "(+)-HANNOKINOL", "parent_molecule_chembl_id": "CHEMBL474475", "pchembl_value": null, "potential_duplicate": 0, "qudt_units": "http://www.openphacts.org/units/MicrogramPerMilliliter", "record_id": 753664, "relation": ">", "src_id": 1, "standard_flag": 1, "standard_relation": ">", "standard_text_value": null, "standard_type": "IC50", "standard_units": "ug.mL-1", "standard_upper_value": null, "standard_value": "100.0", "target_chembl_id": "CHEMBL3879801", "target_organism": null, "target_pref_name": "NON-PROTEIN TARGET", "target_tax_id": null, "text_value": null, "toid": null, "type": "IC50", "units": "ug ml-1", "uo_units": "UO_0000274", "upper_value": null, "value": "100.0"}, {"action_type": null, "activity_comment": null, "activity_id": 2417752, "activity_properties": [], "assay_chembl_id": "CHEMBL1018880", "assay_description": "Inhibition of ovine COX1 by colorimetric assay", "assay_type": "B", "assay_variant_accession": null, "assay_variant_mutation": null, "bao_endpoint": "BAO_0000190", "bao_format": "BAO_0000357", "bao_label": "single protein format", "canonical_smiles": "Oc1ccc(CC[C@@H](O)C[C@H](O)CCc2ccc(O)cc2)cc1", "data_validity_comment": "Outside typical range", "data_validity_description": "Values for this activity type are unusually large/small, so may not be accurate", "document_chembl_id": "CHEMBL1153410", "document_journal": "Bioorg Med Chem", "document_year": 2009, "ligand_efficiency": null, "molecule_chembl_id": "CHEMBL474475", "molecule_pref_name": "(+)-HANNOKINOL", "parent_molecule_chembl_id": "CHEMBL474475", "pchembl_value": null, "potential_duplicate": 0, "qudt_units": "http://www.openphacts.org/units/MicrogramPerMilliliter", "record_id": 753664, "relation": ">", "src_id": 1, "standard_flag": 1, "standard_relation": ">", "standard_text_value": null, "standard_type": "IC50", "standard_units": "ug.mL-1", "standard_upper_value": null, "standard_value": "100.0", "target_chembl_id": "CHEMBL2949", "target_organism": "Ovis aries", "target_pref_name": "Prostaglandin G/H synthase 1", "target_tax_id": "9940", "text_value": null, "toid": null, "type": "IC50", "units": "ug ml-1", "uo_units": "UO_0000274", "upper_value": null, "value": "100.0"}, {"action_type": null, "activity_comment": null, "activity_id": 2417761, "activity_properties": [], "assay_chembl_id": "CHEMBL1018881", "assay_description": "Inhibition of ovine COX2 by colorimetric assay", "assay_type": "B", "assay_variant_accession": null, "assay_variant_mutation": null, "bao_endpoint": "BAO_0000190", "bao_format": "BAO_0000357", "bao_label": "single protein format", "canonical_smiles": "Oc1ccc(CC[C@@H](O)C[C@H](O)CCc2ccc(O)cc2)cc1", "data_validity_comment": "Outside typical range", "data_validity_description": "Values for this activity type are unusually large/small, so may not be accurate", "document_chembl_id": "CHEMBL1153410", "document_journal": "Bioorg Med Chem", "document_year": 2009, "ligand_efficiency": null, "molecule_chembl_id": "CHEMBL474475", "molecule_pref_name": "(+)-HANNOKINOL", "parent_molecule_chembl_id": "CHEMBL474475", "pchembl_value": null, "potential_duplicate": 0, "qudt_units": "http://www.openphacts.org/units/MicrogramPerMilliliter", "record_id": 753664, "relation": ">", "src_id": 1, "standard_flag": 1, "standard_relation": ">", "standard_text_value": null, "standard_type": "IC50", "standard_units": "ug.mL-1", "standard_upper_value": null, "standard_value": "100.0", "target_chembl_id": "CHEMBL4102", "target_organism": "Ovis aries", "target_pref_name": "Prostaglandin G/H synthase 2", "target_tax_id": "9940", "text_value": null, "toid": null, "type": "IC50", "units": "ug ml-1", "uo_units": "UO_0000274", "upper_value": null, "value": "100.0"}, {"action_type": null, "activity_comment": null, "activity_id": 2430170, "activity_properties": [], "assay_chembl_id": "CHEMBL1021668", "assay_description": "Cytotoxicity against human HL60 cells after 72 hrs by MTT assay", "assay_type": "F", "assay_variant_accession": null, "assay_variant_mutation": null, "bao_endpoint": "BAO_0000190", "bao_format": "BAO_0000219", "bao_label": "cell-based format", "canonical_smiles": "Oc1ccc(CC[C@@H](O)C[C@H](O)CCc2ccc(O)cc2)cc1", "data_validity_comment": null, "data_validity_description": null, "document_chembl_id": "CHEMBL1159330", "document_journal": "J Nat Prod", "document_year": 2002, "ligand_efficiency": null, "molecule_chembl_id": "CHEMBL474475", "molecule_pref_name": "(+)-HANNOKINOL", "parent_molecule_chembl_id": "CHEMBL474475", "pchembl_value": null, "potential_duplicate": 0, "qudt_units": "http://www.openphacts.org/units/MicrogramPerMilliliter", "record_id": 788087, "relation": ">", "src_id": 1, "standard_flag": 1, "standard_relation": ">", "standard_text_value": null, "standard_type": "IC50", "standard_units": "ug.mL-1", "standard_upper_value": null, "standard_value": "10.0", "target_chembl_id": "CHEMBL383", "target_organism": "Homo sapiens", "target_pref_name": "HL-60", "target_tax_id": "9606", "text_value": null, "toid": null, "type": "IC50", "units": "ug ml-1", "uo_units": "UO_0000274", "upper_value": null, "value": "10.0"}, {"action_type": null, "activity_comment": null, "activity_id": 2431172, "activity_properties": [], "assay_chembl_id": "CHEMBL1021669", "assay_description": "Cytotoxicity against human HSC2 cells by MTT assay", "assay_type": "F", "assay_variant_accession": null, "assay_variant_mutation": null, "bao_endpoint": "BAO_0000190", "bao_format": "BAO_0000219", "bao_label": "cell-based format", "canonical_smiles": "Oc1ccc(CC[C@@H](O)C[C@H](O)CCc2ccc(O)cc2)cc1", "data_validity_comment": "Outside typical range", "data_validity_description": "Values for this activity type are unusually large/small, so may not be accurate", "document_chembl_id": "CHEMBL1159330", "document_journal": "J Nat Prod", "document_year": 2002, "ligand_efficiency": null, "molecule_chembl_id": "CHEMBL474475", "molecule_pref_name": "(+)-HANNOKINOL", "parent_molecule_chembl_id": "CHEMBL474475", "pchembl_value": null, "potential_duplicate": 0, "qudt_units": "http://www.openphacts.org/units/MicrogramPerMilliliter", "record_id": 788087, "relation": "=", "src_id": 1, "standard_flag": 1, "standard_relation": "=", "standard_text_value": null, "standard_type": "IC50", "standard_units": "ug.mL-1", "standard_upper_value": null, "standard_value": "231.0", "target_chembl_id": "CHEMBL1075468", "target_organism": "Homo sapiens", "target_pref_name": "HSC-2", "target_tax_id": "9606", "text_value": null, "toid": null, "type": "IC50", "units": "ug ml-1", "uo_units": "UO_0000274", "upper_value": null, "value": "231.0"}, {"action_type": null, "activity_comment": null, "activity_id": 2431188, "activity_properties": [], "assay_chembl_id": "CHEMBL1021670", "assay_description": "Cytotoxicity against HGF by MTT assay", "assay_type": "A", "assay_variant_accession": null, "assay_variant_mutation": null, "bao_endpoint": "BAO_0000190", "bao_format": "BAO_0000219", "bao_label": "cell-based format", "canonical_smiles": "Oc1ccc(CC[C@@H](O)C[C@H](O)CCc2ccc(O)cc2)cc1", "data_validity_comment": "Outside typical range", "data_validity_description": "Values for this activity type are unusually large/small, so may not be accurate", "document_chembl_id": "CHEMBL1159330", "document_journal": "J Nat Prod", "document_year": 2002, "ligand_efficiency": null, "molecule_chembl_id": "CHEMBL474475", "molecule_pref_name": "(+)-HANNOKINOL", "parent_molecule_chembl_id": "CHEMBL474475", "pchembl_value": null, "potential_duplicate": 0, "qudt_units": "http://www.openphacts.org/units/MicrogramPerMilliliter", "record_id": 788087, "relation": "=", "src_id": 1, "standard_flag": 1, "standard_relation": "=", "standard_text_value": null, "standard_type": "IC50", "standard_units": "ug.mL-1", "standard_upper_value": null, "standard_value": "177.0", "target_chembl_id": "CHEMBL612558", "target_organism": null, "target_pref_name": "ADMET", "target_tax_id": null, "text_value": null, "toid": null, "type": "IC50", "units": "ug ml-1", "uo_units": "UO_0000274", "upper_value": null, "value": "177.0"}, {"action_type": null, "activity_comment": null, "activity_id": 6348983, "activity_properties": [], "assay_chembl_id": "CHEMBL1826290", "assay_description": "Inhibition of LPS-induced nitric oxide production in mouse RAW264.7 cells after 24 hrs by Griess reaction based spectrophotometry", "assay_type": "F", "assay_variant_accession": null, "assay_variant_mutation": null, "bao_endpoint": "BAO_0000190", "bao_format": "BAO_0000219", "bao_label": "cell-based format", "canonical_smiles": "Oc1ccc(CC[C@@H](O)C[C@H](O)CCc2ccc(O)cc2)cc1", "data_validity_comment": null, "data_validity_description": null, "document_chembl_id": "CHEMBL1821704", "document_journal": "Bioorg Med Chem Lett", "document_year": 2011, "ligand_efficiency": null, "molecule_chembl_id": "CHEMBL474475", "molecule_pref_name": "(+)-HANNOKINOL", "parent_molecule_chembl_id": "CHEMBL474475", "pchembl_value": null, "potential_duplicate": 0, "qudt_units": "http://www.openphacts.org/units/Nanomolar", "record_id": 1456012, "relation": ">", "src_id": 1, "standard_flag": 1, "standard_relation": ">", "standard_text_value": null, "standard_type": "IC50", "standard_units": "nM", "standard_upper_value": null, "standard_value": "100000.0", "target_chembl_id": "CHEMBL612557", "target_organism": "Mus musculus", "target_pref_name": "RAW264.7", "target_tax_id": "10090", "text_value": null, "toid": null, "type": "IC50", "units": "uM", "uo_units": "UO_0000065", "upper_value": null, "value": "100.0"}, {"action_type": null, "activity_comment": "Non-toxic", "activity_id": 6349006, "activity_properties": [], "assay_chembl_id": "CHEMBL1826291", "assay_description": "Cytotoxicity against mouse RAW264.7 cells at 100 uM after 24 hrs by MTT assay", "assay_type": "A", "assay_variant_accession": null, "assay_variant_mutation": null, "bao_endpoint": "BAO_0000375", "bao_format": "BAO_0000219", "bao_label": "cell-based format", "canonical_smiles": "Oc1ccc(CC[C@@H](O)C[C@H](O)CCc2ccc(O)cc2)cc1", "data_validity_comment": null, "data_validity_description": null, "document_chembl_id": "CHEMBL1821704", "document_journal": "Bioorg Med Chem Lett", "document_year": 2011, "ligand_efficiency": null, "molecule_chembl_id": "CHEMBL474475", "molecule_pref_name": "(+)-HANNOKINOL", "parent_molecule_chembl_id": "CHEMBL474475", "pchembl_value": null, "potential_duplicate": 0, "qudt_units": null, "record_id": 1456012, "relation": null, "src_id": 1, "standard_flag": 0, "standard_relation": null, "standard_text_value": null, "standard_type": "Activity", "standard_units": null, "standard_upper_value": null, "standard_value": null, "target_chembl_id": "CHEMBL612557", "target_organism": "Mus musculus", "target_pref_name": "RAW264.7", "target_tax_id": "10090", "text_value": null, "toid": null, "type": "Activity", "units": null, "uo_units": null, "upper_value": null, "value": null}, {"action_type": null, "activity_comment": "Toxic", "activity_id": 12719099, "activity_properties": [], "assay_chembl_id": "CHEMBL2352637", "assay_description": "Cytotoxicity against mouse 3T3L1 cells at 100 uM", "assay_type": "A", "assay_variant_accession": null, "assay_variant_mutation": null, "bao_endpoint": "BAO_0000375", "bao_format": "BAO_0000219", "bao_label": "cell-based format", "canonical_smiles": "Oc1ccc(CC[C@@H](O)C[C@H](O)CCc2ccc(O)cc2)cc1", "data_validity_comment": null, "data_validity_description": null, "document_chembl_id": "CHEMBL2346659", "document_journal": "Bioorg Med Chem Lett", "document_year": 2013, "ligand_efficiency": null, "molecule_chembl_id": "CHEMBL474475", "molecule_pref_name": "(+)-HANNOKINOL", "parent_molecule_chembl_id": "CHEMBL474475", "pchembl_value": null, "potential_duplicate": 0, "qudt_units": null, "record_id": 1874479, "relation": null, "src_id": 1, "standard_flag": 0, "standard_relation": null, "standard_text_value": null, "standard_type": "Activity", "standard_units": null, "standard_upper_value": null, "standard_value": null, "target_chembl_id": "CHEMBL614510", "target_organism": "Mus musculus", "target_pref_name": "3T3-L1", "target_tax_id": "10090", "text_value": null, "toid": null, "type": "Activity", "units": null, "uo_units": null, "upper_value": null, "value": null}, {"action_type": null, "activity_comment": null, "activity_id": 12719132, "activity_properties": [], "assay_chembl_id": "CHEMBL2352642", "assay_description": "Inhibition of differentiation of mouse 3T3L1 cells assessed as lipid accumulation at 50 uM after 8 days by using Oil Red O staining by spectrophotometry relative to control", "assay_type": "F", "assay_variant_accession": null, "assay_variant_mutation": null, "bao_endpoint": "BAO_0001103", "bao_format": "BAO_0000219", "bao_label": "cell-based format", "canonical_smiles": "Oc1ccc(CC[C@@H](O)C[C@H](O)CCc2ccc(O)cc2)cc1", "data_validity_comment": null, "data_validity_description": null, "document_chembl_id": "CHEMBL2346659", "document_journal": "Bioorg Med Chem Lett", "document_year": 2013, "ligand_efficiency": null, "molecule_chembl_id": "CHEMBL474475", "molecule_pref_name": "(+)-HANNOKINOL", "parent_molecule_chembl_id": "CHEMBL474475", "pchembl_value": null, "potential_duplicate": 0, "qudt_units": "http://qudt.org/vocab/unit#Percent", "record_id": 1874479, "relation": "=", "src_id": 1, "standard_flag": 0, "standard_relation": "=", "standard_text_value": null, "standard_type": "Activity", "standard_units": "%", "standard_upper_value": null, "standard_value": "61.2", "target_chembl_id": "CHEMBL614510", "target_organism": "Mus musculus", "target_pref_name": "3T3-L1", "target_tax_id": "10090", "text_value": null, "toid": null, "type": "Activity", "units": "%", "uo_units": "UO_0000187", "upper_value": null, "value": "61.2"}, {"action_type": null, "activity_comment": null, "activity_id": 12719151, "activity_properties": [], "assay_chembl_id": "CHEMBL2352643", "assay_description": "Inhibition of differentiation of mouse 3T3L1 cells assessed as lipid accumulation at 10 uM after 8 days by using Oil Red O staining by spectrophotometry relative to control", "assay_type": "F", "assay_variant_accession": null, "assay_variant_mutation": null, "bao_endpoint": "BAO_0001103", "bao_format": "BAO_0000219", "bao_label": "cell-based format", "canonical_smiles": "Oc1ccc(CC[C@@H](O)C[C@H](O)CCc2ccc(O)cc2)cc1", "data_validity_comment": null, "data_validity_description": null, "document_chembl_id": "CHEMBL2346659", "document_journal": "Bioorg Med Chem Lett", "document_year": 2013, "ligand_efficiency": null, "molecule_chembl_id": "CHEMBL474475", "molecule_pref_name": "(+)-HANNOKINOL", "parent_molecule_chembl_id": "CHEMBL474475", "pchembl_value": null, "potential_duplicate": 0, "qudt_units": "http://qudt.org/vocab/unit#Percent", "record_id": 1874479, "relation": "=", "src_id": 1, "standard_flag": 0, "standard_relation": "=", "standard_text_value": null, "standard_type": "Activity", "standard_units": "%", "standard_upper_value": null, "standard_value": "90.2", "target_chembl_id": "CHEMBL614510", "target_organism": "Mus musculus", "target_pref_name": "3T3-L1", "target_tax_id": "10090", "text_value": null, "toid": null, "type": "Activity", "units": "%", "uo_units": "UO_0000187", "upper_value": null, "value": "90.2"}, {"action_type": null, "activity_comment": null, "activity_id": 13440235, "activity_properties": [], "assay_chembl_id": "CHEMBL2427904", "assay_description": "Inhibition of mushroom tyrosinase at 10 uM", "assay_type": "B", "assay_variant_accession": null, "assay_variant_mutation": null, "bao_endpoint": "BAO_0000201", "bao_format": "BAO_0000357", "bao_label": "single protein format", "canonical_smiles": "Oc1ccc(CC[C@@H](O)C[C@H](O)CCc2ccc(O)cc2)cc1", "data_validity_comment": null, "data_validity_description": null, "document_chembl_id": "CHEMBL2424597", "document_journal": "Bioorg Med Chem Lett", "document_year": 2013, "ligand_efficiency": null, "molecule_chembl_id": "CHEMBL474475", "molecule_pref_name": "(+)-HANNOKINOL", "parent_molecule_chembl_id": "CHEMBL474475", "pchembl_value": null, "potential_duplicate": 0, "qudt_units": "http://qudt.org/vocab/unit#Percent", "record_id": 1919306, "relation": "<", "src_id": 1, "standard_flag": 1, "standard_relation": "<", "standard_text_value": null, "standard_type": "Inhibition", "standard_units": "%", "standard_upper_value": null, "standard_value": "17.0", "target_chembl_id": "CHEMBL3318", "target_organism": "Agaricus bisporus", "target_pref_name": "Tyrosinase", "target_tax_id": "5341", "text_value": null, "toid": null, "type": "INH", "units": "%", "uo_units": "UO_0000187", "upper_value": null, "value": "17.0"}, {"action_type": null, "activity_comment": null, "activity_id": 13440250, "activity_properties": [], "assay_chembl_id": "CHEMBL2427905", "assay_description": "Cytotoxicity against mouse B16-4A5 cells assessed as cell viability at 10 uM after 70 hrs by WST-8 assay in presence of theophylline", "assay_type": "A", "assay_variant_accession": null, "assay_variant_mutation": null, "bao_endpoint": "BAO_0001103", "bao_format": "BAO_0000219", "bao_label": "cell-based format", "canonical_smiles": "Oc1ccc(CC[C@@H](O)C[C@H](O)CCc2ccc(O)cc2)cc1", "data_validity_comment": null, "data_validity_description": null, "document_chembl_id": "CHEMBL2424597", "document_journal": "Bioorg Med Chem Lett", "document_year": 2013, "ligand_efficiency": null, "molecule_chembl_id": "CHEMBL474475", "molecule_pref_name": "(+)-HANNOKINOL", "parent_molecule_chembl_id": "CHEMBL474475", "pchembl_value": null, "potential_duplicate": 0, "qudt_units": "http://qudt.org/vocab/unit#Percent", "record_id": 1919306, "relation": "=", "src_id": 1, "standard_flag": 0, "standard_relation": "=", "standard_text_value": null, "standard_type": "Activity", "standard_units": "%", "standard_upper_value": null, "standard_value": "92.3", "target_chembl_id": "CHEMBL612558", "target_organism": null, "target_pref_name": "ADMET", "target_tax_id": null, "text_value": null, "toid": null, "type": "Activity", "units": "%", "uo_units": "UO_0000187", "upper_value": null, "value": "92.3"}, {"action_type": null, "activity_comment": null, "activity_id": 13440265, "activity_properties": [], "assay_chembl_id": "CHEMBL2427906", "assay_description": "Cytotoxicity against mouse B16-4A5 cells assessed as cell viability at 3 uM after 70 hrs by WST-8 assay in presence of theophylline", "assay_type": "A", "assay_variant_accession": null, "assay_variant_mutation": null, "bao_endpoint": "BAO_0001103", "bao_format": "BAO_0000219", "bao_label": "cell-based format", "canonical_smiles": "Oc1ccc(CC[C@@H](O)C[C@H](O)CCc2ccc(O)cc2)cc1", "data_validity_comment": null, "data_validity_description": null, "document_chembl_id": "CHEMBL2424597", "document_journal": "Bioorg Med Chem Lett", "document_year": 2013, "ligand_efficiency": null, "molecule_chembl_id": "CHEMBL474475", "molecule_pref_name": "(+)-HANNOKINOL", "parent_molecule_chembl_id": "CHEMBL474475", "pchembl_value": null, "potential_duplicate": 0, "qudt_units": "http://qudt.org/vocab/unit#Percent", "record_id": 1919306, "relation": "=", "src_id": 1, "standard_flag": 0, "standard_relation": "=", "standard_text_value": null, "standard_type": "Activity", "standard_units": "%", "standard_upper_value": null, "standard_value": "95.2", "target_chembl_id": "CHEMBL612558", "target_organism": null, "target_pref_name": "ADMET", "target_tax_id": null, "text_value": null, "toid": null, "type": "Activity", "units": "%", "uo_units": "UO_0000187", "upper_value": null, "value": "95.2"}, {"action_type": null, "activity_comment": null, "activity_id": 13440277, "activity_properties": [], "assay_chembl_id": "CHEMBL2427907", "assay_description": "Antimelanogenic activity in mouse B16-4A5 cells assessed as inhibition of theophylline-induced melanin production after 72 hrs by spectrophotometry relative to control", "assay_type": "F", "assay_variant_accession": null, "assay_variant_mutation": null, "bao_endpoint": "BAO_0000190", "bao_format": "BAO_0000219", "bao_label": "cell-based format", "canonical_smiles": "Oc1ccc(CC[C@@H](O)C[C@H](O)CCc2ccc(O)cc2)cc1", "data_validity_comment": null, "data_validity_description": null, "document_chembl_id": "CHEMBL2424597", "document_journal": "Bioorg Med Chem Lett", "document_year": 2013, "ligand_efficiency": null, "molecule_chembl_id": "CHEMBL474475", "molecule_pref_name": "(+)-HANNOKINOL", "parent_molecule_chembl_id": "CHEMBL474475", "pchembl_value": null, "potential_duplicate": 0, "qudt_units": "http://www.openphacts.org/units/Nanomolar", "record_id": 1919306, "relation": ">", "src_id": 1, "standard_flag": 1, "standard_relation": ">", "standard_text_value": null, "standard_type": "IC50", "standard_units": "nM", "standard_upper_value": null, "standard_value": "10000.0", "target_chembl_id": "CHEMBL3879801", "target_organism": null, "target_pref_name": "NON-PROTEIN TARGET", "target_tax_id": null, "text_value": null, "toid": null, "type": "IC50", "units": "uM", "uo_units": "UO_0000065", "upper_value": null, "value": "10.0"}, {"action_type": null, "activity_comment": null, "activity_id": 13440289, "activity_properties": [], "assay_chembl_id": "CHEMBL2427908", "assay_description": "Antimelanogenic activity in mouse B16-4A5 cells assessed as inhibition of theophylline-induced melanin production at 10 uM after 72 hrs by spectrophotometry relative to control", "assay_type": "F", "assay_variant_accession": null, "assay_variant_mutation": null, "bao_endpoint": "BAO_0000201", "bao_format": "BAO_0000219", "bao_label": "cell-based format", "canonical_smiles": "Oc1ccc(CC[C@@H](O)C[C@H](O)CCc2ccc(O)cc2)cc1", "data_validity_comment": null, "data_validity_description": null, "document_chembl_id": "CHEMBL2424597", "document_journal": "Bioorg Med Chem Lett", "document_year": 2013, "ligand_efficiency": null, "molecule_chembl_id": "CHEMBL474475", "molecule_pref_name": "(+)-HANNOKINOL", "parent_molecule_chembl_id": "CHEMBL474475", "pchembl_value": null, "potential_duplicate": 0, "qudt_units": "http://qudt.org/vocab/unit#Percent", "record_id": 1919306, "relation": "=", "src_id": 1, "standard_flag": 1, "standard_relation": "=", "standard_text_value": null, "standard_type": "Inhibition", "standard_units": "%", "standard_upper_value": null, "standard_value": "21.9", "target_chembl_id": "CHEMBL3879801", "target_organism": null, "target_pref_name": "NON-PROTEIN TARGET", "target_tax_id": null, "text_value": null, "toid": null, "type": "INH", "units": "%", "uo_units": "UO_0000187", "upper_value": null, "value": "21.9"}, {"action_type": null, "activity_comment": null, "activity_id": 13440303, "activity_properties": [], "assay_chembl_id": "CHEMBL2427909", "assay_description": "Antimelanogenic activity in mouse B16-4A5 cells assessed as inhibition of theophylline-induced melanin production at 3 uM after 72 hrs by spectrophotometry relative to control", "assay_type": "F", "assay_variant_accession": null, "assay_variant_mutation": null, "bao_endpoint": "BAO_0000201", "bao_format": "BAO_0000219", "bao_label": "cell-based format", "canonical_smiles": "Oc1ccc(CC[C@@H](O)C[C@H](O)CCc2ccc(O)cc2)cc1", "data_validity_comment": null, "data_validity_description": null, "document_chembl_id": "CHEMBL2424597", "document_journal": "Bioorg Med Chem Lett", "document_year": 2013, "ligand_efficiency": null, "molecule_chembl_id": "CHEMBL474475", "molecule_pref_name": "(+)-HANNOKINOL", "parent_molecule_chembl_id": "CHEMBL474475", "pchembl_value": null, "potential_duplicate": 0, "qudt_units": "http://qudt.org/vocab/unit#Percent", "record_id": 1919306, "relation": "=", "src_id": 1, "standard_flag": 1, "standard_relation": "=", "standard_text_value": null, "standard_type": "Inhibition", "standard_units": "%", "standard_upper_value": null, "standard_value": "23.1", "target_chembl_id": "CHEMBL3879801", "target_organism": null, "target_pref_name": "NON-PROTEIN TARGET", "target_tax_id": null, "text_value": null, "toid": null, "type": "INH", "units": "%", "uo_units": "UO_0000187", "upper_value": null, "value": "23.1"}, {"action_type": null, "activity_comment": null, "activity_id": 13440318, "activity_properties": [], "assay_chembl_id": "CHEMBL2427910", "assay_description": "Antimelanogenic activity in mouse B16-4A5 cells assessed as inhibition of theophylline-induced melanin production at 1 uM after 72 hrs by spectrophotometry relative to control", "assay_type": "F", "assay_variant_accession": null, "assay_variant_mutation": null, "bao_endpoint": "BAO_0000201", "bao_format": "BAO_0000219", "bao_label": "cell-based format", "canonical_smiles": "Oc1ccc(CC[C@@H](O)C[C@H](O)CCc2ccc(O)cc2)cc1", "data_validity_comment": null, "data_validity_description": null, "document_chembl_id": "CHEMBL2424597", "document_journal": "Bioorg Med Chem Lett", "document_year": 2013, "ligand_efficiency": null, "molecule_chembl_id": "CHEMBL474475", "molecule_pref_name": "(+)-HANNOKINOL", "parent_molecule_chembl_id": "CHEMBL474475", "pchembl_value": null, "potential_duplicate": 0, "qudt_units": "http://qudt.org/vocab/unit#Percent", "record_id": 1919306, "relation": "=", "src_id": 1, "standard_flag": 1, "standard_relation": "=", "standard_text_value": null, "standard_type": "Inhibition", "standard_units": "%", "standard_upper_value": null, "standard_value": "15.7", "target_chembl_id": "CHEMBL3879801", "target_organism": null, "target_pref_name": "NON-PROTEIN TARGET", "target_tax_id": null, "text_value": null, "toid": null, "type": "INH", "units": "%", "uo_units": "UO_0000187", "upper_value": null, "value": "15.7"}, {"action_type": null, "activity_comment": null, "activity_id": 13440333, "activity_properties": [], "assay_chembl_id": "CHEMBL2427911", "assay_description": "Antimelanogenic activity in mouse B16-4A5 cells assessed as inhibition of theophylline-induced melanin production at 0.3 uM after 72 hrs by spectrophotometry relative to control", "assay_type": "F", "assay_variant_accession": null, "assay_variant_mutation": null, "bao_endpoint": "BAO_0000201", "bao_format": "BAO_0000219", "bao_label": "cell-based format", "canonical_smiles": "Oc1ccc(CC[C@@H](O)C[C@H](O)CCc2ccc(O)cc2)cc1", "data_validity_comment": null, "data_validity_description": null, "document_chembl_id": "CHEMBL2424597", "document_journal": "Bioorg Med Chem Lett", "document_year": 2013, "ligand_efficiency": null, "molecule_chembl_id": "CHEMBL474475", "molecule_pref_name": "(+)-HANNOKINOL", "parent_molecule_chembl_id": "CHEMBL474475", "pchembl_value": null, "potential_duplicate": 0, "qudt_units": "http://qudt.org/vocab/unit#Percent", "record_id": 1919306, "relation": "=", "src_id": 1, "standard_flag": 1, "standard_relation": "=", "standard_text_value": null, "standard_type": "Inhibition", "standard_units": "%", "standard_upper_value": null, "standard_value": "20.3", "target_chembl_id": "CHEMBL3879801", "target_organism": null, "target_pref_name": "NON-PROTEIN TARGET", "target_tax_id": null, "text_value": null, "toid": null, "type": "INH", "units": "%", "uo_units": "UO_0000187", "upper_value": null, "value": "20.3"}], "page_meta": {"limit": 20, "next": "/chembl/api/data/activity.json?limit=20&offset=20&molecule_chembl_id=CHEMBL474475", "offset": 0, "previous": null, "total_count": 26}}