{"molecules": [{"atc_classifications": ["L01XX05"], "availability_type": 1, "biotherapeutic": null, "black_box_warning": 1, "chemical_probe": 0, "chirality": 2, "cross_references": [{"xref_id": "hydroxyurea", "xref_name": "hydroxyurea", "xref_src": "DailyMed"}, {"xref_id": "human/EPAR/siklos", "xref_name": "siklos", "xref_src": "EMA"}, {"xref_id": "human/EPAR/xromi", "xref_name": "xromi", "xref_src": "EMA"}], "dosed_ingredient": true, "first_approval": 1967, "first_in_class": 0, "helm_notation": null, "inorganic_flag": 0, "max_phase": "4.0", "molecule_chembl_id": "CHEMBL467", "molecule_hierarchy": {"active_chembl_id": "CHEMBL467", "molecule_chembl_id": "CHEMBL467", "parent_chembl_id": "CHEMBL467"}, "molecule_properties": {"alogp": "-0.96", "aromatic_rings": 0, "full_molformula": "CH4N2O2", "full_mwt": "76.05", "hba": 2, "hbd": 3, "heavy_atoms": 5, "mw_freebase": "76.05", "np_likeness_score": "-0.32", "num_ro5_violations": 0, "psa": "75.35", "qed_weighted": "0.26", "ro3_pass": "N", "rtb": 0}, "molecule_structures": {"canonical_smiles": "NC(=O)NO", "molfile": "\n     RDKit          2D\n\n  5  4  0  0  0  0  0  0  0  0999 V2000\n    4.7667   -5.0000    0.0000 C   0  0  0  0  0  0  0  0  0  0  0  0\n    4.7667   -4.2917    0.0000 O   0  0  0  0  0  0  0  0  0  0  0  0\n    5.3792   -5.3542    0.0000 N   0  0  0  0  0  0  0  0  0  0  0  0\n    4.1500   -5.3542    0.0000 N   0  0  0  0  0  0  0  0  0  0  0  0\n    6.0000   -5.0000    0.0000 O   0  0  0  0  0  0  0  0  0  0  0  0\n  2  1  2  0\n  3  1  1  0\n  4  1  1  0\n  5  3  1  0\nM  END\n> <chembl_id>\nCHEMBL467\n\n> <chembl_pref_name>\nHYDROXYUREA", "standard_inchi": "InChI=1S/CH4N2O2/c2-1(4)3-5/h5H,(H3,2,3,4)", "standard_inchi_key": "VSNHCAURESNICA-UHFFFAOYSA-N"}, "molecule_synonyms": [{"molecule_synonym": "Droxia", "syn_type": "TRADE_NAME", "synonyms": "DROXIA"}, {"molecule_synonym": "Hidroxicarbamida", "syn_type": "INN_SPANISH", "synonyms": "HIDROXICARBAMIDA"}, {"molecule_synonym": "Hydrea", "syn_type": "TRADE_NAME", "synonyms": "HYDREA"}, {"molecule_synonym": "Hydroxycarbamide", "syn_type": "ATC", "synonyms": "HYDROXYCARBAMIDE"}, {"molecule_synonym": "Hydroxycarbamide", "syn_type": "BNF", "synonyms": "HYDROXYCARBAMIDE"}, {"molecule_synonym": "Hydroxycarbamide", "syn_type": "EMA", "synonyms": "HYDROXYCARBAMIDE"}, {"molecule_synonym": "Hydroxycarbamide", "syn_type": "INN", "synonyms": "HYDROXYCARBAMIDE"}, {"molecule_synonym": "Hydroxycarbamide", "syn_type": "JAN", "synonyms": "HYDROXYCARBAMIDE"}, {"molecule_synonym": "Hydroxycarbamide", "syn_type": "OTHER", "synonyms": "HYDROXYCARBAMIDE"}, {"molecule_synonym": "Hydroxyurea", "syn_type": "BAN", "synonyms": "HYDROXYUREA"}, {"molecule_synonym": "Hydroxyurea", "syn_type": "EMA", "synonyms": "HYDROXYUREA"}, {"molecule_synonym": "Hydroxyurea", "syn_type": "FDA", "synonyms": "HYDROXYUREA"}, {"molecule_synonym": "Hydroxyurea", "syn_type": "MERCK_INDEX", "synonyms": "HYDROXYUREA"}, {"molecule_synonym": "Hydroxyurea", "syn_type": "OTHER", "synonyms": "HYDROXYUREA"}, {"molecule_synonym": "Hydroxyurea", "syn_type": "TRADE_NAME", "synonyms": "HYDROXYUREA"}, {"molecule_synonym": "Hydroxyurea", "syn_type": "USAN", "synonyms": "HYDROXYUREA"}, {"molecule_synonym": "Hydroxyurea", "syn_type": "USP", "synonyms": "HYDROXYUREA"}, {"molecule_synonym": "NSC-32065", "syn_type": "RESEARCH_CODE", "synonyms": "NSC-32065"}, {"molecule_synonym": "Siklos", "syn_type": "TRADE_NAME", "synonyms": "SIKLOS"}, {"molecule_synonym": "SQ 1089", "syn_type": "RESEARCH_CODE", "synonyms": "SQ 1089"}, {"molecule_synonym": "SQ-1089", "syn_type": "RESEARCH_CODE", "synonyms": "SQ-1089"}, {"molecule_synonym": "Xromi", "syn_type": "OTHER", "synonyms": "XROMI"}, {"molecule_synonym": "Xromi", "syn_type": "TRADE_NAME", "synonyms": "XROMI"}], "molecule_type": "Small molecule", "natural_product": 1, "oral": true, "orphan": 0, "parenteral": false, "polymer_flag": 0, "pref_name": "HYDROXYUREA", "prodrug": 0, "score": 30.0, "structure_type": "MOL", "therapeutic_flag": true, "topical": false, "usan_stem": null, "usan_stem_definition": null, "usan_substem": null, "usan_year": 1965, "veterinary": 0, "withdrawn_flag": false}, {"atc_classifications": [], "availability_type": -1, "biotherapeutic": null, "black_box_warning": 0, "chemical_probe": 0, "chirality": -1, "cross_references": [], "dosed_ingredient": false, "first_approval": null, "first_in_class": -1, "helm_notation": null, "inorganic_flag": -1, "max_phase": null, "molecule_chembl_id": "CHEMBL331265", "molecule_hierarchy": {"active_chembl_id": "CHEMBL331265", "molecule_chembl_id": "CHEMBL331265", "parent_chembl_id": "CHEMBL331265"}, "molecule_properties": {"alogp": "0.47", "aromatic_rings": 0, "full_molformula": "C5H12N2O2", "full_mwt": "132.16", "hba": 2, "hbd": 3, "heavy_atoms": 9, "mw_freebase": "132.16", "np_likeness_score": "-0.82", "num_ro5_violations": 0, "psa": "61.36", "qed_weighted": "0.30", "ro3_pass": "N", "rtb": 3}, "molecule_structures": {"canonical_smiles": "CCCCNC(=O)NO", "molfile": "\n     RDKit          2D\n\n  9  8  0  0  0  0  0  0  0  0999 V2000\n    0.6875    0.5958    0.0000 C   0  0  0  0  0  0  0  0  0  0  0  0\n    0.6875    1.4208    0.0000 O   0  0  0  0  0  0  0  0  0  0  0  0\n    1.4000    0.1833    0.0000 N   0  0  0  0  0  0  0  0  0  0  0  0\n   -0.0250    0.1833    0.0000 N   0  0  0  0  0  0  0  0  0  0  0  0\n    1.4000   -0.6417    0.0000 O   0  0  0  0  0  0  0  0  0  0  0  0\n   -0.7375    0.5958    0.0000 C   0  0  0  0  0  0  0  0  0  0  0  0\n   -1.4500    0.1833    0.0000 C   0  0  0  0  0  0  0  0  0  0  0  0\n   -2.1625    0.5875    0.0000 C   0  0  0  0  0  0  0  0  0  0  0  0\n   -2.8750    0.1750    0.0000 C   0  0  0  0  0  0  0  0  0  0  0  0\n  2  1  2  0\n  3  1  1  0\n  4  1  1  0\n  5  3  1  0\n  6  4  1  0\n  7  6  1  0\n  8  7  1  0\n  9  8  1  0\nM  END\n> <chembl_id>\nCHEMBL331265\n\n> <chembl_pref_name>\nNone", "standard_inchi": "InChI=1S/C5H12N2O2/c1-2-3-4-6-5(8)7-9/h9H,2-4H2,1H3,(H2,6,7,8)", "standard_inchi_key": "APTFDFXACXBQDO-UHFFFAOYSA-N"}, "molecule_synonyms": [], "molecule_type": "Small molecule", "natural_product": 0, "oral": false, "orphan": -1, "parenteral": false, "polymer_flag": 0, "pref_name": null, "prodrug": -1, "score": 24.0, "structure_type": "MOL", "therapeutic_flag": false, "topical": false, "usan_stem": null, "usan_stem_definition": null, "usan_substem": null, "usan_year": null, "veterinary": -1, "withdrawn_flag": false}, {"atc_classifications": [], "availability_type": -1, "biotherapeutic": null, "black_box_warning": 0, "chemical_probe": 0, "chirality": -1, "cross_references": [], "dosed_ingredient": false, "first_approval": null, "first_in_class": -1, "helm_notation": null, "inorganic_flag": -1, "max_phase": null, "molecule_chembl_id": "CHEMBL301645", "molecule_hierarchy": {"active_chembl_id": "CHEMBL301645", "molecule_chembl_id": "CHEMBL301645", "parent_chembl_id": "CHEMBL301645"}, "molecule_properties": {"alogp": "0.56", "aromatic_rings": 0, "full_molformula": "C6H12N2O2", "full_mwt": "144.17", "hba": 2, "hbd": 2, "heavy_atoms": 10, "mw_freebase": "144.17", "np_likeness_score": "-0.09", "num_ro5_violations": 0, "psa": "66.56", "qed_weighted": "0.44", "ro3_pass": "N", "rtb": 2}, "molecule_structures": {"canonical_smiles": "NC(=O)N(O)CC1CCC1", "molfile": "\n     RDKit          2D\n\n 10 10  0  0  0  0  0  0  0  0999 V2000\n    2.5792   -0.1042    0.0000 C   0  0  0  0  0  0  0  0  0  0  0  0\n    1.8667   -0.5167    0.0000 N   0  0  0  0  0  0  0  0  0  0  0  0\n    2.5667    0.7208    0.0000 O   0  0  0  0  0  0  0  0  0  0  0  0\n    1.8792   -1.3417    0.0000 C   0  0  0  0  0  0  0  0  0  0  0  0\n    3.2917   -0.5000    0.0000 N   0  0  0  0  0  0  0  0  0  0  0  0\n    1.1417   -0.1167    0.0000 O   0  0  0  0  0  0  0  0  0  0  0  0\n    1.1625   -1.7667    0.0000 C   0  0  0  0  0  0  0  0  0  0  0  0\n    0.1417   -2.3542    0.0000 C   0  0  0  0  0  0  0  0  0  0  0  0\n    0.9542   -2.5625    0.0000 C   0  0  0  0  0  0  0  0  0  0  0  0\n    0.3625   -1.5417    0.0000 C   0  0  0  0  0  0  0  0  0  0  0  0\n  2  1  1  0\n  3  1  2  0\n  4  2  1  0\n  5  1  1  0\n  6  2  1  0\n  7  4  1  0\n  8 10  1  0\n  9  7  1  0\n 10  7  1  0\n  8  9  1  0\nM  END\n> <chembl_id>\nCHEMBL301645\n\n> <chembl_pref_name>\nNone", "standard_inchi": "InChI=1S/C6H12N2O2/c7-6(9)8(10)4-5-2-1-3-5/h5,10H,1-4H2,(H2,7,9)", "standard_inchi_key": "VICYWDUJCXUQSR-UHFFFAOYSA-N"}, "molecule_synonyms": [], "molecule_type": "Small molecule", "natural_product": 0, "oral": false, "orphan": -1, "parenteral": false, "polymer_flag": 0, "pref_name": null, "prodrug": -1, "score": 22.0, "structure_type": "MOL", "therapeutic_flag": false, "topical": false, "usan_stem": null, "usan_stem_definition": null, "usan_substem": null, "usan_year": null, "veterinary": -1, "withdrawn_flag": false}, {"atc_classifications": [], "availability_type": -1, "biotherapeutic": null, "black_box_warning": 0, "chemical_probe": 0, "chirality": -1, "cross_references": [], "dosed_ingredient": false, "first_approval": null, "first_in_class": -1, "helm_notation": null, "inorganic_flag": -1, "max_phase": null, "molecule_chembl_id": "CHEMBL60903", "molecule_hierarchy": {"active_chembl_id": "CHEMBL60903", "molecule_chembl_id": "CHEMBL60903", "parent_chembl_id": "CHEMBL60903"}, "molecule_properties": {"alogp": "0.17", "aromatic_rings": 0, "full_molformula": "C5H10N2O2", "full_mwt": "130.15", "hba": 2, "hbd": 2, "heavy_atoms": 9, "mw_freebase": "130.15", "np_likeness_score": "-0.16", "num_ro5_violations": 0, "psa": "66.56", "qed_weighted": "0.41", "ro3_pass": "N", "rtb": 2}, "molecule_structures": {"canonical_smiles": "NC(=O)N(O)CC1CC1", "molfile": "\n     RDKit          2D\n\n  9  9  0  0  0  0  0  0  0  0999 V2000\n    2.5792    0.7958    0.0000 C   0  0  0  0  0  0  0  0  0  0  0  0\n    1.8625    0.3833    0.0000 N   0  0  0  0  0  0  0  0  0  0  0  0\n    1.1542   -0.8667    0.0000 C   0  0  0  0  0  0  0  0  0  0  0  0\n    0.3292   -0.8792    0.0000 C   0  0  0  0  0  0  0  0  0  0  0  0\n    0.7542   -1.5792    0.0000 C   0  0  0  0  0  0  0  0  0  0  0  0\n    1.8750   -0.4417    0.0000 C   0  0  0  0  0  0  0  0  0  0  0  0\n    2.5750    1.6208    0.0000 O   0  0  0  0  0  0  0  0  0  0  0  0\n    3.2917    0.4000    0.0000 N   0  0  0  0  0  0  0  0  0  0  0  0\n    1.1417    0.7833    0.0000 O   0  0  0  0  0  0  0  0  0  0  0  0\n  2  1  1  0\n  3  6  1  0\n  4  3  1  0\n  5  3  1  0\n  6  2  1  0\n  7  1  2  0\n  8  1  1  0\n  9  2  1  0\n  4  5  1  0\nM  END\n> <chembl_id>\nCHEMBL60903\n\n> <chembl_pref_name>\nNone", "standard_inchi": "InChI=1S/C5H10N2O2/c6-5(8)7(9)3-4-1-2-4/h4,9H,1-3H2,(H2,6,8)", "standard_inchi_key": "NILVHPAOZCSGPF-UHFFFAOYSA-N"}, "molecule_synonyms": [], "molecule_type": "Small molecule", "natural_product": 0, "oral": false, "orphan": -1, "parenteral": false, "polymer_flag": 0, "pref_name": null, "prodrug": -1, "score": 22.0, "structure_type": "MOL", "therapeutic_flag": false, "topical": false, "usan_stem": null, "usan_stem_definition": null, "usan_substem": null, "usan_year": null, "veterinary": -1, "withdrawn_flag": false}, {"atc_classifications": [], "availability_type": -1, "biotherapeutic": null, "black_box_warning": 0, "chemical_probe": 0, "chirality": -1, "cross_references": [], "dosed_ingredient": false, "first_approval": null, "first_in_class": -1, "helm_notation": null, "inorganic_flag": -1, "max_phase": null, "molecule_chembl_id": "CHEMBL3274873", "molecule_hierarchy": {"active_chembl_id": "CHEMBL3274873", "molecule_chembl_id": "CHEMBL3274873", "parent_chembl_id": "CHEMBL3274873"}, "molecule_properties": {"alogp": "-0.22", "aromatic_rings": 0, "full_molformula": "C3H8N2O2", "full_mwt": "104.11", "hba": 2, "hbd": 2, "heavy_atoms": 7, "mw_freebase": "104.11", "np_likeness_score": "-0.03", "num_ro5_violations": 0, "psa": "66.56", "qed_weighted": "0.36", "ro3_pass": "N", "rtb": 1}, "molecule_structures": {"canonical_smiles": "CCN(O)C(N)=O", "molfile": "\n     RDKit          2D\n\n  7  6  0  0  0  0  0  0  0  0999 V2000\n   18.0876   -5.1834    0.0000 C   0  0  0  0  0  0  0  0  0  0  0  0\n   18.8021   -4.7709    0.0000 N   0  0  0  0  0  0  0  0  0  0  0  0\n   17.3731   -4.7709    0.0000 N   0  0  0  0  0  0  0  0  0  0  0  0\n   18.0876   -6.0084    0.0000 O   0  0  0  0  0  0  0  0  0  0  0  0\n   19.5165   -5.1834    0.0000 O   0  0  0  0  0  0  0  0  0  0  0  0\n   18.8021   -3.9459    0.0000 C   0  0  0  0  0  0  0  0  0  0  0  0\n   19.5165   -3.5334    0.0000 C   0  0  0  0  0  0  0  0  0  0  0  0\n  1  2  1  0\n  1  3  1  0\n  1  4  2  0\n  2  5  1  0\n  2  6  1  0\n  6  7  1  0\nM  END\n> <chembl_id>\nCHEMBL3274873\n\n> <chembl_pref_name>\nNone", "standard_inchi": "InChI=1S/C3H8N2O2/c1-2-5(7)3(4)6/h7H,2H2,1H3,(H2,4,6)", "standard_inchi_key": "HGDLNBCHJKEIGZ-UHFFFAOYSA-N"}, "molecule_synonyms": [], "molecule_type": "Small molecule", "natural_product": 0, "oral": false, "orphan": -1, "parenteral": false, "polymer_flag": 0, "pref_name": null, "prodrug": -1, "score": 22.0, "structure_type": "MOL", "therapeutic_flag": false, "topical": false, "usan_stem": null, "usan_stem_definition": null, "usan_substem": null, "usan_year": null, "veterinary": -1, "withdrawn_flag": false}], "page_meta": {"limit": 5, "next": "/chembl/api/data/molecule/search.json?limit=5&offset=5&q=hydroxyurea", "offset": 0, "previous": null, "total_count": 164}}