{"molecules": [{"atc_classifications": [], "availability_type": null, "biotherapeutic": null, "black_box_warning": 0, "chemical_probe": 0, "chirality": 2, "cross_references": [], "dosed_ingredient": false, "first_approval": null, "first_in_class": 0, "helm_notation": null, "inorganic_flag": 0, "max_phase": "3.0", "molecule_chembl_id": "CHEMBL140", "molecule_hierarchy": {"active_chembl_id": "CHEMBL140", "molecule_chembl_id": "CHEMBL140", "parent_chembl_id": "CHEMBL140"}, "molecule_properties": {"alogp": "3.37", "aromatic_rings": 2, "full_molformula": "C21H20O6", "full_mwt": "368.39", "hba": 6, "hbd": 2, "heavy_atoms": 27, "mw_freebase": "368.39", "np_likeness_score": "0.72", "num_ro5_violations": 0, "psa": "93.06", "qed_weighted": "0.55", "ro3_pass": "N", "rtb": 8}, "molecule_structures": {"canonical_smiles": "COc1cc(/C=C/C(=O)CC(=O)/C=C/c2ccc(O)c(OC)c2)ccc1O", "molfile": "\n     RDKit          2D\n\n 27 28  0  0  0  0  0  0  0  0999 V2000\n    3.6387   -0.8963    0.0000 C   0  0  0  0  0  0  0  0  0  0  0  0\n    2.6003   -1.4977    0.0000 O   0  0  0  0  0  0  0  0  0  0  0  0\n    1.2990   -0.7500    0.0000 C   0  0  0  0  0  0  0  0  0  0  0  0\n    1.2990    0.7500    0.0000 C   0  0  0  0  0  0  0  0  0  0  0  0\n    0.0000    1.5000    0.0000 C   0  0  0  0  0  0  0  0  0  0  0  0\n   -0.0031    3.0008    0.0000 C   0  0  0  0  0  0  0  0  0  0  0  0\n   -1.3039    3.7494    0.0000 C   0  0  0  0  0  0  0  0  0  0  0  0\n   -1.3070    5.2502    0.0000 C   0  0  0  0  0  0  0  0  0  0  0  0\n   -0.2688    5.8520    0.0000 O   0  0  0  0  0  0  0  0  0  0  0  0\n   -2.6078    5.9988    0.0000 C   0  0  0  0  0  0  0  0  0  0  0  0\n   -2.6109    7.4996    0.0000 C   0  0  0  0  0  0  0  0  0  0  0  0\n   -1.5728    8.1014    0.0000 O   0  0  0  0  0  0  0  0  0  0  0  0\n   -3.9118    8.2481    0.0000 C   0  0  0  0  0  0  0  0  0  0  0  0\n   -3.9149    9.7490    0.0000 C   0  0  0  0  0  0  0  0  0  0  0  0\n   -5.2157   10.4975    0.0000 C   0  0  0  0  0  0  0  0  0  0  0  0\n   -5.2210   11.9975    0.0000 C   0  0  0  0  0  0  0  0  0  0  0  0\n   -6.5226   12.7430    0.0000 C   0  0  0  0  0  0  0  0  0  0  0  0\n   -7.8190   11.9885    0.0000 C   0  0  0  0  0  0  0  0  0  0  0  0\n   -8.8603   12.5849    0.0000 O   0  0  0  0  0  0  0  0  0  0  0  0\n   -7.8138   10.4885    0.0000 C   0  0  0  0  0  0  0  0  0  0  0  0\n   -9.1094    9.7310    0.0000 O   0  0  0  0  0  0  0  0  0  0  0  0\n   -9.1036    8.5310    0.0000 C   0  0  0  0  0  0  0  0  0  0  0  0\n   -6.5122    9.7430    0.0000 C   0  0  0  0  0  0  0  0  0  0  0  0\n   -1.2990    0.7500    0.0000 C   0  0  0  0  0  0  0  0  0  0  0  0\n   -1.2990   -0.7500    0.0000 C   0  0  0  0  0  0  0  0  0  0  0  0\n    0.0000   -1.5000    0.0000 C   0  0  0  0  0  0  0  0  0  0  0  0\n    0.0000   -2.7000    0.0000 O   0  0  0  0  0  0  0  0  0  0  0  0\n  1  2  1  0\n  2  3  1  0\n  3  4  2  0\n  4  5  1  0\n  5  6  1  0\n  6  7  2  0\n  7  8  1  0\n  8  9  2  0\n  8 10  1  0\n 10 11  1  0\n 11 12  2  0\n 11 13  1  0\n 13 14  2  0\n 14 15  1  0\n 15 16  2  0\n 16 17  1  0\n 17 18  2  0\n 18 19  1  0\n 18 20  1  0\n 20 21  1  0\n 21 22  1  0\n 20 23  2  0\n 23 15  1  0\n  5 24  2  0\n 24 25  1  0\n 25 26  2  0\n 26  3  1  0\n 26 27  1  0\nM  END\n> <chembl_id>\nCHEMBL140\n\n> <chembl_pref_name>\nCURCUMIN", "standard_inchi": "InChI=1S/C21H20O6/c1-26-20-11-14(5-9-18(20)24)3-7-16(22)13-17(23)8-4-15-6-10-19(25)21(12-15)27-2/h3-12,24-25H,13H2,1-2H3/b7-3+,8-4+", "standard_inchi_key": "VFLDPWHFBUODDF-FCXRPNKRSA-N"}, "molecule_synonyms": [{"molecule_synonym": "C.i. 75300", "syn_type": "OTHER", "synonyms": "C.I. 75300"}, {"molecule_synonym": "Ci 75300", "syn_type": "OTHER", "synonyms": "CI 75300"}, {"molecule_synonym": "Ci-75300", "syn_type": "OTHER", "synonyms": "CI-75300"}, {"molecule_synonym": "C.i. natural yellow 3", "syn_type": "OTHER", "synonyms": "C.I. NATURAL YELLOW 3"}, {"molecule_synonym": "Curcumin", "syn_type": "MERCK_INDEX", "synonyms": "CURCUMIN"}, {"molecule_synonym": "Curcumin", "syn_type": "OTHER", "synonyms": "CURCUMIN"}, {"molecule_synonym": "Curcumin", "syn_type": "USP", "synonyms": "CURCUMIN"}, {"molecule_synonym": "Curcumin e100", "syn_type": "OTHER", "synonyms": "CURCUMIN E100"}, {"molecule_synonym": "Diferuloylmethane", "syn_type": "OTHER", "synonyms": "DIFERULOYLMETHANE"}, {"molecule_synonym": "E 100", "syn_type": "RESEARCH_CODE", "synonyms": "E 100"}, {"molecule_synonym": "E-100", "syn_type": "RESEARCH_CODE", "synonyms": "E-100"}, {"molecule_synonym": "E100", "syn_type": "RESEARCH_CODE", "synonyms": "E100"}, {"molecule_synonym": "Haldar", "syn_type": "OTHER", "synonyms": "HALDAR"}, {"molecule_synonym": "INS-100(I)", "syn_type": "RESEARCH_CODE", "synonyms": "INS-100(I)"}, {"molecule_synonym": "INS NO. 100(I)", "syn_type": "RESEARCH_CODE", "synonyms": "INS NO. 100(I)"}, {"molecule_synonym": "Jianghuangsu", "syn_type": "OTHER", "synonyms": "JIANGHUANGSU"}, {"molecule_synonym": "Kacha haldi", "syn_type": "OTHER", "synonyms": "KACHA HALDI"}, {"molecule_synonym": "Kurkum", "syn_type": "OTHER", "synonyms": "KURKUM"}, {"molecule_synonym": "Lipocurc", "syn_type": "OTHER", "synonyms": "LIPOCURC"}, {"molecule_synonym": "Merita earth", "syn_type": "OTHER", "synonyms": "MERITA EARTH"}, {"molecule_synonym": "Nanocurc", "syn_type": "OTHER", "synonyms": "NANOCURC"}, {"molecule_synonym": "NSC-32982", "syn_type": "RESEARCH_CODE", "synonyms": "NSC-32982"}, {"molecule_synonym": "NSC-687842", "syn_type": "RESEARCH_CODE", "synonyms": "NSC-687842"}, {"molecule_synonym": "Turmeric yellow", "syn_type": "OTHER", "synonyms": "TURMERIC YELLOW"}], "molecule_type": "Small molecule", "natural_product": 1, "oral": false, "orphan": 0, "parenteral": false, "polymer_flag": 0, "pref_name": "CURCUMIN", "prodrug": 0, "score": 33.0, "structure_type": "MOL", "therapeutic_flag": false, "topical": false, "usan_stem": null, "usan_stem_definition": null, "usan_substem": null, "usan_year": null, "veterinary": 0, "withdrawn_flag": false}, {"atc_classifications": [], "availability_type": -1, "biotherapeutic": null, "black_box_warning": 0, "chemical_probe": 0, "chirality": -1, "cross_references": [], "dosed_ingredient": false, "first_approval": null, "first_in_class": -1, "helm_notation": null, "inorganic_flag": -1, "max_phase": null, "molecule_chembl_id": "CHEMBL3892642", "molecule_hierarchy": {"active_chembl_id": "CHEMBL3892642", "molecule_chembl_id": "CHEMBL3892642", "parent_chembl_id": "CHEMBL3892642"}, "molecule_properties": {"alogp": "2.85", "aromatic_rings": 2, "full_molformula": "C21H20O6", "full_mwt": "368.39", "hba": 6, "hbd": 3, "heavy_atoms": 27, "mw_freebase": "368.39", "np_likeness_score": "0.98", "num_ro5_violations": 0, "psa": "104.06", "qed_weighted": "0.49", "ro3_pass": "N", "rtb": 8}, "molecule_structures": {"canonical_smiles": "COc1cc(/C=C/C(=O)CC(=O)/C=C/c2ccc(O)c(CO)c2)ccc1O", "molfile": "\n     RDKit          2D\n\n 27 28  0  0  0  0  0  0  0  0999 V2000\n    3.6387   -0.8963    0.0000 C   0  0  0  0  0  0  0  0  0  0  0  0\n    2.6003   -1.4977    0.0000 O   0  0  0  0  0  0  0  0  0  0  0  0\n    1.2990   -0.7500    0.0000 C   0  0  0  0  0  0  0  0  0  0  0  0\n    1.2990    0.7500    0.0000 C   0  0  0  0  0  0  0  0  0  0  0  0\n    0.0000    1.5000    0.0000 C   0  0  0  0  0  0  0  0  0  0  0  0\n   -0.0031    3.0008    0.0000 C   0  0  0  0  0  0  0  0  0  0  0  0\n   -1.3039    3.7494    0.0000 C   0  0  0  0  0  0  0  0  0  0  0  0\n   -1.3070    5.2502    0.0000 C   0  0  0  0  0  0  0  0  0  0  0  0\n   -0.2688    5.8520    0.0000 O   0  0  0  0  0  0  0  0  0  0  0  0\n   -2.6078    5.9988    0.0000 C   0  0  0  0  0  0  0  0  0  0  0  0\n   -2.6109    7.4996    0.0000 C   0  0  0  0  0  0  0  0  0  0  0  0\n   -1.5728    8.1014    0.0000 O   0  0  0  0  0  0  0  0  0  0  0  0\n   -3.9118    8.2481    0.0000 C   0  0  0  0  0  0  0  0  0  0  0  0\n   -3.9149    9.7490    0.0000 C   0  0  0  0  0  0  0  0  0  0  0  0\n   -5.2157   10.4975    0.0000 C   0  0  0  0  0  0  0  0  0  0  0  0\n   -5.2210   11.9975    0.0000 C   0  0  0  0  0  0  0  0  0  0  0  0\n   -6.5226   12.7430    0.0000 C   0  0  0  0  0  0  0  0  0  0  0  0\n   -7.8190   11.9885    0.0000 C   0  0  0  0  0  0  0  0  0  0  0  0\n   -8.8603   12.5849    0.0000 O   0  0  0  0  0  0  0  0  0  0  0  0\n   -7.8138   10.4885    0.0000 C   0  0  0  0  0  0  0  0  0  0  0  0\n   -9.1094    9.7310    0.0000 C   0  0  0  0  0  0  0  0  0  0  0  0\n   -9.1036    8.5310    0.0000 O   0  0  0  0  0  0  0  0  0  0  0  0\n   -6.5122    9.7430    0.0000 C   0  0  0  0  0  0  0  0  0  0  0  0\n   -1.2990    0.7500    0.0000 C   0  0  0  0  0  0  0  0  0  0  0  0\n   -1.2990   -0.7500    0.0000 C   0  0  0  0  0  0  0  0  0  0  0  0\n    0.0000   -1.5000    0.0000 C   0  0  0  0  0  0  0  0  0  0  0  0\n    0.0000   -2.7000    0.0000 O   0  0  0  0  0  0  0  0  0  0  0  0\n  1  2  1  0\n  2  3  1  0\n  3  4  2  0\n  4  5  1  0\n  5  6  1  0\n  6  7  2  0\n  7  8  1  0\n  8  9  2  0\n  8 10  1  0\n 10 11  1  0\n 11 12  2  0\n 11 13  1  0\n 13 14  2  0\n 14 15  1  0\n 15 16  2  0\n 16 17  1  0\n 17 18  2  0\n 18 19  1  0\n 18 20  1  0\n 20 21  1  0\n 21 22  1  0\n 20 23  2  0\n 23 15  1  0\n  5 24  2  0\n 24 25  1  0\n 25 26  2  0\n 26  3  1  0\n 26 27  1  0\nM  END\n> <chembl_id>\nCHEMBL3892642\n\n> <chembl_pref_name>\nNone", "standard_inchi": "InChI=1S/C21H20O6/c1-27-21-11-15(5-9-20(21)26)3-7-18(24)12-17(23)6-2-14-4-8-19(25)16(10-14)13-22/h2-11,22,25-26H,12-13H2,1H3/b6-2+,7-3+", "standard_inchi_key": "UAVJPMNEDOIHEI-YPCIICBESA-N"}, "molecule_synonyms": [], "molecule_type": "Small molecule", "natural_product": 0, "oral": false, "orphan": -1, "parenteral": false, "polymer_flag": 0, "pref_name": null, "prodrug": -1, "score": 33.0, "structure_type": "MOL", "therapeutic_flag": false, "topical": false, "usan_stem": null, "usan_stem_definition": null, "usan_substem": null, "usan_year": null, "veterinary": -1, "withdrawn_flag": false}, {"atc_classifications": [], "availability_type": -1, "biotherapeutic": null, "black_box_warning": 0, "chemical_probe": 0, "chirality": -1, "cross_references": [], "dosed_ingredient": false, "first_approval": null, "first_in_class": -1, "helm_notation": null, "inorganic_flag": -1, "max_phase": null, "molecule_chembl_id": "CHEMBL1916041", "molecule_hierarchy": {"active_chembl_id": "CHEMBL140", "molecule_chembl_id": "CHEMBL1916041", "parent_chembl_id": "CHEMBL140"}, "molecule_properties": {"alogp": "3.37", "aromatic_rings": 2, "full_molformula": "C21H20O6", "full_mwt": "380.29", "hba": 6, "hbd": 2, "heavy_atoms": 27, "mw_freebase": "368.39", "np_likeness_score": "0.72", "num_ro5_violations": 0, "psa": "93.06", "qed_weighted": "0.55", "ro3_pass": "N", "rtb": 8}, "molecule_structures": {"canonical_smiles": "CO[13c]1[13cH][13c](/C=C/C(=O)CC(=O)/C=C/[13c]2[13cH][13cH][13c](O)[13c](OC)[13cH]2)[13cH][13cH][13c]1O", "molfile": "\n     RDKit          2D\n\n 27 28  0  0  0  0  0  0  0  0999 V2000\n   -2.3556    0.0500    0.0000 C   0  0  0  0  0  0  0  0  0  0  0  0\n   -2.3568   -0.7773    0.0000 C   0  0  0  0  0  0  0  0  0  0  0  0\n   -1.6419   -1.1902    0.0000 C   0  0  0  0  0  0  0  0  0  0  0  0\n   -0.9255   -0.7769    0.0000 C   0  0  0  0  0  0  0  0  0  0  0  0\n   -0.9284    0.0537    0.0000 C   0  0  0  0  0  0  0  0  0  0  0  0\n   -1.6437    0.4628    0.0000 C   0  0  0  0  0  0  0  0  0  0  0  0\n   -0.2154    0.4689    0.0000 C   0  0  0  0  0  0  0  0  0  0  0  0\n    0.5006    0.0591    0.0000 C   0  0  0  0  0  0  0  0  0  0  0  0\n    1.2135    0.4742    0.0000 C   0  0  0  0  0  0  0  0  0  0  0  0\n    1.9295    0.0644    0.0000 C   0  0  0  0  0  0  0  0  0  0  0  0\n    1.2104    1.2992    0.0000 O   0  0  0  0  0  0  0  0  0  0  0  0\n    2.6424    0.4796    0.0000 C   0  0  0  0  0  0  0  0  0  0  0  0\n    3.3584    0.0698    0.0000 C   0  0  0  0  0  0  0  0  0  0  0  0\n    2.6393    1.3046    0.0000 O   0  0  0  0  0  0  0  0  0  0  0  0\n    4.0714    0.4850    0.0000 C   0  0  0  0  0  0  0  0  0  0  0  0\n    4.7874    0.0752    0.0000 C   0  0  0  0  0  0  0  0  0  0  0  0\n    4.7878   -0.7469    0.0000 C   0  0  0  0  0  0  0  0  0  0  0  0\n    5.5030   -1.1566    0.0000 C   0  0  0  0  0  0  0  0  0  0  0  0\n    6.2169   -0.7414    0.0000 C   0  0  0  0  0  0  0  0  0  0  0  0\n    6.2111    0.0879    0.0000 C   0  0  0  0  0  0  0  0  0  0  0  0\n    5.4954    0.4938    0.0000 C   0  0  0  0  0  0  0  0  0  0  0  0\n    6.9226    0.5056    0.0000 O   0  0  0  0  0  0  0  0  0  0  0  0\n    7.6400    0.0983    0.0000 C   0  0  0  0  0  0  0  0  0  0  0  0\n    6.9335   -1.1503    0.0000 O   0  0  0  0  0  0  0  0  0  0  0  0\n   -3.0716   -1.1893    0.0000 O   0  0  0  0  0  0  0  0  0  0  0  0\n   -3.0702    0.4624    0.0000 O   0  0  0  0  0  0  0  0  0  0  0  0\n   -3.0704    1.2874    0.0000 C   0  0  0  0  0  0  0  0  0  0  0  0\n  1  2  2  0\n 12 14  2  0\n  5  7  1  0\n 13 15  2  0\n  3  4  2  0\n 15 16  1  0\n  7  8  2  0\n 16 17  2  0\n 17 18  1  0\n  8  9  1  0\n 18 19  2  0\n  4  5  1  0\n 19 20  1  0\n  9 10  1  0\n 20 21  2  0\n 21 16  1  0\n  2  3  1  0\n 20 22  1  0\n  9 11  2  0\n 22 23  1  0\n  5  6  2  0\n 19 24  1  0\n 10 12  1  0\n  2 25  1  0\n  6  1  1  0\n  1 26  1  0\n 12 13  1  0\n 26 27  1  0\nM  ISO  8   1  13   2  13   3  13   4  13   5  13   6  13  16  13  17  13\nM  ISO  4  18  13  19  13  20  13  21  13\nM  END\n> <chembl_id>\nCHEMBL1916041\n\n> <chembl_pref_name>\nNone", "standard_inchi": "InChI=1S/C21H20O6/c1-26-20-11-14(5-9-18(20)24)3-7-16(22)13-17(23)8-4-15-6-10-19(25)21(12-15)27-2/h3-12,24-25H,13H2,1-2H3/b7-3+,8-4+/i5+1,6+1,9+1,10+1,11+1,12+1,14+1,15+1,18+1,19+1,20+1,21+1", "standard_inchi_key": "VFLDPWHFBUODDF-PGQWOOLSSA-N"}, "molecule_synonyms": [], "molecule_type": "Small molecule", "natural_product": 0, "oral": false, "orphan": -1, "parenteral": false, "polymer_flag": 0, "pref_name": null, "prodrug": -1, "score": 28.0, "structure_type": "MOL", "therapeutic_flag": false, "topical": false, "usan_stem": null, "usan_stem_definition": null, "usan_substem": null, "usan_year": null, "veterinary": -1, "withdrawn_flag": false}, {"atc_classifications": [], "availability_type": -1, "biotherapeutic": null, "black_box_warning": 0, "chemical_probe": 0, "chirality": -1, "cross_references": [], "dosed_ingredient": false, "first_approval": null, "first_in_class": -1, "helm_notation": null, "inorganic_flag": -1, "max_phase": null, "molecule_chembl_id": "CHEMBL507318", "molecule_hierarchy": {"active_chembl_id": "CHEMBL507318", "molecule_chembl_id": "CHEMBL507318", "parent_chembl_id": "CHEMBL507318"}, "molecule_properties": {"alogp": "2.53", "aromatic_rings": 2, "full_molformula": "C23H23NO7", "full_mwt": "425.44", "hba": 8, "hbd": 2, "heavy_atoms": 31, "mw_freebase": "425.44", "np_likeness_score": "0.69", "num_ro5_violations": 0, "psa": "125.15", "qed_weighted": "0.26", "ro3_pass": "N", "rtb": 10}, "molecule_structures": {"canonical_smiles": "COc1cc(/C=C/C(=O)CC(=O)/C=C/c2ccc(OC(=O)CN)c(OC)c2)ccc1O", "molfile": "\n     RDKit          2D\n\n 31 32  0  0  0  0  0  0  0  0999 V2000\n   -1.0973  -19.0625    0.0000 C   0  0  0  0  0  0  0  0  0  0  0  0\n   -1.0984  -19.8898    0.0000 C   0  0  0  0  0  0  0  0  0  0  0  0\n   -0.3836  -20.3027    0.0000 C   0  0  0  0  0  0  0  0  0  0  0  0\n    0.3328  -19.8894    0.0000 C   0  0  0  0  0  0  0  0  0  0  0  0\n    0.3300  -19.0588    0.0000 C   0  0  0  0  0  0  0  0  0  0  0  0\n   -0.3854  -18.6497    0.0000 C   0  0  0  0  0  0  0  0  0  0  0  0\n    1.0429  -18.6436    0.0000 C   0  0  0  0  0  0  0  0  0  0  0  0\n    1.7589  -19.0534    0.0000 C   0  0  0  0  0  0  0  0  0  0  0  0\n    2.4718  -18.6383    0.0000 C   0  0  0  0  0  0  0  0  0  0  0  0\n    3.1878  -19.0481    0.0000 C   0  0  0  0  0  0  0  0  0  0  0  0\n    2.4687  -17.8133    0.0000 O   0  0  0  0  0  0  0  0  0  0  0  0\n    3.9008  -18.6329    0.0000 C   0  0  0  0  0  0  0  0  0  0  0  0\n    4.6168  -19.0427    0.0000 C   0  0  0  0  0  0  0  0  0  0  0  0\n    3.8976  -17.8079    0.0000 O   0  0  0  0  0  0  0  0  0  0  0  0\n    5.3297  -18.6275    0.0000 C   0  0  0  0  0  0  0  0  0  0  0  0\n    6.0457  -19.0373    0.0000 C   0  0  0  0  0  0  0  0  0  0  0  0\n    6.0462  -19.8594    0.0000 C   0  0  0  0  0  0  0  0  0  0  0  0\n    6.7613  -20.2691    0.0000 C   0  0  0  0  0  0  0  0  0  0  0  0\n    7.4752  -19.8539    0.0000 C   0  0  0  0  0  0  0  0  0  0  0  0\n    7.4695  -19.0246    0.0000 C   0  0  0  0  0  0  0  0  0  0  0  0\n    6.7537  -18.6187    0.0000 C   0  0  0  0  0  0  0  0  0  0  0  0\n    8.1809  -18.6069    0.0000 O   0  0  0  0  0  0  0  0  0  0  0  0\n    8.1918  -20.2628    0.0000 O   0  0  0  0  0  0  0  0  0  0  0  0\n   -1.8118  -18.6501    0.0000 O   0  0  0  0  0  0  0  0  0  0  0  0\n   -1.8120  -17.8251    0.0000 C   0  0  0  0  0  0  0  0  0  0  0  0\n   -1.8132  -20.3018    0.0000 O   0  0  0  0  0  0  0  0  0  0  0  0\n    8.1749  -17.7820    0.0000 C   0  0  0  0  0  0  0  0  0  0  0  0\n    8.9042  -19.8466    0.0000 C   0  0  0  0  0  0  0  0  0  0  0  0\n    9.6207  -20.2555    0.0000 C   0  0  0  0  0  0  0  0  0  0  0  0\n    8.8999  -19.0216    0.0000 O   0  0  0  0  0  0  0  0  0  0  0  0\n   10.3331  -19.8393    0.0000 N   0  0  0  0  0  0  0  0  0  0  0  0\n  3  4  2  0\n 15 16  1  0\n  7  8  2  0\n 16 17  2  0\n 17 18  1  0\n  8  9  1  0\n 18 19  2  0\n  4  5  1  0\n 19 20  1  0\n  9 10  1  0\n 20 21  2  0\n 21 16  1  0\n  2  3  1  0\n 20 22  1  0\n  9 11  2  0\n 19 23  1  0\n  5  6  2  0\n  1 24  1  0\n 10 12  1  0\n 24 25  1  0\n  6  1  1  0\n  2 26  1  0\n 12 13  1  0\n 22 27  1  0\n  1  2  2  0\n 23 28  1  0\n 12 14  2  0\n 28 29  1  0\n  5  7  1  0\n 28 30  2  0\n 13 15  2  0\n 29 31  1  0\nM  END\n> <chembl_id>\nCHEMBL507318\n\n> <chembl_pref_name>\nMONOGLYCINOYL CURCUMIN", "standard_inchi": "InChI=1S/C23H23NO7/c1-29-21-11-15(5-9-19(21)27)3-7-17(25)13-18(26)8-4-16-6-10-20(22(12-16)30-2)31-23(28)14-24/h3-12,27H,13-14,24H2,1-2H3/b7-3+,8-4+", "standard_inchi_key": "RUJGYNRHHOECPE-FCXRPNKRSA-N"}, "molecule_synonyms": [], "molecule_type": "Small molecule", "natural_product": 0, "oral": false, "orphan": -1, "parenteral": false, "polymer_flag": 0, "pref_name": "MONOGLYCINOYL CURCUMIN", "prodrug": -1, "score": 27.0, "structure_type": "MOL", "therapeutic_flag": false, "topical": false, "usan_stem": null, "usan_stem_definition": null, "usan_substem": null, "usan_year": null, "veterinary": -1, "withdrawn_flag": false}, {"atc_classifications": [], "availability_type": -1, "biotherapeutic": null, "black_box_warning": 0, "chemical_probe": 0, "chirality": -1, "cross_references": [], "dosed_ingredient": false, "first_approval": null, "first_in_class": -1, "helm_notation": null, "inorganic_flag": -1, "max_phase": null, "molecule_chembl_id": "CHEMBL452316", "molecule_hierarchy": {"active_chembl_id": "CHEMBL452316", "molecule_chembl_id": "CHEMBL452316", "parent_chembl_id": "CHEMBL452316"}, "molecule_properties": {"alogp": "3.55", "aromatic_rings": 2, "full_molformula": "C26H29NO7", "full_mwt": "467.52", "hba": 8, "hbd": 2, "heavy_atoms": 34, "mw_freebase": "467.52", "np_likeness_score": "0.68", "num_ro5_violations": 0, "psa": "125.15", "qed_weighted": "0.22", "ro3_pass": "N", "rtb": 11}, "molecule_structures": {"canonical_smiles": "COc1cc(/C=C/C(=O)CC(=O)/C=C/c2ccc(OC(=O)[C@@H](N)C(C)C)c(OC)c2)ccc1O", "molfile": "\n     RDKit          2D\n\n 34 35  0  0  0  0  0  0  0  0999 V2000\n    2.1501  -23.1037    0.0000 C   0  0  0  0  0  0  0  0  0  0  0  0\n    2.1484  -23.9282    0.0000 C   0  0  0  0  0  0  0  0  0  0  0  0\n    2.8648  -24.3411    0.0000 C   0  0  0  0  0  0  0  0  0  0  0  0\n    3.5794  -23.9274    0.0000 C   0  0  0  0  0  0  0  0  0  0  0  0\n    3.5794  -23.0982    0.0000 C   0  0  0  0  0  0  0  0  0  0  0  0\n    2.8621  -22.6907    0.0000 C   0  0  0  0  0  0  0  0  0  0  0  0\n    4.2928  -22.6816    0.0000 C   0  0  0  0  0  0  0  0  0  0  0  0\n    5.0069  -23.0942    0.0000 C   0  0  0  0  0  0  0  0  0  0  0  0\n    5.7204  -22.6776    0.0000 C   0  0  0  0  0  0  0  0  0  0  0  0\n    6.4344  -23.0860    0.0000 C   0  0  0  0  0  0  0  0  0  0  0  0\n    5.7157  -21.8526    0.0000 O   0  0  0  0  0  0  0  0  0  0  0  0\n    7.1480  -22.6736    0.0000 C   0  0  0  0  0  0  0  0  0  0  0  0\n    7.8662  -23.0820    0.0000 C   0  0  0  0  0  0  0  0  0  0  0  0\n    7.1473  -21.8486    0.0000 O   0  0  0  0  0  0  0  0  0  0  0  0\n    8.5797  -22.6654    0.0000 C   0  0  0  0  0  0  0  0  0  0  0  0\n    9.2937  -23.0780    0.0000 C   0  0  0  0  0  0  0  0  0  0  0  0\n    9.2945  -23.8988    0.0000 C   0  0  0  0  0  0  0  0  0  0  0  0\n   10.0113  -24.3070    0.0000 C   0  0  0  0  0  0  0  0  0  0  0  0\n   10.7221  -23.8945    0.0000 C   0  0  0  0  0  0  0  0  0  0  0  0\n   10.7177  -23.0631    0.0000 C   0  0  0  0  0  0  0  0  0  0  0  0\n   10.0039  -22.6563    0.0000 C   0  0  0  0  0  0  0  0  0  0  0  0\n   11.4289  -22.6469    0.0000 O   0  0  0  0  0  0  0  0  0  0  0  0\n   11.4412  -24.3015    0.0000 O   0  0  0  0  0  0  0  0  0  0  0  0\n    1.4342  -22.6915    0.0000 O   0  0  0  0  0  0  0  0  0  0  0  0\n    1.4339  -21.8665    0.0000 C   0  0  0  0  0  0  0  0  0  0  0  0\n    1.4362  -24.3398    0.0000 O   0  0  0  0  0  0  0  0  0  0  0  0\n   11.4240  -21.8219    0.0000 C   0  0  0  0  0  0  0  0  0  0  0  0\n   12.1540  -23.8877    0.0000 C   0  0  0  0  0  0  0  0  0  0  0  0\n   12.8687  -24.2946    0.0000 C   0  0  0  0  0  0  0  0  0  0  0  0\n   12.1475  -23.0627    0.0000 O   0  0  0  0  0  0  0  0  0  0  0  0\n   13.5815  -23.8808    0.0000 N   0  0  0  0  0  0  0  0  0  0  0  0\n   12.8709  -25.1196    0.0000 C   0  0  0  0  0  0  0  0  0  0  0  0\n   12.1625  -25.5376    0.0000 C   0  0  0  0  0  0  0  0  0  0  0  0\n   13.5900  -25.5307    0.0000 C   0  0  0  0  0  0  0  0  0  0  0  0\n 16 17  2  0\n 17 18  1  0\n  8  9  1  0\n 18 19  2  0\n  4  5  1  0\n 19 20  1  0\n  9 10  1  0\n 20 21  2  0\n 21 16  1  0\n  2  3  1  0\n 20 22  1  0\n  9 11  2  0\n 19 23  1  0\n  5  6  2  0\n  1 24  1  0\n 10 12  1  0\n 24 25  1  0\n  6  1  1  0\n  2 26  1  0\n 12 13  1  0\n 22 27  1  0\n  1  2  2  0\n 23 28  1  0\n 12 14  2  0\n 28 29  1  0\n  5  7  1  0\n 28 30  2  0\n 13 15  2  0\n 29 31  1  0\n  3  4  2  0\n 29 32  1  1\n 15 16  1  0\n 32 33  1  0\n  7  8  2  0\n 32 34  1  0\nM  END\n> <chembl_id>\nCHEMBL452316\n\n> <chembl_pref_name>\nMONOVALINOYL CURCUMIN", "standard_inchi": "InChI=1S/C26H29NO7/c1-16(2)25(27)26(31)34-22-12-8-18(14-24(22)33-4)6-10-20(29)15-19(28)9-5-17-7-11-21(30)23(13-17)32-3/h5-14,16,25,30H,15,27H2,1-4H3/b9-5+,10-6+/t25-/m0/s1", "standard_inchi_key": "VFKLDHRMILHGAN-RFFAATPASA-N"}, "molecule_synonyms": [], "molecule_type": "Small molecule", "natural_product": 0, "oral": false, "orphan": -1, "parenteral": false, "polymer_flag": 0, "pref_name": "MONOVALINOYL CURCUMIN", "prodrug": -1, "score": 26.0, "structure_type": "MOL", "therapeutic_flag": false, "topical": false, "usan_stem": null, "usan_stem_definition": null, "usan_substem": null, "usan_year": null, "veterinary": -1, "withdrawn_flag": false}], "page_meta": {"limit": 5, "next": "/chembl/api/data/molecule/search.json?limit=5&offset=5&q=curcumin", "offset": 0, "previous": null, "total_count": 56}}